[ {
  "format_version" : "1.0",
  "generated_by" : "cytoscape-3.8.2",
  "target_cytoscapejs_version" : "~2.1",
  "title" : "ra_map",
  "style" : [ {
    "selector" : "node",
    "css" : {
      "width" : 40.0,
      "background-opacity" : 1.0,
      "border-width" : 2.0,
      "font-size" : 25,
      "border-opacity" : 1.0,
      "shape" : "ellipse",
      "color" : "rgb(0,0,0)",
      "font-family" : "SansSerif.plain",
      "font-weight" : "normal",
      "height" : 40.0,
      "text-opacity" : 1.0,
      "border-color" : "rgb(0,0,0)",
      "text-valign" : "center",
      "text-halign" : "center",
      "background-color" : "rgb(51,153,255)",
      "content" : "data(name)"
    }
  }, {
    "selector" : "node[TF = 'Transcription factor']",
    "css" : {
      "width" : 120.0,
      "height" : 120.0
    }
  }, {
    "selector" : "node[TF = 'RA map protein']",
    "css" : {
      "background-color" : "rgb(253,192,131)"
    }
  }, {
    "selector" : "node[TF = 'Transcription factor']",
    "css" : {
      "background-color" : "rgb(182,182,255)"
    }
  }, {
    "selector" : "node[TF = 'Transcription factor']",
    "css" : {
      "shape" : "diamond"
    }
  }, {
    "selector" : "node[TF = 'Transcription factor']",
    "css" : {
      "font-size" : 50
    }
  }, {
    "selector" : "node[ id = '2995' ]",
    "css" : {
      "text-valign" : "center"
    }
  }, {
    "selector" : "node[ id = '7531' ]",
    "css" : {
      "text-valign" : "center"
    }
  }, {
    "selector" : "node[ id = '7470' ]",
    "css" : {
      "text-valign" : "center"
    }
  }, {
    "selector" : "node[ id = '7664' ]",
    "css" : {
      "text-valign" : "center"
    }
  }, {
    "selector" : "node[ id = '7647' ]",
    "css" : {
      "text-valign" : "center"
    }
  }, {
    "selector" : "node[ id = '2995' ]",
    "css" : {
      "text-valign" : "center"
    }
  }, {
    "selector" : "node[ id = '2995' ]",
    "css" : {
      "text-valign" : "center"
    }
  }, {
    "selector" : "node[ id = '2995' ]",
    "css" : {
      "text-valign" : "center"
    }
  }, {
    "selector" : "node[ id = '2978' ]",
    "css" : {
      "text-valign" : "center"
    }
  }, {
    "selector" : "node[ id = '2979' ]",
    "css" : {
      "text-valign" : "center"
    }
  }, {
    "selector" : "node[ id = '2600' ]",
    "css" : {
      "text-valign" : "center"
    }
  }, {
    "selector" : "node[ id = '2601' ]",
    "css" : {
      "text-valign" : "center"
    }
  }, {
    "selector" : "node[ id = '3213' ]",
    "css" : {
      "text-valign" : "center"
    }
  }, {
    "selector" : "node[ id = '2995' ]",
    "css" : {
      "text-valign" : "center"
    }
  }, {
    "selector" : "node[ id = '3062' ]",
    "css" : {
      "text-valign" : "center"
    }
  }, {
    "selector" : "node[ id = '2618' ]",
    "css" : {
      "text-valign" : "center"
    }
  }, {
    "selector" : "node[ id = '2995' ]",
    "css" : {
      "text-valign" : "center"
    }
  }, {
    "selector" : "node[ id = '8324' ]",
    "css" : {
      "text-valign" : "center"
    }
  }, {
    "selector" : "node[ id = '8325' ]",
    "css" : {
      "text-valign" : "center"
    }
  }, {
    "selector" : "node[ id = '8685' ]",
    "css" : {
      "text-valign" : "center"
    }
  }, {
    "selector" : "node[ id = '8241' ]",
    "css" : {
      "text-valign" : "center"
    }
  }, {
    "selector" : "node[ id = '8308' ]",
    "css" : {
      "text-valign" : "center"
    }
  }, {
    "selector" : "node[ id = '8090' ]",
    "css" : {
      "text-valign" : "center"
    }
  }, {
    "selector" : "node[ id = '8702' ]",
    "css" : {
      "text-valign" : "center"
    }
  }, {
    "selector" : "node[ id = '8703' ]",
    "css" : {
      "text-valign" : "center"
    }
  }, {
    "selector" : "node[ id = '8324' ]",
    "css" : {
      "text-valign" : "center"
    }
  }, {
    "selector" : "node[ id = '8325' ]",
    "css" : {
      "text-valign" : "center"
    }
  }, {
    "selector" : "node[ id = '8685' ]",
    "css" : {
      "text-valign" : "center"
    }
  }, {
    "selector" : "node[ id = '8241' ]",
    "css" : {
      "text-valign" : "center"
    }
  }, {
    "selector" : "node[ id = '8308' ]",
    "css" : {
      "text-valign" : "center"
    }
  }, {
    "selector" : "node[ id = '8090' ]",
    "css" : {
      "text-valign" : "center"
    }
  }, {
    "selector" : "node[ id = '8702' ]",
    "css" : {
      "text-valign" : "center"
    }
  }, {
    "selector" : "node[ id = '8703' ]",
    "css" : {
      "text-valign" : "center"
    }
  }, {
    "selector" : "node[ id = '2995' ]",
    "css" : {
      "text-valign" : "center"
    }
  }, {
    "selector" : "node[ id = '8324' ]",
    "css" : {
      "text-valign" : "center"
    }
  }, {
    "selector" : "node[ id = '8325' ]",
    "css" : {
      "text-valign" : "center"
    }
  }, {
    "selector" : "node[ id = '8685' ]",
    "css" : {
      "text-valign" : "center"
    }
  }, {
    "selector" : "node[ id = '8241' ]",
    "css" : {
      "text-valign" : "center"
    }
  }, {
    "selector" : "node[ id = '8308' ]",
    "css" : {
      "text-valign" : "center"
    }
  }, {
    "selector" : "node[ id = '8090' ]",
    "css" : {
      "text-valign" : "center"
    }
  }, {
    "selector" : "node[ id = '8702' ]",
    "css" : {
      "text-valign" : "center"
    }
  }, {
    "selector" : "node[ id = '8703' ]",
    "css" : {
      "text-valign" : "center"
    }
  }, {
    "selector" : "node[ id = '2995' ]",
    "css" : {
      "text-valign" : "center"
    }
  }, {
    "selector" : "node[ id = '8324' ]",
    "css" : {
      "text-valign" : "center"
    }
  }, {
    "selector" : "node[ id = '8325' ]",
    "css" : {
      "text-valign" : "center"
    }
  }, {
    "selector" : "node[ id = '8685' ]",
    "css" : {
      "text-valign" : "center"
    }
  }, {
    "selector" : "node[ id = '8241' ]",
    "css" : {
      "text-valign" : "center"
    }
  }, {
    "selector" : "node[ id = '8308' ]",
    "css" : {
      "text-valign" : "center"
    }
  }, {
    "selector" : "node[ id = '8090' ]",
    "css" : {
      "text-valign" : "center"
    }
  }, {
    "selector" : "node[ id = '8702' ]",
    "css" : {
      "text-valign" : "center"
    }
  }, {
    "selector" : "node[ id = '8703' ]",
    "css" : {
      "text-valign" : "center"
    }
  }, {
    "selector" : "node:selected",
    "css" : {
      "background-color" : "rgb(255,255,0)"
    }
  }, {
    "selector" : "edge",
    "css" : {
      "curve-style": "bezier"
    }
  }, {
    "selector" : "edge[interaction = 'shared']",
    "css" : {
      "target-arrow-shape" : "none"
    }
  }, {
    "selector" : "edge[interaction = 'inhibits']",
    "css" : {
      "target-arrow-shape" : "tee"
    }
  }, {
    "selector" : "edge[interaction = 'activates']",
    "css" : {
      "target-arrow-shape" : "triangle"
    }
  }, {
    "selector" : "edge[interaction = 'inhibits']",
    "css" : {
      "target-arrow-color" : "rgb(255,0,0)"
    }
  }, {
    "selector" : "edge[interaction = 'activates']",
    "css" : {
      "target-arrow-color" : "rgb(0,0,0)"
    }
  }, {
    "selector" : "edge[interaction = 'inhibits']",
    "css" : {
      "line-color" : "rgb(255,0,0)",
      "width" : 4,
      "arrow-scale": 1.2
    }
  }, {
    "selector" : "edge[interaction = 'activates']",
    "css" : {
      "line-color" : "rgb(0,0,0)",
      "width" : 4,
      "arrow-scale": 1.2
    }
  }, {
    "selector" : "edge:selected",
    "css" : {
      "line-color" : "rgb(255,0,0)"
    }
  } ]
} ]
