"","Run","Age","Ancestry","Arthropathymeds","Assay Type","Avgspotlen","Bases","Biologics","Bioproject","Biosample","Bytes","Cell_type","Center Name","Consent","Das_score","Datastore Filetype","Datastore Provider","Datastore Region","Disease_activity","Donor","Experiment","Gender","Geo_accession (Exp)","Instrument","Leflumide","Librarylayout","Libraryselection","Librarysource","Nsaids","Organism","Othermeds","Phenotype","Plaquenil","Platform","Releasedate","Rituximab","Sample Name","Source_name","Sra Study","Steroids","Sulfasalazine","Tissue"
"1","SRR7610172",66,"--","--","RNA-Seq",100,1628605300,"--","PRJNA483133","SAMN09726560",688396101,"White blood cells","GEO","public","--","fastq,sra","gs,ncbi,s3","gs.US,ncbi.public,s3.us-east-1","--","C137","SRX4475015","male","GSM3308425","Illumina HiSeq 2500","--","SINGLE","cDNA","TRANSCRIPTOMIC","--","Homo sapiens","--","Healthy","--","ILLUMINA",2018-09-25,"--","GSM3308425","RNA from white blood cells","SRP155483","--","--","Blood"
"2","SRR7610173",72,"--","--","RNA-Seq",100,1665122900,"--","PRJNA483133","SAMN09726559",716879376,"White blood cells","GEO","public","--","fastq,sra","gs,ncbi,s3","gs.US,ncbi.public,s3.us-east-1","--","C141","SRX4475016","male","GSM3308426","Illumina HiSeq 2500","--","SINGLE","cDNA","TRANSCRIPTOMIC","--","Homo sapiens","--","Healthy","--","ILLUMINA",2018-09-25,"--","GSM3308426","RNA from white blood cells","SRP155483","--","--","Blood"
"3","SRR7610174",72,"--","--","RNA-Seq",100,1559566000,"--","PRJNA483133","SAMN09726625",668128379,"White blood cells","GEO","public","--","fastq,sra","gs,ncbi,s3","gs.US,ncbi.public,s3.us-east-1","--","C148","SRX4475017","female","GSM3308427","Illumina HiSeq 2500","--","SINGLE","cDNA","TRANSCRIPTOMIC","--","Homo sapiens","--","Healthy","--","ILLUMINA",2018-09-25,"--","GSM3308427","RNA from white blood cells","SRP155483","--","--","Blood"
"4","SRR7610175",61,"--","--","RNA-Seq",100,1552170900,"--","PRJNA483133","SAMN09726624",655730075,"White blood cells","GEO","public","--","fastq,sra","gs,ncbi,s3","gs.US,ncbi.public,s3.us-east-1","--","C383","SRX4475018","male","GSM3308428","Illumina HiSeq 2500","--","SINGLE","cDNA","TRANSCRIPTOMIC","--","Homo sapiens","--","Healthy","--","ILLUMINA",2018-09-25,"--","GSM3308428","RNA from white blood cells","SRP155483","--","--","Blood"
"5","SRR7610179",71,"--","--","RNA-Seq",100,1581611800,"--","PRJNA483133","SAMN09726620",676466409,"White blood cells","GEO","public","--","fastq,sra","gs,ncbi,s3","gs.US,ncbi.public,s3.us-east-1","--","C39","SRX4475022","female","GSM3308432","Illumina HiSeq 2500","--","SINGLE","cDNA","TRANSCRIPTOMIC","--","Homo sapiens","--","Healthy","--","ILLUMINA",2018-09-25,"--","GSM3308432","RNA from white blood cells","SRP155483","--","--","Blood"
"6","SRR7610176",50,"--","--","RNA-Seq",100,1528133100,"--","PRJNA483133","SAMN09726623",640086385,"White blood cells","GEO","public","--","fastq,sra","gs,ncbi,s3","gs.US,ncbi.public,s3.us-east-1","--","C391","SRX4475019","female","GSM3308429","Illumina HiSeq 2500","--","SINGLE","cDNA","TRANSCRIPTOMIC","--","Homo sapiens","--","Healthy","--","ILLUMINA",2018-09-25,"--","GSM3308429","RNA from white blood cells","SRP155483","--","--","Blood"
"7","SRR7610177",59,"--","--","RNA-Seq",100,1636981000,"--","PRJNA483133","SAMN09726622",698331053,"White blood cells","GEO","public","--","fastq,sra","gs,ncbi,s3","gs.US,ncbi.public,s3.us-east-1","--","C392","SRX4475020","female","GSM3308430","Illumina HiSeq 2500","--","SINGLE","cDNA","TRANSCRIPTOMIC","--","Homo sapiens","--","Healthy","--","ILLUMINA",2018-09-25,"--","GSM3308430","RNA from white blood cells","SRP155483","--","--","Blood"
"8","SRR7610178",62,"--","--","RNA-Seq",100,1655701800,"--","PRJNA483133","SAMN09726621",699561850,"White blood cells","GEO","public","--","fastq,sra","gs,ncbi,s3","gs.US,ncbi.public,s3.us-east-1","--","C396","SRX4475021","female","GSM3308431","Illumina HiSeq 2500","--","SINGLE","cDNA","TRANSCRIPTOMIC","--","Homo sapiens","--","Healthy","--","ILLUMINA",2018-09-25,"--","GSM3308431","RNA from white blood cells","SRP155483","--","--","Blood"
"9","SRR7610180",68,"--","--","RNA-Seq",100,1615562400,"--","PRJNA483133","SAMN09726619",701873999,"White blood cells","GEO","public","--","fastq,sra","gs,ncbi,s3","gs.US,ncbi.public,s3.us-east-1","--","C43","SRX4475023","female","GSM3308433","Illumina HiSeq 2500","--","SINGLE","cDNA","TRANSCRIPTOMIC","--","Homo sapiens","--","Healthy","--","ILLUMINA",2018-09-25,"--","GSM3308433","RNA from white blood cells","SRP155483","--","--","Blood"
"10","SRR7610181",65,"--","--","RNA-Seq",100,1438615900,"--","PRJNA483133","SAMN09726618",599698463,"White blood cells","GEO","public","--","fastq,sra","gs,ncbi,s3","gs.US,ncbi.public,s3.us-east-1","--","C450","SRX4475024","male","GSM3308434","Illumina HiSeq 2500","--","SINGLE","cDNA","TRANSCRIPTOMIC","--","Homo sapiens","--","Healthy","--","ILLUMINA",2018-09-25,"--","GSM3308434","RNA from white blood cells","SRP155483","--","--","Blood"
"11","SRR7610182",65,"--","--","RNA-Seq",100,1598612000,"--","PRJNA483133","SAMN09726617",681081501,"White blood cells","GEO","public","--","fastq,sra","gs,ncbi,s3","gs.US,ncbi.public,s3.us-east-1","--","C451","SRX4475025","female","GSM3308435","Illumina HiSeq 2500","--","SINGLE","cDNA","TRANSCRIPTOMIC","--","Homo sapiens","--","Healthy","--","ILLUMINA",2018-09-25,"--","GSM3308435","RNA from white blood cells","SRP155483","--","--","Blood"
"12","SRR7610183",63,"--","--","RNA-Seq",100,1277900500,"--","PRJNA483133","SAMN09726616",538087615,"White blood cells","GEO","public","--","fastq,sra","gs,ncbi,s3","gs.US,ncbi.public,s3.us-east-1","--","C454","SRX4475026","male","GSM3308436","Illumina HiSeq 2500","--","SINGLE","cDNA","TRANSCRIPTOMIC","--","Homo sapiens","--","Healthy","--","ILLUMINA",2018-09-25,"--","GSM3308436","RNA from white blood cells","SRP155483","--","--","Blood"
"13","SRR7610184",73,"--","--","RNA-Seq",100,1576401900,"--","PRJNA483133","SAMN09726615",675648818,"White blood cells","GEO","public","--","fastq,sra","gs,ncbi,s3","gs.US,ncbi.public,s3.us-east-1","--","C455","SRX4475027","male","GSM3308437","Illumina HiSeq 2500","--","SINGLE","cDNA","TRANSCRIPTOMIC","--","Homo sapiens","--","Healthy","--","ILLUMINA",2018-09-25,"--","GSM3308437","RNA from white blood cells","SRP155483","--","--","Blood"
"14","SRR7610185",76,"--","--","RNA-Seq",100,1622189800,"--","PRJNA483133","SAMN09726614",687633342,"White blood cells","GEO","public","--","fastq,sra","gs,ncbi,s3","gs.US,ncbi.public,s3.us-east-1","--","C468","SRX4475028","male","GSM3308438","Illumina HiSeq 2500","--","SINGLE","cDNA","TRANSCRIPTOMIC","--","Homo sapiens","--","Healthy","--","ILLUMINA",2018-09-25,"--","GSM3308438","RNA from white blood cells","SRP155483","--","--","Blood"
"15","SRR7610186",56,"--","--","RNA-Seq",100,1580918000,"--","PRJNA483133","SAMN09726613",678187732,"White blood cells","GEO","public","--","fastq,sra","gs,ncbi,s3","gs.US,ncbi.public,s3.us-east-1","--","C470","SRX4475029","female","GSM3308439","Illumina HiSeq 2500","--","SINGLE","cDNA","TRANSCRIPTOMIC","--","Homo sapiens","--","Healthy","--","ILLUMINA",2018-09-25,"--","GSM3308439","RNA from white blood cells","SRP155483","--","--","Blood"
"16","SRR7610187",55,"--","--","RNA-Seq",100,1557437100,"--","PRJNA483133","SAMN09726612",651579630,"White blood cells","GEO","public","--","fastq,sra","gs,ncbi,s3","gs.US,ncbi.public,s3.us-east-1","--","C473","SRX4475030","female","GSM3308440","Illumina HiSeq 2500","--","SINGLE","cDNA","TRANSCRIPTOMIC","--","Homo sapiens","--","Healthy","--","ILLUMINA",2018-09-25,"--","GSM3308440","RNA from white blood cells","SRP155483","--","--","Blood"
"17","SRR7610189",55,"--","--","RNA-Seq",100,1566103700,"--","PRJNA483133","SAMN09726610",677718272,"White blood cells","GEO","public","--","fastq,sra","gs,ncbi,s3","gs.US,ncbi.public,s3.us-east-1","--","C478","SRX4475032","male","GSM3308442","Illumina HiSeq 2500","--","SINGLE","cDNA","TRANSCRIPTOMIC","--","Homo sapiens","--","Healthy","--","ILLUMINA",2018-09-25,"--","GSM3308442","RNA from white blood cells","SRP155483","--","--","Blood"
"18","SRR7610190",69,"--","--","RNA-Seq",100,1540689100,"--","PRJNA483133","SAMN09726609",665349525,"White blood cells","GEO","public","--","fastq,sra","gs,ncbi,s3","gs.US,ncbi.public,s3.us-east-1","--","C480","SRX4475033","female","GSM3308443","Illumina HiSeq 2500","--","SINGLE","cDNA","TRANSCRIPTOMIC","--","Homo sapiens","--","Healthy","--","ILLUMINA",2018-09-25,"--","GSM3308443","RNA from white blood cells","SRP155483","--","--","Blood"
"19","SRR7610191",58,"--","--","RNA-Seq",100,1469911000,"--","PRJNA483133","SAMN09726608",616868174,"White blood cells","GEO","public","--","fastq,sra","gs,ncbi,s3","gs.US,ncbi.public,s3.us-east-1","--","C56","SRX4475034","female","GSM3308444","Illumina HiSeq 2500","--","SINGLE","cDNA","TRANSCRIPTOMIC","--","Homo sapiens","--","Healthy","--","ILLUMINA",2018-09-25,"--","GSM3308444","RNA from white blood cells","SRP155483","--","--","Blood"
"20","SRR7610192",68,"--","--","RNA-Seq",100,1633194900,"--","PRJNA483133","SAMN09726607",696986723,"White blood cells","GEO","public","--","fastq,sra","gs,ncbi,s3","gs.US,ncbi.public,s3.us-east-1","--","C72","SRX4475035","female","GSM3308445","Illumina HiSeq 2500","--","SINGLE","cDNA","TRANSCRIPTOMIC","--","Homo sapiens","--","Healthy","--","ILLUMINA",2018-09-25,"--","GSM3308445","RNA from white blood cells","SRP155483","--","--","Blood"
"21","SRR7610193",57,"--","--","RNA-Seq",100,1522780500,"--","PRJNA483133","SAMN09726606",645499754,"White blood cells","GEO","public","--","fastq,sra","gs,ncbi,s3","gs.US,ncbi.public,s3.us-east-1","--","C82","SRX4475036","male","GSM3308446","Illumina HiSeq 2500","--","SINGLE","cDNA","TRANSCRIPTOMIC","--","Homo sapiens","--","Healthy","--","ILLUMINA",2018-09-25,"--","GSM3308446","RNA from white blood cells","SRP155483","--","--","Blood"
"22","SRR7610194",47,"--","--","RNA-Seq",100,1655532600,"--","PRJNA483133","SAMN09726605",700239171,"White blood cells","GEO","public","--","fastq,sra","gs,ncbi,s3","gs.US,ncbi.public,s3.us-east-1","--","C84","SRX4475037","female","GSM3308447","Illumina HiSeq 2500","--","SINGLE","cDNA","TRANSCRIPTOMIC","--","Homo sapiens","--","Healthy","--","ILLUMINA",2018-09-25,"--","GSM3308447","RNA from white blood cells","SRP155483","--","--","Blood"
"23","SRR7610195",33,"Caucasian","Methotrexate 25mg/wk","RNA-Seq",100,1504764500,"Tocilizumab","PRJNA483133","SAMN09726604",658927658,"White blood cells","GEO","public","3.3","fastq,sra","gs,ncbi,s3","gs.US,ncbi.public,s3.us-east-1","Moderate","SN258","SRX4475038","male","GSM3308448","Illumina HiSeq 2500","Leflumide 20mg/day","SINGLE","cDNA","TRANSCRIPTOMIC","--","Homo sapiens","--","Rheumatoid arthritis","Plaquenil 400mg/day","ILLUMINA",2018-09-25,"--","GSM3308448","RNA from white blood cells","SRP155483","Prednisolone 15mg/day","Sulfasalazine 20mg/day","Blood"
"24","SRR7610196",53,"Caucasian","--","RNA-Seq",100,1628001600,"--","PRJNA483133","SAMN09726603",690800401,"White blood cells","GEO","public","3.45","fastq,sra","gs,ncbi,s3","gs.US,ncbi.public,s3.us-east-1","Moderate","SN293","SRX4475039","female","GSM3308449","Illumina HiSeq 2500","--","SINGLE","cDNA","TRANSCRIPTOMIC","Meloxicam","Homo sapiens","--","Rheumatoid arthritis","--","ILLUMINA",2018-09-25,"--","GSM3308449","RNA from white blood cells","SRP155483","Prednisolone","--","Blood"
"25","SRR7610197",63,"Caucasian","Methotrexate 20mg/wk","RNA-Seq",100,1591914600,"Adalimumab","PRJNA483133","SAMN09726523",682740176,"White blood cells","GEO","public","2.29","fastq,sra","gs,ncbi,s3","gs.US,ncbi.public,s3.us-east-1","remission","SN392","SRX4475040","female","GSM3308450","Illumina HiSeq 2500","--","SINGLE","cDNA","TRANSCRIPTOMIC","prosyn","Homo sapiens","Ca Vit D irbesartan","Rheumatoid arthritis","Plaquenil 400mg/day","ILLUMINA",2018-09-25,"--","GSM3308450","RNA from white blood cells","SRP155483","Prednisolone 3mg/day","Sulfasalazine 20mg/day","Blood"
"26","SRR7610198",67,"--","--","RNA-Seq",100,1989372300,"--","PRJNA483133","SAMN09726589",844323256,"White blood cells","GEO","public","2.5","fastq,sra","gs,ncbi,s3","gs.US,ncbi.public,s3.us-east-1","--","SN393","SRX4475041","female","GSM3308451","Illumina HiSeq 2500","--","SINGLE","cDNA","TRANSCRIPTOMIC","--","Homo sapiens","--","Rheumatoid arthritis","--","ILLUMINA",2018-09-25,"--","GSM3308451","RNA from white blood cells","SRP155483","--","--","Blood"
"27","SRR7610199",52,"Caucasian","Methotrexate 20mg/wk","RNA-Seq",100,1412868000,"Etanercept","PRJNA483133","SAMN09726588",588748637,"White blood cells","GEO","public","2.45","fastq,sra","gs,ncbi,s3","gs.US,ncbi.public,s3.us-east-1","remission","SN399","SRX4475042","female","GSM3308452","Illumina HiSeq 2500","--","SINGLE","cDNA","TRANSCRIPTOMIC","--","Homo sapiens","--","Rheumatoid arthritis","Plaquenil 400mg/day","ILLUMINA",2018-09-25,"--","GSM3308452","RNA from white blood cells","SRP155483","Prednisolone 7.5mg/day","--","Blood"
"28","SRR7610200",31,"Caucasian","--","RNA-Seq",100,1657550200,"Adalimumab","PRJNA483133","SAMN09726587",715767056,"White blood cells","GEO","public","2.16","fastq,sra","gs,ncbi,s3","gs.US,ncbi.public,s3.us-east-1","remission","SN401","SRX4475043","female","GSM3308453","Illumina HiSeq 2500","--","SINGLE","cDNA","TRANSCRIPTOMIC","--","Homo sapiens","--","Rheumatoid arthritis","--","ILLUMINA",2018-09-25,"--","GSM3308453","RNA from white blood cells","SRP155483","--","--","Blood"
"29","SRR7610201",66,"Caucasian","Methotrexate 20mg/wk","RNA-Seq",100,1437163400,"Adalimumab","PRJNA483133","SAMN09726580",619902784,"White blood cells","GEO","public","3.96","fastq,sra","gs,ncbi,s3","gs.US,ncbi.public,s3.us-east-1","Moderate","SN419","SRX4475044","male","GSM3308454","Illumina HiSeq 2500","--","SINGLE","cDNA","TRANSCRIPTOMIC","--","Homo sapiens","--","Rheumatoid arthritis","--","ILLUMINA",2018-09-25,"--","GSM3308454","RNA from white blood cells","SRP155483","--","--","Blood"
"30","SRR7610202",73,"Caucasian","--","RNA-Seq",100,1611645600,"--","PRJNA483133","SAMN09726586",683153902,"White blood cells","GEO","public","7.42","fastq,sra","gs,ncbi,s3","gs.US,ncbi.public,s3.us-east-1","High","SN420","SRX4475045","female","GSM3308455","Illumina HiSeq 2500","--","SINGLE","cDNA","TRANSCRIPTOMIC","--","Homo sapiens","Propranolol","Rheumatoid arthritis","Plaquenil 400mg/day","ILLUMINA",2018-09-25,"--","GSM3308455","RNA from white blood cells","SRP155483","--","--","Blood"
"31","SRR7610203",72,"Caucasian","Methotrexate 20mg/wk","RNA-Seq",100,1483655300,"--","PRJNA483133","SAMN09726585",619728997,"White blood cells","GEO","public","4.43","fastq,sra","gs,ncbi,s3","gs.US,ncbi.public,s3.us-east-1","Moderate","SN421","SRX4475046","female","GSM3308456","Illumina HiSeq 2500","--","SINGLE","cDNA","TRANSCRIPTOMIC","--","Homo sapiens","--","Rheumatoid arthritis","Plaquenil 400mg/day","ILLUMINA",2018-09-25,"--","GSM3308456","RNA from white blood cells","SRP155483","--","--","Blood"
"32","SRR7610204",71,"Caucasian","--","RNA-Seq",100,1451368200,"--","PRJNA483133","SAMN09726584",619749448,"White blood cells","GEO","public","6.23","fastq,sra","gs,ncbi,s3","gs.US,ncbi.public,s3.us-east-1","High","SN422","SRX4475071","female","GSM3308457","Illumina HiSeq 2500","--","SINGLE","cDNA","TRANSCRIPTOMIC","--","Homo sapiens","--","Rheumatoid arthritis","--","ILLUMINA",2018-09-25,"--","GSM3308457","RNA from white blood cells","SRP155483","Prednisolone 15mg/day for 1 week","--","Blood"
"33","SRR7610205",67,"Caucasian","Methotrexate","RNA-Seq",100,1630094900,"Etanercept","PRJNA483133","SAMN09726583",699174832,"White blood cells","GEO","public","1.68","fastq,sra","gs,ncbi,s3","gs.US,ncbi.public,s3.us-east-1","remission","SN423","SRX4475072","female","GSM3308458","Illumina HiSeq 2500","--","SINGLE","cDNA","TRANSCRIPTOMIC","--","Homo sapiens","--","Rheumatoid arthritis","Plaquenil","ILLUMINA",2018-09-25,"--","GSM3308458","RNA from white blood cells","SRP155483","--","--","Blood"
"34","SRR7610206",30,"Caucasian","Methotrexate","RNA-Seq",100,1477613400,"Adalimumab","PRJNA483133","SAMN09726582",631662751,"White blood cells","GEO","public","3.21","fastq,sra","gs,ncbi,s3","gs.US,ncbi.public,s3.us-east-1","Moderate","SN424","SRX4475073","female","GSM3308459","Illumina HiSeq 2500","--","SINGLE","cDNA","TRANSCRIPTOMIC","--","Homo sapiens","--","Rheumatoid arthritis","Plaquenil","ILLUMINA",2018-09-25,"--","GSM3308459","RNA from white blood cells","SRP155483","Prednisolone","Sulfasalazine","Blood"
"35","SRR7610207",70,"--","--","RNA-Seq",100,1554655400,"--","PRJNA483133","SAMN09726581",658191278,"White blood cells","GEO","public","1.8","fastq,sra","gs,ncbi,s3","gs.US,ncbi.public,s3.us-east-1","--","SN425","SRX4475074","male","GSM3308460","Illumina HiSeq 2500","--","SINGLE","cDNA","TRANSCRIPTOMIC","--","Homo sapiens","--","Rheumatoid arthritis","--","ILLUMINA",2018-09-25,"--","GSM3308460","RNA from white blood cells","SRP155483","--","--","Blood"
"36","SRR7610208",49,"Caucasian","--","RNA-Seq",100,1548676600,"--","PRJNA483133","SAMN09726579",663940103,"White blood cells","GEO","public","3.57","fastq,sra","gs,ncbi,s3","gs.US,ncbi.public,s3.us-east-1","Moderate","SN426","SRX4475075","female","GSM3308461","Illumina HiSeq 2500","--","SINGLE","cDNA","TRANSCRIPTOMIC","--","Homo sapiens","--","Rheumatoid arthritis","--","ILLUMINA",2018-09-25,"--","GSM3308461","RNA from white blood cells","SRP155483","--","--","Blood"
"37","SRR7610209",29,"Caucasian","--","RNA-Seq",100,1639183600,"--","PRJNA483133","SAMN09726578",696606360,"White blood cells","GEO","public","4.47","fastq,sra","gs,ncbi,s3","gs.US,ncbi.public,s3.us-east-1","Moderate","SN431","SRX4475076","male","GSM3308462","Illumina HiSeq 2500","--","SINGLE","cDNA","TRANSCRIPTOMIC","--","Homo sapiens","--","Rheumatoid arthritis","--","ILLUMINA",2018-09-25,"--","GSM3308462","RNA from white blood cells","SRP155483","--","--","Blood"
"38","SRR7610213",78,"Caucasian","Methotrexate 20mg/wk","RNA-Seq",100,1694999500,"Etanercept","PRJNA483133","SAMN09726574",716321996,"White blood cells","GEO","public","2.4","fastq,sra","gs,ncbi,s3","gs.US,ncbi.public,s3.us-east-1","remission","SN443","SRX4475080","male","GSM3308466","Illumina HiSeq 2500","--","SINGLE","cDNA","TRANSCRIPTOMIC","--","Homo sapiens","--","Rheumatoid arthritis","Plaquenil 200mg/day","ILLUMINA",2018-09-25,"--","GSM3308466","RNA from white blood cells","SRP155483","Prednisolone 4mg/day","--","Blood"
"39","SRR7610214",71,"Caucasian","--","RNA-Seq",100,1563948300,"--","PRJNA483133","SAMN09726573",666411932,"White blood cells","GEO","public","5.79","fastq,sra","gs,ncbi,s3","gs.US,ncbi.public,s3.us-east-1","High","SN444","SRX4475081","female","GSM3308467","Illumina HiSeq 2500","--","SINGLE","cDNA","TRANSCRIPTOMIC","--","Homo sapiens","--","Rheumatoid arthritis","--","ILLUMINA",2018-09-25,"--","GSM3308467","RNA from white blood cells","SRP155483","Prednisolone","--","Blood"
"40","SRR7610215",45,"Caucasian","Methotrexate 20mg/wk","RNA-Seq",100,1400601700,"Adalimumab","PRJNA483133","SAMN09726572",600450933,"White blood cells","GEO","public","3.97","fastq,sra","gs,ncbi,s3","gs.US,ncbi.public,s3.us-east-1","Moderate","SN445","SRX4475082","female","GSM3308468","Illumina HiSeq 2500","--","SINGLE","cDNA","TRANSCRIPTOMIC","--","Homo sapiens","--","Rheumatoid arthritis","Plaquenil 200mg/day","ILLUMINA",2018-09-25,"--","GSM3308468","RNA from white blood cells","SRP155483","Prednisolone 5mg/day","--","Blood"
"41","SRR7610216",67,"Caucasian","--","RNA-Seq",100,1593955500,"Etanercept","PRJNA483133","SAMN09726571",672123846,"White blood cells","GEO","public","2.42","fastq,sra","gs,ncbi,s3","gs.US,ncbi.public,s3.us-east-1","remission","SN446","SRX4475083","male","GSM3308469","Illumina HiSeq 2500","--","SINGLE","cDNA","TRANSCRIPTOMIC","--","Homo sapiens","--","Rheumatoid arthritis","--","ILLUMINA",2018-09-25,"--","GSM3308469","RNA from white blood cells","SRP155483","Prednisolone 6mg/day","--","Blood"
"42","SRR7610217",74,"Caucasian","--","RNA-Seq",100,1697067200,"--","PRJNA483133","SAMN09726570",719760959,"White blood cells","GEO","public","5.58","fastq,sra","gs,ncbi,s3","gs.US,ncbi.public,s3.us-east-1","High","SN448","SRX4475084","male","GSM3308470","Illumina HiSeq 2500","--","SINGLE","cDNA","TRANSCRIPTOMIC","--","Homo sapiens","Digoxin Warfarin","Rheumatoid arthritis","Plaquenil","ILLUMINA",2018-09-25,"--","GSM3308470","RNA from white blood cells","SRP155483","Prednisolone","--","Blood"
"43","SRR7610218",71,"Caucasian","Methotrexate","RNA-Seq",100,1529711900,"Etanercept","PRJNA483133","SAMN09726569",655074139,"White blood cells","GEO","public","2.09","fastq,sra","gs,ncbi,s3","gs.US,ncbi.public,s3.us-east-1","remission","SN451","SRX4475085","male","GSM3308471","Illumina HiSeq 2500","--","SINGLE","cDNA","TRANSCRIPTOMIC","--","Homo sapiens","Telmisartan atenolol. Atorvastatin alendronic acid","Rheumatoid arthritis","--","ILLUMINA",2018-09-25,"--","GSM3308471","RNA from white blood cells","SRP155483","--","--","Blood"
"44","SRR7610219",59,"Caucasian","--","RNA-Seq",100,1375385200,"--","PRJNA483133","SAMN09726568",585012389,"White blood cells","GEO","public","2.66","fastq,sra","gs,ncbi,s3","gs.US,ncbi.public,s3.us-east-1","Low","SN454","SRX4475086","female","GSM3308472","Illumina HiSeq 2500","--","SINGLE","cDNA","TRANSCRIPTOMIC","--","Homo sapiens","--","Rheumatoid arthritis","--","ILLUMINA",2018-09-25,"--","GSM3308472","RNA from white blood cells","SRP155483","--","--","Blood"
"45","SRR7610221",32,"Caucasian","Methotrexate 20mg/wk","RNA-Seq",100,1480093800,"Infliximab","PRJNA483133","SAMN09726566",626906848,"White blood cells","GEO","public","3.72","fastq,sra","gs,ncbi,s3","gs.US,ncbi.public,s3.us-east-1","Moderate","SN479","SRX4475088","female","GSM3308474","Illumina HiSeq 2500","--","SINGLE","cDNA","TRANSCRIPTOMIC","--","Homo sapiens","--","Rheumatoid arthritis","--","ILLUMINA",2018-09-25,"--","GSM3308474","RNA from white blood cells","SRP155483","Prednisolone 7.5mg/day","--","Blood"
"46","SRR7610223",59,"Caucasian","Methotrexate","RNA-Seq",100,1555550700,"Etanercept","PRJNA483133","SAMN09726564",649662667,"White blood cells","GEO","public","2.46","fastq,sra","gs,ncbi,s3","gs.US,ncbi.public,s3.us-east-1","remission","SN483","SRX4475090","male","GSM3308476","Illumina HiSeq 2500","--","SINGLE","cDNA","TRANSCRIPTOMIC","--","Homo sapiens","--","Rheumatoid arthritis","--","ILLUMINA",2018-09-25,"--","GSM3308476","RNA from white blood cells","SRP155483","--","Sulfasalazine","Blood"
"47","SRR7610225",64,"Caucasian","Methotrexate","RNA-Seq",100,1639570500,"Abatacept","PRJNA483133","SAMN09726562",694486699,"White blood cells","GEO","public","3.45","fastq,sra","gs,ncbi,s3","gs.US,ncbi.public,s3.us-east-1","Moderate","SN486","SRX4475092","male","GSM3308478","Illumina HiSeq 2500","--","SINGLE","cDNA","TRANSCRIPTOMIC","--","Homo sapiens","Maybe Metformin metoprolol perinopril lecanidipine","Rheumatoid arthritis","--","ILLUMINA",2018-09-25,"--","GSM3308478","RNA from white blood cells","SRP155483","Prednisolone","--","Blood"
"48","SRR7610226",59,"Caucasian","--","RNA-Seq",100,1676957600,"--","PRJNA483133","SAMN09726561",704730500,"White blood cells","GEO","public","5.77","fastq,sra","gs,ncbi,s3","gs.US,ncbi.public,s3.us-east-1","High","SN487","SRX4475093","female","GSM3308479","Illumina HiSeq 2500","--","SINGLE","cDNA","TRANSCRIPTOMIC","--","Homo sapiens","--","Rheumatoid arthritis","--","ILLUMINA",2018-09-25,"--","GSM3308479","RNA from white blood cells","SRP155483","Prednisolone","--","Blood"
"49","SRR7610237",44,"Caucasian","--","RNA-Seq",100,1685679400,"--","PRJNA483133","SAMN09726592",712426591,"White blood cells","GEO","public","3.68","fastq,sra","gs,ncbi,s3","gs.US,ncbi.public,s3.us-east-1","Moderate","SN519","SRX4475104","female","GSM3308490","Illumina HiSeq 2500","--","SINGLE","cDNA","TRANSCRIPTOMIC","Meloxicam","Homo sapiens","--","Rheumatoid arthritis","--","ILLUMINA",2018-09-25,"--","GSM3308490","RNA from white blood cells","SRP155483","Kecort 40mg x2 on day of bloods","--","Blood"
"50","SRR7610238",20,"--","--","RNA-Seq",100,1581844600,"--","PRJNA483133","SAMN09726591",671327529,"White blood cells","GEO","public","--","fastq,sra","gs,ncbi,s3","gs.US,ncbi.public,s3.us-east-1","--","SN520","SRX4475105","female","GSM3308491","Illumina HiSeq 2500","--","SINGLE","cDNA","TRANSCRIPTOMIC","--","Homo sapiens","--","Rheumatoid arthritis","--","ILLUMINA",2018-09-25,"--","GSM3308491","RNA from white blood cells","SRP155483","--","--","Blood"
"51","SRR7610239",69,"Caucasian","Methotrexate 10mg/wk","RNA-Seq",100,1609769100,"--","PRJNA483133","SAMN09726590",695037194,"White blood cells","GEO","public","1.45","fastq,sra","gs,ncbi,s3","gs.US,ncbi.public,s3.us-east-1","remission","SN522","SRX4475106","female","GSM3308492","Illumina HiSeq 2500","Leflumide 10mg/day","SINGLE","cDNA","TRANSCRIPTOMIC","--","Homo sapiens","--","Rheumatoid arthritis","--","ILLUMINA",2018-09-25,"--","GSM3308492","RNA from white blood cells","SRP155483","--","--","Blood"
"52","SRR7610240",55,"Caucasian","Methotrexate 20mg/wk","RNA-Seq",100,1483906800,"Adalimumab","PRJNA483133","SAMN09726642",622795640,"White blood cells","GEO","public","1.62","fastq,sra","gs,ncbi,s3","gs.US,ncbi.public,s3.us-east-1","remission","SN523","SRX4475107","male","GSM3308493","Illumina HiSeq 2500","--","SINGLE","cDNA","TRANSCRIPTOMIC","--","Homo sapiens","--","Rheumatoid arthritis","Plaquenil","ILLUMINA",2018-09-25,"--","GSM3308493","RNA from white blood cells","SRP155483","--","--","Blood"
"53","SRR7610243",70,"Caucasian","Methotrexate 20mg/wk","RNA-Seq",100,1470605300,"Adalimumab","PRJNA483133","SAMN09726639",631317229,"White blood cells","GEO","public","1.88","fastq,sra","gs,ncbi,s3","gs.US,ncbi.public,s3.us-east-1","remission","SN568","SRX4475110","female","GSM3308496","Illumina HiSeq 2500","--","SINGLE","cDNA","TRANSCRIPTOMIC","--","Homo sapiens","--","Rheumatoid arthritis","--","ILLUMINA",2018-09-25,"--","GSM3308496","RNA from white blood cells","SRP155483","--","--","Blood"
"54","SRR7610244",61,"Caucasian","Methotrexate 20mg/wk","RNA-Seq",100,1499597000,"Tocilizumab","PRJNA483133","SAMN09726638",636605524,"White blood cells","GEO","public","1","fastq,sra","gs,ncbi,s3","gs.US,ncbi.public,s3.us-east-1","remission","SN569","SRX4475111","female","GSM3308497","Illumina HiSeq 2500","--","SINGLE","cDNA","TRANSCRIPTOMIC","--","Homo sapiens","--","Rheumatoid arthritis","--","ILLUMINA",2018-09-25,"--","GSM3308497","RNA from white blood cells","SRP155483","--","--","Blood"
"55","SRR7610245",37,"Caucasian","Methotrexate 20mg/wk","RNA-Seq",100,1591643600,"Tocilizumab","PRJNA483133","SAMN09726637",684582068,"White blood cells","GEO","public","1.82","fastq,sra","gs,ncbi,s3","gs.US,ncbi.public,s3.us-east-1","remission","SN570","SRX4475112","female","GSM3308498","Illumina HiSeq 2500","--","SINGLE","cDNA","TRANSCRIPTOMIC","Maybe Celebrex","Homo sapiens","Maybe Epilim nortriptylline oxycodone panedein forte","Rheumatoid arthritis","--","ILLUMINA",2018-09-25,"--","GSM3308498","RNA from white blood cells","SRP155483","Prednisolone 5mg/day","--","Blood"
"56","SRR7610246",63,"Caucasian","--","RNA-Seq",100,1658509000,"--","PRJNA483133","SAMN09726636",711460239,"White blood cells","GEO","public","1.77","fastq,sra","gs,ncbi,s3","gs.US,ncbi.public,s3.us-east-1","remission","SN575","SRX4475113","female","GSM3308499","Illumina HiSeq 2500","--","SINGLE","cDNA","TRANSCRIPTOMIC","--","Homo sapiens","--","Rheumatoid arthritis","Plaquenil","ILLUMINA",2018-09-25,"--","GSM3308499","RNA from white blood cells","SRP155483","--","--","Blood"
"57","SRR7610247",49,"Caucasian","--","RNA-Seq",100,1572744200,"Tocilizumab","PRJNA483133","SAMN09726635",653624959,"White blood cells","GEO","public","1.74","fastq,sra","gs,ncbi,s3","gs.US,ncbi.public,s3.us-east-1","remission","SN581","SRX4475114","female","GSM3308500","Illumina HiSeq 2500","--","SINGLE","cDNA","TRANSCRIPTOMIC","--","Homo sapiens","--","Rheumatoid arthritis","Plaquenil","ILLUMINA",2018-09-25,"--","GSM3308500","RNA from white blood cells","SRP155483","--","Sulfasalazine","Blood"
"58","SRR7610249",67,"Caucasian","--","RNA-Seq",100,1653681200,"Golimumab","PRJNA483133","SAMN09726633",698141543,"White blood cells","GEO","public","1.62","fastq,sra","gs,ncbi,s3","gs.US,ncbi.public,s3.us-east-1","remission","SN586","SRX4475116","male","GSM3308502","Illumina HiSeq 2500","--","SINGLE","cDNA","TRANSCRIPTOMIC","--","Homo sapiens","Candesartan","Rheumatoid arthritis","--","ILLUMINA",2018-09-25,"--","GSM3308502","RNA from white blood cells","SRP155483","--","--","Blood"
"59","SRR7610250",29,"Caucasian","Methotrexate","RNA-Seq",100,1594226500,"Tocilizumab","PRJNA483133","SAMN09726632",691239431,"White blood cells","GEO","public","1.95","fastq,sra","gs,ncbi,s3","gs.US,ncbi.public,s3.us-east-1","remission","SN588","SRX4475117","female","GSM3308503","Illumina HiSeq 2500","--","SINGLE","cDNA","TRANSCRIPTOMIC","prosyn","Homo sapiens","--","Rheumatoid arthritis","--","ILLUMINA",2018-09-25,"--","GSM3308503","RNA from white blood cells","SRP155483","--","--","Blood"
"60","SRR7610251",59,"Caucasian","Methotrexate","RNA-Seq",100,1641630100,"--","PRJNA483133","SAMN09726631",694408538,"White blood cells","GEO","public","2.2","fastq,sra","gs,ncbi,s3","gs.US,ncbi.public,s3.us-east-1","remission","SN589","SRX4475118","male","GSM3308504","Illumina HiSeq 2500","--","SINGLE","cDNA","TRANSCRIPTOMIC","--","Homo sapiens","Allopurinol","Rheumatoid arthritis","--","ILLUMINA",2018-09-25,"Rituximab","GSM3308504","RNA from white blood cells","SRP155483","--","--","Blood"
"61","SRR7610252",63,"Caucasian","Methotrexate 20mg/wk","RNA-Seq",100,1381632900,"--","PRJNA483133","SAMN09726630",583642599,"White blood cells","GEO","public","3.08","fastq,sra","gs,ncbi,s3","gs.US,ncbi.public,s3.us-east-1","Low","SN591","SRX4475119","male","GSM3308505","Illumina HiSeq 2500","Leflumide 20mg/day","SINGLE","cDNA","TRANSCRIPTOMIC","--","Homo sapiens","Quetiapine Venlafaxine","Rheumatoid arthritis","Plaquenil","ILLUMINA",2018-09-25,"--","GSM3308505","RNA from white blood cells","SRP155483","Prednisolone 5mg/day","--","Blood"
"62","SRR7610253",55,"Caucasian","Methotrexate 20mg/wk","RNA-Seq",100,1517264700,"--","PRJNA483133","SAMN09726629",650119253,"White blood cells","GEO","public","1.5","fastq,sra","gs,ncbi,s3","gs.US,ncbi.public,s3.us-east-1","remission","SN596","SRX4475120","female","GSM3308506","Illumina HiSeq 2500","--","SINGLE","cDNA","TRANSCRIPTOMIC","Meloxicam","Homo sapiens","Esomeprazole padol osteo","Rheumatoid arthritis","Plaquenil","ILLUMINA",2018-09-25,"--","GSM3308506","RNA from white blood cells","SRP155483","Prednisolone 1mg/day","Sulfasalazine","Blood"
"63","SRR7610254",57,"Caucasian","Methotrexate 20mg/wk","RNA-Seq",100,1512942200,"--","PRJNA483133","SAMN09726628",649568409,"White blood cells","GEO","public","1.8","fastq,sra","gs,ncbi,s3","gs.US,ncbi.public,s3.us-east-1","remission","SN597","SRX4475121","female","GSM3308507","Illumina HiSeq 2500","--","SINGLE","cDNA","TRANSCRIPTOMIC","Meloxicam","Homo sapiens","--","Rheumatoid arthritis","--","ILLUMINA",2018-09-25,"--","GSM3308507","RNA from white blood cells","SRP155483","Prednisolone 5mg/day","--","Blood"
"64","SRR7610255",46,"Caucasian","Methotrexate","RNA-Seq",100,1674321800,"Infliximab","PRJNA483133","SAMN09726627",718835175,"White blood cells","GEO","public","2.5","fastq,sra","gs,ncbi,s3","gs.US,ncbi.public,s3.us-east-1","remission","SN599","SRX4475122","female","GSM3308508","Illumina HiSeq 2500","--","SINGLE","cDNA","TRANSCRIPTOMIC","--","Homo sapiens","Irbesartan","Rheumatoid arthritis","--","ILLUMINA",2018-09-25,"--","GSM3308508","RNA from white blood cells","SRP155483","Prednisolone 3mg/day","--","Blood"
"65","SRR7610256",58,"Caucasian","--","RNA-Seq",100,1457126700,"--","PRJNA483133","SAMN09726626",606431170,"White blood cells","GEO","public","3.5","fastq,sra","gs,ncbi,s3","gs.US,ncbi.public,s3.us-east-1","Moderate","SN602","SRX4475123","female","GSM3308509","Illumina HiSeq 2500","Leflumide","SINGLE","cDNA","TRANSCRIPTOMIC","--","Homo sapiens","Metformin","Rheumatoid arthritis","Plaquenil","ILLUMINA",2018-09-25,"--","GSM3308509","RNA from white blood cells","SRP155483","Prednisolone 5mg/day","--","Blood"
"66","SRR7610257",54,"Caucasian","--","RNA-Seq",100,1456542100,"Adalimumab","PRJNA483133","SAMN09726553",609249098,"White blood cells","GEO","public","2.7","fastq,sra","gs,ncbi,s3","gs.US,ncbi.public,s3.us-east-1","Low","SN605","SRX4475124","female","GSM3308510","Illumina HiSeq 2500","Leflumide 20mg/day","SINGLE","cDNA","TRANSCRIPTOMIC","--","Homo sapiens","--","Rheumatoid arthritis","--","ILLUMINA",2018-09-25,"--","GSM3308510","RNA from white blood cells","SRP155483","Prednisolone 10mg/day","--","Blood"
"67","SRR7610258",34,"Caucasian","--","RNA-Seq",100,1670026700,"Tocilizumab","PRJNA483133","SAMN09726552",706409148,"White blood cells","GEO","public","3.3","fastq,sra","gs,ncbi,s3","gs.US,ncbi.public,s3.us-east-1","Moderate","SN606","SRX4475125","female","GSM3308511","Illumina HiSeq 2500","--","SINGLE","cDNA","TRANSCRIPTOMIC","--","Homo sapiens","--","Rheumatoid arthritis","Plaquenil","ILLUMINA",2018-09-25,"--","GSM3308511","RNA from white blood cells","SRP155483","Prednisolone 10mg/day","Sulfasalazine","Blood"
"68","SRR7610260",52,"Caucasian","--","RNA-Seq",100,1369497600,"--","PRJNA483133","SAMN09726550",582196225,"White blood cells","GEO","public","--","fastq,sra","gs,ncbi,s3","gs.US,ncbi.public,s3.us-east-1","--","SN615","SRX4475127","male","GSM3308513","Illumina HiSeq 2500","--","SINGLE","cDNA","TRANSCRIPTOMIC","--","Homo sapiens","--","Rheumatoid arthritis","--","ILLUMINA",2018-09-25,"Rituximab","GSM3308513","RNA from white blood cells","SRP155483","--","--","Blood"
"69","SRR7610265",41,"--","--","RNA-Seq",100,1592216800,"--","PRJNA483133","SAMN09726545",678769814,"White blood cells","GEO","public","--","fastq,sra","gs,ncbi,s3","gs.US,ncbi.public,s3.us-east-1","--","V141","SRX4475132","female","GSM3308518","Illumina HiSeq 2500","--","SINGLE","cDNA","TRANSCRIPTOMIC","--","Homo sapiens","--","Healthy","--","ILLUMINA",2018-09-25,"--","GSM3308518","RNA from white blood cells","SRP155483","--","--","Blood"
"70","SRR7610266",38,"--","--","RNA-Seq",100,1620896600,"--","PRJNA483133","SAMN09726544",687588532,"White blood cells","GEO","public","--","fastq,sra","gs,ncbi,s3","gs.US,ncbi.public,s3.us-east-1","--","V157","SRX4475133","male","GSM3308519","Illumina HiSeq 2500","--","SINGLE","cDNA","TRANSCRIPTOMIC","--","Homo sapiens","--","Healthy","--","ILLUMINA",2018-09-25,"--","GSM3308519","RNA from white blood cells","SRP155483","--","--","Blood"
"71","SRR7610267",29,"--","--","RNA-Seq",100,1537209000,"--","PRJNA483133","SAMN09726543",651986285,"White blood cells","GEO","public","--","fastq,sra","gs,ncbi,s3","gs.US,ncbi.public,s3.us-east-1","--","V160","SRX4475134","female","GSM3308520","Illumina HiSeq 2500","--","SINGLE","cDNA","TRANSCRIPTOMIC","--","Homo sapiens","--","Healthy","--","ILLUMINA",2018-09-25,"--","GSM3308520","RNA from white blood cells","SRP155483","--","--","Blood"
"72","SRR7610268",49,"--","--","RNA-Seq",100,1621322000,"--","PRJNA483133","SAMN09726542",692154709,"White blood cells","GEO","public","--","fastq,sra","gs,ncbi,s3","gs.US,ncbi.public,s3.us-east-1","--","V182","SRX4475047","female","GSM3308521","Illumina HiSeq 2500","--","SINGLE","cDNA","TRANSCRIPTOMIC","--","Homo sapiens","--","Healthy","--","ILLUMINA",2018-09-25,"--","GSM3308521","RNA from white blood cells","SRP155483","--","--","Blood"
"73","SRR7610269",32,"--","--","RNA-Seq",100,1661166400,"--","PRJNA483133","SAMN09726541",703890634,"White blood cells","GEO","public","--","fastq,sra","gs,ncbi,s3","gs.US,ncbi.public,s3.us-east-1","--","V183","SRX4475048","female","GSM3308522","Illumina HiSeq 2500","--","SINGLE","cDNA","TRANSCRIPTOMIC","--","Homo sapiens","--","Healthy","--","ILLUMINA",2018-09-25,"--","GSM3308522","RNA from white blood cells","SRP155483","--","--","Blood"
"74","SRR7610270",46,"--","--","RNA-Seq",100,1387217600,"--","PRJNA483133","SAMN09726540",585825573,"White blood cells","GEO","public","--","fastq,sra","gs,ncbi,s3","gs.US,ncbi.public,s3.us-east-1","--","V250","SRX4475049","female","GSM3308523","Illumina HiSeq 2500","--","SINGLE","cDNA","TRANSCRIPTOMIC","--","Homo sapiens","--","Healthy","--","ILLUMINA",2018-09-25,"--","GSM3308523","RNA from white blood cells","SRP155483","--","--","Blood"
"75","SRR7610271",32,"--","--","RNA-Seq",100,1613102400,"--","PRJNA483133","SAMN09726539",683029466,"White blood cells","GEO","public","--","fastq,sra","gs,ncbi,s3","gs.US,ncbi.public,s3.us-east-1","--","V264","SRX4475050","female","GSM3308524","Illumina HiSeq 2500","--","SINGLE","cDNA","TRANSCRIPTOMIC","--","Homo sapiens","--","Healthy","--","ILLUMINA",2018-09-25,"--","GSM3308524","RNA from white blood cells","SRP155483","--","--","Blood"
"76","SRR7610272",60,"--","--","RNA-Seq",100,1581329700,"--","PRJNA483133","SAMN09726538",676348803,"White blood cells","GEO","public","--","fastq,sra","gs,ncbi,s3","gs.US,ncbi.public,s3.us-east-1","--","V268","SRX4475051","male","GSM3308525","Illumina HiSeq 2500","--","SINGLE","cDNA","TRANSCRIPTOMIC","--","Homo sapiens","--","Healthy","--","ILLUMINA",2018-09-25,"--","GSM3308525","RNA from white blood cells","SRP155483","--","--","Blood"
"77","SRR7610273",68,"--","--","RNA-Seq",100,1636863500,"--","PRJNA483133","SAMN09726537",695318033,"White blood cells","GEO","public","--","fastq,sra","gs,ncbi,s3","gs.US,ncbi.public,s3.us-east-1","--","V269","SRX4475052","female","GSM3308526","Illumina HiSeq 2500","--","SINGLE","cDNA","TRANSCRIPTOMIC","--","Homo sapiens","--","Healthy","--","ILLUMINA",2018-09-25,"--","GSM3308526","RNA from white blood cells","SRP155483","--","--","Blood"
"78","SRR7610274",26,"--","--","RNA-Seq",100,1544945200,"--","PRJNA483133","SAMN09726536",658206845,"White blood cells","GEO","public","--","fastq,sra","gs,ncbi,s3","gs.US,ncbi.public,s3.us-east-1","--","V279","SRX4475053","female","GSM3308527","Illumina HiSeq 2500","--","SINGLE","cDNA","TRANSCRIPTOMIC","--","Homo sapiens","--","Healthy","--","ILLUMINA",2018-09-25,"--","GSM3308527","RNA from white blood cells","SRP155483","--","--","Blood"
"79","SRR7610280",63,"--","--","RNA-Seq",100,1469319100,"--","PRJNA483133","SAMN09726530",629039604,"White blood cells","GEO","public","--","fastq,sra","gs,ncbi,s3","gs.US,ncbi.public,s3.us-east-1","--","V3","SRX4475059","female","GSM3308533","Illumina HiSeq 2500","--","SINGLE","cDNA","TRANSCRIPTOMIC","--","Homo sapiens","--","Healthy","--","ILLUMINA",2018-09-25,"--","GSM3308533","RNA from white blood cells","SRP155483","--","--","Blood"
"80","SRR7610275",52,"--","--","RNA-Seq",100,1546475100,"--","PRJNA483133","SAMN09726535",660998440,"White blood cells","GEO","public","--","fastq,sra","gs,ncbi,s3","gs.US,ncbi.public,s3.us-east-1","--","V303","SRX4475054","female","GSM3308528","Illumina HiSeq 2500","--","SINGLE","cDNA","TRANSCRIPTOMIC","--","Homo sapiens","--","Healthy","--","ILLUMINA",2018-09-25,"--","GSM3308528","RNA from white blood cells","SRP155483","--","--","Blood"
"81","SRR7610276",53,"--","--","RNA-Seq",100,1583864800,"--","PRJNA483133","SAMN09726534",670075913,"White blood cells","GEO","public","--","fastq,sra","gs,ncbi,s3","gs.US,ncbi.public,s3.us-east-1","--","V305","SRX4475055","female","GSM3308529","Illumina HiSeq 2500","--","SINGLE","cDNA","TRANSCRIPTOMIC","--","Homo sapiens","--","Healthy","--","ILLUMINA",2018-09-25,"--","GSM3308529","RNA from white blood cells","SRP155483","--","--","Blood"
"82","SRR7610277",57,"--","--","RNA-Seq",100,1667592100,"--","PRJNA483133","SAMN09726533",714136800,"White blood cells","GEO","public","--","fastq,sra","gs,ncbi,s3","gs.US,ncbi.public,s3.us-east-1","--","V311","SRX4475056","male","GSM3308530","Illumina HiSeq 2500","--","SINGLE","cDNA","TRANSCRIPTOMIC","--","Homo sapiens","--","Healthy","--","ILLUMINA",2018-09-25,"--","GSM3308530","RNA from white blood cells","SRP155483","--","--","Blood"
"83","SRR7610278",33,"--","--","RNA-Seq",100,1680503000,"--","PRJNA483133","SAMN09726532",705538685,"White blood cells","GEO","public","--","fastq,sra","gs,ncbi,s3","gs.US,ncbi.public,s3.us-east-1","--","V382","SRX4475057","female","GSM3308531","Illumina HiSeq 2500","--","SINGLE","cDNA","TRANSCRIPTOMIC","--","Homo sapiens","--","Healthy","--","ILLUMINA",2018-09-25,"--","GSM3308531","RNA from white blood cells","SRP155483","--","--","Blood"
"84","SRR7610279",30,"--","--","RNA-Seq",100,1569289600,"--","PRJNA483133","SAMN09726531",686095094,"White blood cells","GEO","public","--","fastq,sra","gs,ncbi,s3","gs.US,ncbi.public,s3.us-east-1","--","V391","SRX4475058","female","GSM3308532","Illumina HiSeq 2500","--","SINGLE","cDNA","TRANSCRIPTOMIC","--","Homo sapiens","--","Healthy","--","ILLUMINA",2018-09-25,"--","GSM3308532","RNA from white blood cells","SRP155483","--","--","Blood"
"85","SRR7610281",50,"--","--","RNA-Seq",100,1534384400,"--","PRJNA483133","SAMN09726529",661712094,"White blood cells","GEO","public","--","fastq,sra","gs,ncbi,s3","gs.US,ncbi.public,s3.us-east-1","--","V400","SRX4475060","female","GSM3308534","Illumina HiSeq 2500","--","SINGLE","cDNA","TRANSCRIPTOMIC","--","Homo sapiens","--","Healthy","--","ILLUMINA",2018-09-25,"--","GSM3308534","RNA from white blood cells","SRP155483","--","--","Blood"
"86","SRR7610282",48,"--","--","RNA-Seq",100,1549536400,"--","PRJNA483133","SAMN09726528",661161670,"White blood cells","GEO","public","--","fastq,sra","gs,ncbi,s3","gs.US,ncbi.public,s3.us-east-1","--","V405","SRX4475061","female","GSM3308535","Illumina HiSeq 2500","--","SINGLE","cDNA","TRANSCRIPTOMIC","--","Homo sapiens","--","Healthy","--","ILLUMINA",2018-09-25,"--","GSM3308535","RNA from white blood cells","SRP155483","--","--","Blood"
"87","SRR7610283",55,"--","--","RNA-Seq",100,1726990700,"--","PRJNA483133","SAMN09726527",739165753,"White blood cells","GEO","public","--","fastq,sra","gs,ncbi,s3","gs.US,ncbi.public,s3.us-east-1","--","V418","SRX4475062","female","GSM3308536","Illumina HiSeq 2500","--","SINGLE","cDNA","TRANSCRIPTOMIC","--","Homo sapiens","--","Healthy","--","ILLUMINA",2018-09-25,"--","GSM3308536","RNA from white blood cells","SRP155483","--","--","Blood"
"88","SRR7610284",31,"--","--","RNA-Seq",100,1675060100,"--","PRJNA483133","SAMN09726526",709009586,"White blood cells","GEO","public","--","fastq,sra","gs,ncbi,s3","gs.US,ncbi.public,s3.us-east-1","--","V433","SRX4475063","male","GSM3308537","Illumina HiSeq 2500","--","SINGLE","cDNA","TRANSCRIPTOMIC","--","Homo sapiens","--","Healthy","--","ILLUMINA",2018-09-25,"--","GSM3308537","RNA from white blood cells","SRP155483","--","--","Blood"
"89","SRR7610285",33,"--","--","RNA-Seq",100,1602307900,"--","PRJNA483133","SAMN09726525",678298275,"White blood cells","GEO","public","--","fastq,sra","gs,ncbi,s3","gs.US,ncbi.public,s3.us-east-1","--","V436","SRX4475064","female","GSM3308538","Illumina HiSeq 2500","--","SINGLE","cDNA","TRANSCRIPTOMIC","--","Homo sapiens","--","Healthy","--","ILLUMINA",2018-09-25,"--","GSM3308538","RNA from white blood cells","SRP155483","--","--","Blood"
"90","SRR7610286",53,"--","--","RNA-Seq",100,1605587000,"--","PRJNA483133","SAMN09726524",672876136,"White blood cells","GEO","public","--","fastq,sra","gs,ncbi,s3","gs.US,ncbi.public,s3.us-east-1","--","V444","SRX4475065","female","GSM3308539","Illumina HiSeq 2500","--","SINGLE","cDNA","TRANSCRIPTOMIC","--","Homo sapiens","--","Healthy","--","ILLUMINA",2018-09-25,"--","GSM3308539","RNA from white blood cells","SRP155483","--","--","Blood"
"91","SRR7610287",62,"--","--","RNA-Seq",100,1688121500,"--","PRJNA483133","SAMN09726558",713646131,"White blood cells","GEO","public","--","fastq,sra","gs,ncbi,s3","gs.US,ncbi.public,s3.us-east-1","--","V447","SRX4475066","male","GSM3308540","Illumina HiSeq 2500","--","SINGLE","cDNA","TRANSCRIPTOMIC","--","Homo sapiens","--","Healthy","--","ILLUMINA",2018-09-25,"--","GSM3308540","RNA from white blood cells","SRP155483","--","--","Blood"
"92","SRR7610288",59,"--","--","RNA-Seq",100,1540390000,"--","PRJNA483133","SAMN09726557",650044025,"White blood cells","GEO","public","--","fastq,sra","gs,ncbi,s3","gs.US,ncbi.public,s3.us-east-1","--","V448","SRX4475067","male","GSM3308541","Illumina HiSeq 2500","--","SINGLE","cDNA","TRANSCRIPTOMIC","--","Homo sapiens","--","Healthy","--","ILLUMINA",2018-09-25,"--","GSM3308541","RNA from white blood cells","SRP155483","--","--","Blood"
"93","SRR7610289",45,"--","--","RNA-Seq",100,1548485700,"--","PRJNA483133","SAMN09726556",669828149,"White blood cells","GEO","public","--","fastq,sra","gs,ncbi,s3","gs.US,ncbi.public,s3.us-east-1","--","V467","SRX4475068","female","GSM3308542","Illumina HiSeq 2500","--","SINGLE","cDNA","TRANSCRIPTOMIC","--","Homo sapiens","--","Healthy","--","ILLUMINA",2018-09-25,"--","GSM3308542","RNA from white blood cells","SRP155483","--","--","Blood"
"94","SRR7610290",52,"--","--","RNA-Seq",100,1529512700,"--","PRJNA483133","SAMN09726555",653608697,"White blood cells","GEO","public","--","fastq,sra","gs,ncbi,s3","gs.US,ncbi.public,s3.us-east-1","--","V58","SRX4475069","female","GSM3308543","Illumina HiSeq 2500","--","SINGLE","cDNA","TRANSCRIPTOMIC","--","Homo sapiens","--","Healthy","--","ILLUMINA",2018-09-25,"--","GSM3308543","RNA from white blood cells","SRP155483","--","--","Blood"
"95","SRR7610291",44,"--","--","RNA-Seq",100,1554831800,"--","PRJNA483133","SAMN09726554",660732752,"White blood cells","GEO","public","--","fastq,sra","gs,ncbi,s3","gs.US,ncbi.public,s3.us-east-1","--","V76","SRX4475070","female","GSM3308544","Illumina HiSeq 2500","--","SINGLE","cDNA","TRANSCRIPTOMIC","--","Homo sapiens","--","Healthy","--","ILLUMINA",2018-09-25,"--","GSM3308544","RNA from white blood cells","SRP155483","--","--","Blood"
