source	target	interaction
IL6/IL6R_protein	JAK1_protein	activates
IL6_protein	IL6/IL6R_protein	activates
IL6_protein	IL6/IL6ST_protein	activates
TIRAP/MYD88_protein	IRAK1/IRAK4_protein	activates
LY96/TLR2/TLR4_protein	TIRAP/MYD88_protein	activates
LY96/TLR2/TLR4_protein	TICAM1/TICAM2_protein	activates
LY96/TLR2/TLR4_protein	TICAM2_protein	activates
LY96/TLR2/TLR4_protein	RAC1/RAC2_protein	activates
MYD88_protein	TIRAP/MYD88_protein	activates
TLR5_protein	TIRAP/MYD88_protein	activates
IL1A/IL1R1_protein	TIRAP/MYD88_protein	activates
IL1A/IL1R1_protein	TRAF2_protein	activates
IL1B/IL1R1_protein	TIRAP/MYD88_protein	activates
DOCK2/CRKL_protein	RAF1_protein	activates
DOCK2/CRKL_protein	RAC1/RAC2_protein	activates
DOCK2_protein	DOCK2/CRKL_protein	activates
CRKL_protein	DOCK2/CRKL_protein	activates
CRKL_protein	RAPGEF1_protein	activates
TICAM1/TICAM2_protein	RIPK1/TRAF6_protein	activates
FGF1/FGFR1_protein	GRB2_protein	activates
FGF1/FGFR1_protein	SOS1_protein	activates
FGF1/FGFR1_protein	PTPN11_protein	activates
FGF1/FGFR1_protein	PIK3R5_protein	activates
FGF1_protein	FGF1/FGFR1_protein	activates
IL1A_protein	IL1A/IL1R1_protein	activates
IL1R1_protein	IL1A/IL1R1_protein	activates
IL1R1_protein	IL1B/IL1R1_protein	activates
NCF/CYBB/CYBA_protein	activedH2O2_protein	activates
RAC1/RAC2_protein	NCF/CYBB/CYBA_protein	activates
RAC1/RAC2_protein	MAP2K4_protein	activates
RAC1/RAC2_protein	MAP2K3_protein	activates
RAC1/RAC2_protein	MAPK8_protein	activates
RAC1/RAC2_protein	PIK3R5_protein	activates
RAC1/RAC2_protein	MAP3K5_protein	activates
RAC1/RAC2_protein	MAP3K1_protein	activates
RAC1/RAC2_protein	MAP2K6_protein	activates
ca2+_protein	NCF/CYBB/CYBA_protein	activates
ca2+_protein	CAMK2A_protein	activates
ca2+_protein	PRRT2_protein	activates
EGF/EGFR_protein	CRKL_protein	activates
EGF/EGFR_protein	GRB2_protein	activates
EGF/EGFR_protein	SOS1_protein	activates
EGF/EGFR_protein	SHC2_protein	activates
EGF/EGFR_protein	PIK3R5_protein	activates
EGF_protein	EGF/EGFR_protein	activates
IL1B_protein	IL1B/IL1R1_protein	activates
IRAK1/IRAK4_protein	TRAF6_protein	activates
SHP2/GRB2_protein	SOS1_protein	activates
PTPN11_protein	SHP2/GRB2_protein	activates
PTPN11_protein	LCP2_protein	inhibits
GRB2_protein	SHP2/GRB2_protein	activates
GRB2_protein	GAB2_protein	activates
TNF/TNFRSF1A/TNFRSFB_protein	TRADD_protein	activates
TNF_protein	TNF/TNFRSF1A/TNFRSFB_protein	activates
FYN/CD3E_protein	GRB2_protein	activates
FYN/CD3E_protein	SHC2_protein	activates
FYN/CD3E_protein	GAB2_protein	activates
FYN/CD3E_protein	FYN_protein	activates
FYN_protein	FYN/CD3E_protein	activates
SH2D1A_protein	FYN/CD3E_protein	activates
IKK_protein	NFKB_protein	activates
IKK_protein	MAP3K8_protein	activates
IKK_protein	NFKB1_protein	activates
IKK_protein	NFKBIA	activates
TAB1/TAB2/TAK1_protein	IKK_protein	activates
TAB1/TAB2/TAK1_protein	MAP3K14_protein	activates
TAB1/TAB2/TAK1_protein	MAP2K3_protein	activates
TAB1/TAB2/TAK1_protein	MAP2K7_protein	activates
TAB1/TAB2/TAK1_protein	MAP2K1_protein	activates
TAB1/TAB2/TAK1_protein	MAP2K6_protein	activates
MAP3K14_protein	IKK_protein	activates
AKT2_protein	IKK_protein	activates
AKT2_protein	PDE3A_protein	activates
AKT2_protein	MAP3K8_protein	activates
AKT2_protein	STAT3_protein	activates
AKT2_protein	NFKB1_protein	activates
MAP4K4_protein	IKK_protein	activates
MAP4K4_protein	MAP3K1_protein	activates
PRRT2_protein	IKK_protein	activates
PRRT2_protein	BRAF_protein	activates
MAP3K7_protein	IKK_protein	activates
MAP3K7_protein	MAP3K14_protein	activates
MAP3K7_protein	MAP2K7_protein	activates
MAP3K7_protein	MAP2K1_protein	activates
MAP3K7_protein	MAP2K6_protein	activates
TRAF3IP2_protein	IKK_protein	inhibits
TRAF3IP2_protein	TRAF6_protein	activates
RIPK1/TRAF6_protein	TAB1/TAB2/TAK1_protein	activates
MAP4K1_protein	TAB1/TAB2/TAK1_protein	activates
TRAF2/TRAF5_protein	TAB1/TAB2/TAK1_protein	activates
TRAF6_protein	TAB1/TAB2/TAK1_protein	activates
TRAF6_protein	ca2+_protein	activates
KLRK1/HCST/MICB_protein	GRB2_protein	activates
KLRK1/HCST/MICB_protein	PIK3R5_protein	activates
HCST_protein	KLRK1/HCST/MICB_protein	activates
IL18/IL18R_protein	SRC_protein	activates
IL18_protein	IL18/IL18R_protein	activates
LY96_protein	LY96/TLR2/TLR4_protein	activates
LBP/CD14_protein	LY96/TLR2/TLR4_protein	activates
RIPK1_protein	RIPK1/TRAF6_protein	activates
TRAF6_protein	RIPK1/TRAF6_protein	activates
FRIZZLED/WNT/LRP1/LRP5/LRP6_protein	DVL1_protein	activates
SFRP5_protein	FRIZZLED/WNT/LRP1/LRP5/LRP6_protein	inhibits
TGFB1/TGFBR1_protein	MAP4K1_protein	activates
TGFB1/TGFBR1_protein	DAXX_protein	activates
TGFB1_protein	TGFB1/TGFBR1_protein	activates
TBK1/IKBKE_protein	IRF7_protein	activates
TRAF3_protein	TBK1/IKBKE_protein	activates
IGF1/IGF1R_protein	GRB2_protein	activates
IGF1_protein	IGF1/IGF1R_protein	activates
PDGFA/PDGFRA_protein	SHC2_protein	activates
PDGFA/PDGFRA_protein	PIK3R5_protein	activates
PDGFA_protein	PDGFA/PDGFRA_protein	activates
FN1/ITGAV_protein	CSK_protein	activates
FN1_protein	FN1/ITGAV_protein	activates
PTPN6/CD72_protein	VAV1/VAV2_protein	inhibits
PTPN6/CD72_protein	ZAP70_protein	inhibits
PTPN6_protein	PTPN6/CD72_protein	activates
PTPN6_protein	JAK1_protein	inhibits
CXCL16/CXCR6_protein	JAK3_protein	activates
CXCL16/CXCR6_protein	GNAI3_protein	activates
CXCL16_protein	CXCL16/CXCR6_protein	activates
CXCL12/CXCR4_protein	JAK3_protein	activates
CXCL12/CXCR4_protein	GNAI3_protein	activates
CXCL12_protein	CXCL12/CXCR4_protein	activates
TRADD_protein	TRAF2/TRAF5_protein	activates
NFKB/NFKN_protein	TNFAIP3	activates
NFKB_protein	NFKB/NFKN_protein	activates
IL6/IL6ST_protein	JAK1_protein	activates
IKBA/NFKB1/RELA_protein	NFKB_protein	activates
IKBA/NFKB1/RELA_protein	NFKBIA	activates
COMMD1_protein	NFKB_protein	inhibits
COMMD1_protein	NFKBIA	inhibits
LBP_protein	LBP/CD14_protein	activates
WNT/FRIZZLED_protein	DVL1_protein	activates
WNT5A_protein	WNT/FRIZZLED_protein	activates
IFNA1/IFNB1/IFNAR1/IFNAR2_protein	JAK1_protein	activates
IFNA1/IFNB1/IFNAR1/IFNAR2_protein	TYK2_protein	activates
IFNA1/IFNB1_protein	IFNA1/IFNB1/IFNAR1/IFNAR2_protein	activates
ICAM/ITGB2/ITGAL_protein	CSK_protein	activates
ICAM/ITGB2/ITGAL_protein	PTK2B_protein	activates
ICAM/ITGB2/ITGAL_protein	VAV1/VAV2_protein	activates
RANK/RANKL_protein	TRAF6_protein	activates
RANKL_protein	RANK/RANKL_protein	activates
IL17A/IL17RA_protein	TRAF3IP2_protein	activates
IL17A_protein	IL17A/IL17RA_protein	activates
TRAF2_protein	MAPK1_protein	activates
TRAF2_protein	MAPK3_protein	activates
TRAF2_protein	PIK3R5_protein	activates
TRAF2_protein	MAP3K5_protein	activates
CSK_protein	ARHGAP35_protein	activates
CSK_protein	PTK2B_protein	activates
CSK_protein	SHC2_protein	activates
CSK_protein	PIK3R5_protein	activates
JAK1_protein	STAT3_protein	activates
JAK1_protein	PIK3R5_protein	activates
SOCS3_protein	JAK1_protein	inhibits
CAMK2A_protein	MAP3K7_protein	activates
GAB1_protein	CRKL_protein	activates
GAB1_protein	PIK3R5_protein	activates
MAPK1_protein	ETS1	activates
MAPK1_protein	MAPK14_protein	activates
MAPK1_protein	FOS	activates
MAPK1_protein	JUN	activates
MAPK8_protein	JUND	activates
MAPK8_protein	FOS	activates
MAPK8_protein	JUN	activates
VAV1/VAV2_protein	RHOA_protein	activates
VAV1/VAV2_protein	RAC1/RAC2_protein	activates
TXK_protein	VAV1/VAV2_protein	activates
TNFAIP3	TRAF6_protein	inhibits
PRKACG_protein	MAPK1_protein	activates
PRKACG_protein	RAP1B_protein	activates
activeAMP_protein	PRKACG_protein	activates
ARHGAP35_protein	RHOA_protein	inhibits
LTBP1_protein	TGFB1_protein	inhibits
LEFTY2_protein	TGFB1_protein	inhibits
MIR650_protein	AKT2_protein	inhibits
DUSP4_protein	MAPK1_protein	inhibits
MAP2K1_protein	MAPK1_protein	activates
MAP2K1_protein	MAPK3_protein	activates
MAP2K2_protein	MAPK1_protein	activates
cGAS_protein	MAPK1_protein	activates
cGAS_protein	MAPK3_protein	activates
cGAS_protein	AKT2_protein	activates
RAPGEF1_protein	RAP1B_protein	activates
MAPK14_protein	JUN	activates
MAP2K6_protein	MAPK14_protein	activates
MAP2K3_protein	MAPK14_protein	activates
TYK2_protein	STAT3_protein	activates
SHC2_protein	GRB2_protein	activates
CD28_protein	GRB2_protein	activates
CD28_protein	PIK3R5_protein	activates
RHOA_protein	RAC1/RAC2_protein	inhibits
ARHGDIB_protein	RHOA_protein	activates
ARHGEF1_protein	RHOA_protein	activates
PRKCH_protein	RHOA_protein	activates
PRKCH_protein	RAF1_protein	activates
ARHGEF2_protein	RHOA_protein	activates
PI3/PI4/PI5-P3_protein	ILK_protein	activates
PI3/PI4/PI5-P3_protein	AKT2_protein	activates
PI4/PI5-P2_protein	PI3/PI4/PI5-P3_protein	activates
PIK3R5_protein	PI3/PI4/PI5-P3_protein	activates
PTEN_protein	PI3/PI4/PI5-P3_protein	inhibits
NRF1_protein	IFNB1_protein	inhibits
TICAM2_protein	TICAM1_protein	activates
COMP_protein	LTBP1_protein	inhibits
PTK2B_protein	RAC1/RAC2_protein	activates
SRF_protein	FOS	activates
MAPK3_protein	FOS	activates
MAPK9_protein	FOS	activates
MAPK9_protein	JUN	activates
TAB1/TAB2/TRAF6_protein	MAP3K7_protein	activates
RASGRP3_protein	NRAS_protein	activates
SOS1_protein	RASGRP3_protein	activates
SOS1_protein	NRAS_protein	activates
MAP2K4_protein	MAPK8_protein	activates
MAP2K4_protein	MAPK9_protein	activates
MAP3K1_protein	MAP2K4_protein	activates
MAP3K1_protein	MAP2K3_protein	activates
MAP3K1_protein	MAP2K6_protein	activates
ZC3H12A_protein	STAT3_protein	inhibits
ZAP70_protein	SHC2_protein	activates
ZAP70_protein	PIK3R5_protein	activates
ZAP70_protein	LCP2_protein	activates
TYROBP_protein	ZAP70_protein	activates
BRAF_protein	MAP2K2_protein	activates
BRAF_protein	MAP2K1_protein	activates
NRAS_protein	BRAF_protein	activates
NRAS_protein	PIK3R5_protein	activates
NRAS_protein	RAC1/RAC2_protein	activates
SRC_protein	NRAS_protein	activates
MAP3K5_protein	MAP2K3_protein	activates
MAP3K5_protein	MAPK8_protein	activates
MAP3K5_protein	MAP2K6_protein	activates
MAP3K2/MAP3/MAP4_protein	MAP2K3_protein	activates
PDE3A_protein	activeAMP_protein	inhibits
PLCG1_protein	ca2+_protein	activates
SYK_protein	PLCG1_protein	activates
IRF7_protein	IFNB1_protein	activates
DAXX_protein	MAP3K5_protein	activates
RAF1_protein	MAP2K2_protein	activates
RAF1_protein	MAP2K1_protein	activates
MAP3K8_protein	MAP2K2_protein	activates
MAP3K8_protein	MAP2K1_protein	activates
PRKCD_protein	MAP2K2_protein	activates
PRKCD_protein	MAP2K1_protein	activates
JAK3_protein	PIK3R5_protein	activates
NECTIN3/PTPRC/NECTIN1_protein	JAK3_protein	inhibits
NECTIN3/PTPRC/NECTIN1_protein	LCK_protein	inhibits
NECTIN3/PTPRC/NECTIN1_protein	FYN_protein	activates
MAP2K7_protein	MAPK8_protein	activates
MAP2K7_protein	MAPK9_protein	activates
STAT3_protein	SOCS3_protein	activates
NFKB1/MAP3K8_protein	MAP3K8_protein	activates
NFKB1/MAP3K8_protein	NFKB1_protein	activates
YWHAQ_protein	RAF1_protein	activates
RAP1B_protein	RAF1_protein	activates
RAP1B_protein	MAPK8_protein	activates
IFNB1_protein	IFNA1/IFNB1_protein	activates
MAPK3_protein	MAPK8_protein	activates
ITAM_protein	SYK_protein	activates
LCP2_protein	VAV1/VAV2_protein	activates
CD19_protein	VAV1/VAV2_protein	activates
CD19_protein	PIK3R5_protein	activates
cAMP_protein	activeAMP_protein	activates
GAB2_protein	PTPN11_protein	activates
GAB2_protein	PIK3R5_protein	activates
activedH2O2_protein	PTPN11_protein	inhibits
GNB1_protein	PIK3R5_protein	activates
GNAI3_protein	PIK3R5_protein	activates
GNAI3_protein	NRAS_protein	activates
LCK_protein	PIK3R5_protein	inhibits
TICAM1_protein	TRAF3_protein	activates
LCK_protein	TYROBP_protein	activates
PLXNB1_protein	RAC1/RAC2_protein	inhibits
CTNND1_protein	RAC1/RAC2_protein	activates
DVL1_protein	RAC1/RAC2_protein	activates
DVL1_protein	ca2+_protein	activates
SARM1_protein	TICAM1_protein	inhibits
ILK_protein	AKT2_protein	activates
PP2A_protein	AKT2_protein	inhibits
H2O2_protein	activedH2O2_protein	activates
OSCAR_protein	ITAM_protein	activates
IL6R_protein	IL6/IL6R_protein	activates
TIRAP_protein	TIRAP/MYD88_protein	activates
TLR2_protein	LY96/TLR2/TLR4_protein	activates
TLR4_protein	LY96/TLR2/TLR4_protein	activates
TICAM1_protein	TICAM1/TICAM2_protein	activates
TICAM2_protein	TICAM1/TICAM2_protein	activates
FGFR1_protein	FGF1/FGFR1_protein	activates
NCF_protein	NCF/CYBB/CYBA_protein	activates
CYBB_protein	NCF/CYBB/CYBA_protein	activates
CYBA_protein	NCF/CYBB/CYBA_protein	activates
RAC1_protein	RAC1/RAC2_protein	activates
RAC2_protein	RAC1/RAC2_protein	activates
EGFR_protein	EGF/EGFR_protein	activates
IRAK1_protein	IRAK1/IRAK4_protein	activates
IRAK4_protein	IRAK1/IRAK4_protein	activates
SHP2_protein	SHP2/GRB2_protein	activates
TNFRSF1A_protein	TNF/TNFRSF1A/TNFRSFB_protein	activates
TNFRSFB_protein	TNF/TNFRSF1A/TNFRSFB_protein	activates
CD3E_protein	FYN/CD3E_protein	activates
TAB1_protein	TAB1/TAB2/TAK1_protein	activates
TAB2_protein	TAB1/TAB2/TAK1_protein	activates
TAK1_protein	TAB1/TAB2/TAK1_protein	activates
TRAF2_protein	TRAF2/TRAF5_protein	activates
TRAF5_protein	TRAF2/TRAF5_protein	activates
KLRK1_protein	KLRK1/HCST/MICB_protein	activates
MICB_protein	KLRK1/HCST/MICB_protein	activates
IL18R_protein	IL18/IL18R_protein	activates
CD14_protein	LBP/CD14_protein	activates
FRIZZLED_protein	FRIZZLED/WNT/LRP1/LRP5/LRP6_protein	activates
WNT_protein	FRIZZLED/WNT/LRP1/LRP5/LRP6_protein	activates
LRP1_protein	FRIZZLED/WNT/LRP1/LRP5/LRP6_protein	activates
LRP5_protein	FRIZZLED/WNT/LRP1/LRP5/LRP6_protein	activates
LRP6_protein	FRIZZLED/WNT/LRP1/LRP5/LRP6_protein	activates
TGFBR1_protein	TGFB1/TGFBR1_protein	activates
TBK1_protein	TBK1/IKBKE_protein	activates
IKBKE_protein	TBK1/IKBKE_protein	activates
IGF1R_protein	IGF1/IGF1R_protein	activates
PDGFRA_protein	PDGFA/PDGFRA_protein	activates
ITGAV_protein	FN1/ITGAV_protein	activates
CD72_protein	PTPN6/CD72_protein	activates
CXCR6_protein	CXCL16/CXCR6_protein	activates
CXCR4_protein	CXCL12/CXCR4_protein	activates
NFKN_protein	NFKB/NFKN_protein	activates
IL6ST_protein	IL6/IL6ST_protein	activates
IKBA_protein	IKBA/NFKB1/RELA_protein	activates
NFKB1_protein	IKBA/NFKB1/RELA_protein	activates
RELA_protein	IKBA/NFKB1/RELA_protein	activates
WNT_protein	WNT/FRIZZLED_protein	activates
FRIZZLED_protein	WNT/FRIZZLED_protein	activates
IFNAR1_protein	IFNA1/IFNB1/IFNAR1/IFNAR2_protein	activates
IFNAR2_protein	IFNA1/IFNB1/IFNAR1/IFNAR2_protein	activates
IFNA1_protein	IFNA1/IFNB1_protein	activates
ICAM_protein	ICAM/ITGB2/ITGAL_protein	activates
ITGB2_protein	ICAM/ITGB2/ITGAL_protein	activates
ITGAL_protein	ICAM/ITGB2/ITGAL_protein	activates
RANK_protein	RANK/RANKL_protein	activates
IL17RA_protein	IL17A/IL17RA_protein	activates
PI3_protein	PI3/PI4/PI5-P3_protein	activates
PI5-P3_protein	PI3/PI4/PI5-P3_protein	activates
PI4_protein	PI4/PI5-P2_protein	activates
PI5-P2_protein	PI4/PI5-P2_protein	activates
TAB1_protein	TAB1/TAB2/TRAF6_protein	activates
TAB2_protein	TAB1/TAB2/TRAF6_protein	activates
TRAF6_protein	TAB1/TAB2/TRAF6_protein	activates
MAP3K2_protein	MAP3K2/MAP3/MAP4_protein	activates
MAP3_protein	MAP3K2/MAP3/MAP4_protein	activates
MAP4_protein	MAP3K2/MAP3/MAP4_protein	activates
NECTIN3_protein	NECTIN3/PTPRC/NECTIN1_protein	activates
PTPRC_protein	NECTIN3/PTPRC/NECTIN1_protein	activates
NECTIN1_protein	NECTIN3/PTPRC/NECTIN1_protein	activates
NFKB1_protein	NFKB1/MAP3K8_protein	activates
MAP3K8_protein	NFKB1/MAP3K8_protein	activates
HCLS1_gene	NADK_gene	inhibits
HCLS1_gene	EFHD2_gene	inhibits
HCLS1_gene	CDC42_gene	inhibits
HCLS1_gene	FGR_gene	inhibits
HCLS1_gene	LAPTM5_gene	inhibits
HCLS1_gene	PHC2_gene	inhibits
HCLS1_gene	PPT1_gene	inhibits
HCLS1_gene	SMAP2_gene	inhibits
HCLS1_gene	CD53_gene	inhibits
HCLS1_gene	S100A4_gene	inhibits
HCLS1_gene	H3F3A_gene	inhibits
HCLS1_gene	C10orf54_gene	inhibits
HCLS1_gene	PTEN_gene	inhibits
HCLS1_gene	IFITM2_gene	inhibits
HCLS1_gene	TALDO1_gene	inhibits
HCLS1_gene	LSP1_gene	inhibits
HCLS1_gene	RTN3_gene	inhibits
HCLS1_gene	AMICA1_gene	inhibits
HCLS1_gene	SLC2A3_gene	inhibits
HCLS1_gene	CLEC4E_gene	inhibits
HCLS1_gene	ARHGAP9_gene	inhibits
HCLS1_gene	RASSF3_gene	inhibits
HCLS1_gene	SELPLG_gene	inhibits
HCLS1_gene	ALOX5AP_gene	inhibits
HCLS1_gene	LCP1_gene	inhibits
HCLS1_gene	NUMB_gene	inhibits
HCLS1_gene	B2M_gene	inhibits
HCLS1_gene	ANPEP_gene	inhibits
HCLS1_gene	CPPED1_gene	inhibits
HCLS1_gene	ALDOA_gene	inhibits
HCLS1_gene	PFN1_gene	inhibits
HCLS1_gene	SSH2_gene	inhibits
HCLS1_gene	CPD_gene	inhibits
HCLS1_gene	EVI2B_gene	inhibits
HCLS1_gene	FMNL1_gene	inhibits
HCLS1_gene	R3HDM4_gene	inhibits
HCLS1_gene	OAZ1_gene	inhibits
HCLS1_gene	ICAM3_gene	inhibits
HCLS1_gene	CD97_gene	inhibits
HCLS1_gene	GMFG_gene	inhibits
HCLS1_gene	FCGRT_gene	inhibits
HCLS1_gene	FPR1_gene	inhibits
HCLS1_gene	PCBP1_gene	inhibits
HCLS1_gene	ARPC2_gene	inhibits
HCLS1_gene	RASSF2_gene	inhibits
HCLS1_gene	MMP9_gene	inhibits
HCLS1_gene	PREX1_gene	inhibits
HCLS1_gene	NCF4_gene	inhibits
HCLS1_gene	SLC6A6_gene	inhibits
HCLS1_gene	CMTM6_gene	inhibits
HCLS1_gene	RHOA_gene	inhibits
HCLS1_gene	TKT_gene	inhibits
HCLS1_gene	BASP1_gene	inhibits
HCLS1_gene	FYB_gene	inhibits
HCLS1_gene	CLIC1_gene	inhibits
HCLS1_gene	GPSM3_gene	inhibits
HCLS1_gene	GNB2_gene	inhibits
HCLS1_gene	SDCBP_gene	inhibits
HCLS1_gene	MEGF9_gene	inhibits
HCLS1_gene	MSN_gene	inhibits
HCLS1_gene	LAMP2_gene	inhibits
HCLS1_gene	RPLP2_gene	activates
HCLS1_gene	RPS25_gene	activates
HCLS1_gene	NACA_gene	activates
HCLS1_gene	RPL6_gene	activates
HCLS1_gene	RPL4_gene	activates
HCLS1_gene	EEF2_gene	activates
HCLS1_gene	RPL18_gene	activates
HCLS1_gene	RPL37A_gene	activates
HCLS1_gene	RPL35A_gene	activates
HCLS1_gene	RPL34_gene	activates
HCLS1_gene	RPS23_gene	activates
HCLS1_gene	RPL10A_gene	activates
HCLS1_gene	SLC25A6_gene	activates
MNDA_gene	NADK_gene	inhibits
MNDA_gene	EFHD2_gene	inhibits
MNDA_gene	PADI2_gene	inhibits
MNDA_gene	CDC42_gene	inhibits
MNDA_gene	FGR_gene	inhibits
MNDA_gene	IFI6_gene	inhibits
MNDA_gene	PHC2_gene	inhibits
MNDA_gene	PPT1_gene	inhibits
MNDA_gene	CD53_gene	inhibits
MNDA_gene	CAPZA1_gene	inhibits
MNDA_gene	S100A12_gene	inhibits
MNDA_gene	S100A4_gene	inhibits
MNDA_gene	TPM3_gene	inhibits
MNDA_gene	IL6R_gene	inhibits
MNDA_gene	ADAR_gene	inhibits
MNDA_gene	FCGR3B_gene	inhibits
MNDA_gene	NCF2_gene	inhibits
MNDA_gene	ARPC5_gene	inhibits
MNDA_gene	PTPRC_gene	inhibits
MNDA_gene	CR1_gene	inhibits
MNDA_gene	H3F3A_gene	inhibits
MNDA_gene	ALOX5_gene	inhibits
MNDA_gene	SRGN_gene	inhibits
MNDA_gene	PTEN_gene	inhibits
MNDA_gene	IFITM2_gene	inhibits
MNDA_gene	IFITM3_gene	inhibits
MNDA_gene	TALDO1_gene	inhibits
MNDA_gene	LSP1_gene	inhibits
MNDA_gene	CAT_gene	inhibits
MNDA_gene	AMICA1_gene	inhibits
MNDA_gene	SLC2A3_gene	inhibits
MNDA_gene	CLEC4E_gene	inhibits
MNDA_gene	KIAA1551_gene	inhibits
MNDA_gene	TMBIM6_gene	inhibits
MNDA_gene	RASSF3_gene	inhibits
MNDA_gene	SELPLG_gene	inhibits
MNDA_gene	OAS3_gene	inhibits
MNDA_gene	PXN_gene	inhibits
MNDA_gene	HCAR3_gene	inhibits
MNDA_gene	ALOX5AP_gene	inhibits
MNDA_gene	LCP1_gene	inhibits
MNDA_gene	IRS2_gene	inhibits
MNDA_gene	NUMB_gene	inhibits
MNDA_gene	B2M_gene	inhibits
MNDA_gene	BCL2A1_gene	inhibits
MNDA_gene	ANPEP_gene	inhibits
MNDA_gene	IQGAP1_gene	inhibits
MNDA_gene	MSRB1_gene	inhibits
MNDA_gene	LITAF_gene	inhibits
MNDA_gene	CPPED1_gene	inhibits
MNDA_gene	ALDOA_gene	inhibits
MNDA_gene	ITGAM_gene	inhibits
MNDA_gene	PFN1_gene	inhibits
MNDA_gene	SSH2_gene	inhibits
MNDA_gene	CPD_gene	inhibits
MNDA_gene	GRN_gene	inhibits
MNDA_gene	FMNL1_gene	inhibits
MNDA_gene	PRKAR1A_gene	inhibits
MNDA_gene	RNF213_gene	inhibits
MNDA_gene	SMCHD1_gene	inhibits
MNDA_gene	R3HDM4_gene	inhibits
MNDA_gene	OAZ1_gene	inhibits
MNDA_gene	ICAM3_gene	inhibits
MNDA_gene	GMFG_gene	inhibits
MNDA_gene	C5AR1_gene	inhibits
MNDA_gene	FPR1_gene	inhibits
MNDA_gene	FPR2_gene	inhibits
MNDA_gene	LILRA2_gene	inhibits
MNDA_gene	ACTR2_gene	inhibits
MNDA_gene	PCBP1_gene	inhibits
MNDA_gene	RNF149_gene	inhibits
MNDA_gene	GCA_gene	inhibits
MNDA_gene	CXCR2_gene	inhibits
MNDA_gene	ARPC2_gene	inhibits
MNDA_gene	SIRPA_gene	inhibits
MNDA_gene	MMP9_gene	inhibits
MNDA_gene	PREX1_gene	inhibits
MNDA_gene	KCNJ15_gene	inhibits
MNDA_gene	NCF4_gene	inhibits
MNDA_gene	CSF2RB_gene	inhibits
MNDA_gene	SLC6A6_gene	inhibits
MNDA_gene	MYD88_gene	inhibits
MNDA_gene	SHISA5_gene	inhibits
MNDA_gene	RHOA_gene	inhibits
MNDA_gene	TKT_gene	inhibits
MNDA_gene	PROK2_gene	inhibits
MNDA_gene	MME_gene	inhibits
MNDA_gene	TMEM154_gene	inhibits
MNDA_gene	TLR2_gene	inhibits
MNDA_gene	ACSL1_gene	inhibits
MNDA_gene	FYB_gene	inhibits
MNDA_gene	CD14_gene	inhibits
MNDA_gene	CLIC1_gene	inhibits
MNDA_gene	GPSM3_gene	inhibits
MNDA_gene	TAP1_gene	inhibits
MNDA_gene	FKBP5_gene	inhibits
MNDA_gene	ACTB_gene	inhibits
MNDA_gene	GNB2_gene	inhibits
MNDA_gene	MGAM_gene	inhibits
MNDA_gene	ATP6V1B2_gene	inhibits
MNDA_gene	TNFRSF10C_gene	inhibits
MNDA_gene	TLR8_gene	inhibits
MNDA_gene	MSN_gene	inhibits
MNDA_gene	LAMP2_gene	inhibits
MNDA_gene	GBP2_gene	activates
MNDA_gene	RPL5_gene	activates
MNDA_gene	PPP1R15B_gene	activates
MNDA_gene	RPS24_gene	activates
MNDA_gene	IFIT3_gene	activates
MNDA_gene	RPL27A_gene	activates
MNDA_gene	RPS25_gene	activates
MNDA_gene	NACA_gene	activates
MNDA_gene	DUSP6_gene	activates
MNDA_gene	RPS29_gene	activates
MNDA_gene	SRRM2_gene	activates
MNDA_gene	RPL23A_gene	activates
MNDA_gene	CDKN2D_gene	activates
MNDA_gene	DNAJB1_gene	activates
MNDA_gene	RPS16_gene	activates
MNDA_gene	RPS19_gene	activates
MNDA_gene	RPL18_gene	activates
MNDA_gene	NKG7_gene	activates
MNDA_gene	RPL28_gene	activates
MNDA_gene	RPL29_gene	activates
MNDA_gene	RPL35A_gene	activates
MNDA_gene	RPL34_gene	activates
MNDA_gene	RPS23_gene	activates
MNDA_gene	DUSP1_gene	activates
MNDA_gene	GNB2L1_gene	activates
MNDA_gene	HLA-DRA_gene	activates
MNDA_gene	RPL10A_gene	activates
MNDA_gene	RPS20_gene	activates
MNDA_gene	RPL8_gene	activates
MNDA_gene	RPL7A_gene	activates
MNDA_gene	SLC25A6_gene	activates
MNDA_gene	PGK1_gene	activates
BCL6_gene	PIK3CD_gene	inhibits
BCL6_gene	PTAFR_gene	inhibits
BCL6_gene	ACTN1_gene	inhibits
BCL6_gene	FLOT2_gene	inhibits
BCL6_gene	ACTR3_gene	inhibits
BCL6_gene	HCK_gene	inhibits
BCL6_gene	SLC25A37_gene	inhibits
BCL6_gene	DOCK8_gene	inhibits
BCL6_gene	DDX3X_gene	inhibits
BCL6_gene	RPL21_gene	activates
BCL6_gene	RPL23_gene	activates
BCL6_gene	RPL29_gene	activates
SPI1_gene	PIK3CD_gene	inhibits
SPI1_gene	ECE1_gene	inhibits
SPI1_gene	THEMIS2_gene	inhibits
SPI1_gene	CSF3R_gene	inhibits
SPI1_gene	CTSS_gene	inhibits
SPI1_gene	S100A11_gene	inhibits
SPI1_gene	SELL_gene	inhibits
SPI1_gene	CD46_gene	inhibits
SPI1_gene	RHOG_gene	inhibits
SPI1_gene	ARAP1_gene	inhibits
SPI1_gene	PICALM_gene	inhibits
SPI1_gene	OSBPL8_gene	inhibits
SPI1_gene	PXN_gene	inhibits
SPI1_gene	HCAR3_gene	inhibits
SPI1_gene	LRP10_gene	inhibits
SPI1_gene	SERPINA1_gene	inhibits
SPI1_gene	AQP9_gene	inhibits
SPI1_gene	MSRB1_gene	inhibits
SPI1_gene	CORO1A_gene	inhibits
SPI1_gene	PFN1_gene	inhibits
SPI1_gene	PRKAR1A_gene	inhibits
SPI1_gene	SECTM1_gene	inhibits
SPI1_gene	CNN2_gene	inhibits
SPI1_gene	VASP_gene	inhibits
SPI1_gene	FCGRT_gene	inhibits
SPI1_gene	MBOAT7_gene	inhibits
SPI1_gene	PLEK_gene	inhibits
SPI1_gene	DYSF_gene	inhibits
SPI1_gene	MMP9_gene	inhibits
SPI1_gene	IL17RA_gene	inhibits
SPI1_gene	MYH9_gene	inhibits
SPI1_gene	SLC6A6_gene	inhibits
SPI1_gene	MYD88_gene	inhibits
SPI1_gene	PROK2_gene	inhibits
SPI1_gene	HLA-C_gene	inhibits
SPI1_gene	VNN2_gene	inhibits
SPI1_gene	SOD2_gene	inhibits
SPI1_gene	ZYX_gene	inhibits
SPI1_gene	LYN_gene	inhibits
SPI1_gene	DOCK8_gene	inhibits
SPI1_gene	DDX3X_gene	inhibits
SPI1_gene	RPS8_gene	activates
SPI1_gene	RPS3_gene	activates
SPI1_gene	RPLP0_gene	activates
SPI1_gene	RPL21_gene	activates
SPI1_gene	RPL23_gene	activates
SPI1_gene	UBA52_gene	activates
SPI1_gene	RPL32_gene	activates
SPI1_gene	RPL29_gene	activates
SPI1_gene	PABPC1_gene	activates
SPI1_gene	RPS6_gene	activates
SPI1_gene	ANXA1_gene	activates
SPI1_gene	SLC25A6_gene	activates
DAZAP2_gene	TNFRSF1B_gene	inhibits
DAZAP2_gene	EFHD2_gene	inhibits
DAZAP2_gene	CDC42_gene	inhibits
DAZAP2_gene	SH3BGRL3_gene	inhibits
DAZAP2_gene	THEMIS2_gene	inhibits
DAZAP2_gene	CAP1_gene	inhibits
DAZAP2_gene	S100A8_gene	inhibits
DAZAP2_gene	S100A6_gene	inhibits
DAZAP2_gene	TPM3_gene	inhibits
DAZAP2_gene	GLUL_gene	inhibits
DAZAP2_gene	CHI3L1_gene	inhibits
DAZAP2_gene	PSAP_gene	inhibits
DAZAP2_gene	ADAM8_gene	inhibits
DAZAP2_gene	RHOG_gene	inhibits
DAZAP2_gene	CFL1_gene	inhibits
DAZAP2_gene	APLP2_gene	inhibits
DAZAP2_gene	CLEC4E_gene	inhibits
DAZAP2_gene	PLBD1_gene	inhibits
DAZAP2_gene	ARHGDIB_gene	inhibits
DAZAP2_gene	MYL6_gene	inhibits
DAZAP2_gene	ITM2B_gene	inhibits
DAZAP2_gene	IRS2_gene	inhibits
DAZAP2_gene	C15orf39_gene	inhibits
DAZAP2_gene	ITGAX_gene	inhibits
DAZAP2_gene	MSL1_gene	inhibits
DAZAP2_gene	SECTM1_gene	inhibits
DAZAP2_gene	CDKN2D_gene	inhibits
DAZAP2_gene	FKBP8_gene	inhibits
DAZAP2_gene	TYROBP_gene	inhibits
DAZAP2_gene	FCGRT_gene	inhibits
DAZAP2_gene	YPEL5_gene	inhibits
DAZAP2_gene	CDC42EP3_gene	inhibits
DAZAP2_gene	PELI1_gene	inhibits
DAZAP2_gene	CYTIP_gene	inhibits
DAZAP2_gene	STK17B_gene	inhibits
DAZAP2_gene	ARPC2_gene	inhibits
DAZAP2_gene	MMP9_gene	inhibits
DAZAP2_gene	ITGB2_gene	inhibits
DAZAP2_gene	GNAI2_gene	inhibits
DAZAP2_gene	FBXL5_gene	inhibits
DAZAP2_gene	CCNI_gene	inhibits
DAZAP2_gene	UBE2D3_gene	inhibits
DAZAP2_gene	HLA-E_gene	inhibits
DAZAP2_gene	LST1_gene	inhibits
DAZAP2_gene	TMEM66_gene	inhibits
DAZAP2_gene	YWHAZ_gene	inhibits
DAZAP2_gene	DOCK8_gene	inhibits
DAZAP2_gene	NINJ1_gene	inhibits
DAZAP2_gene	TMSB4X_gene	inhibits
DAZAP2_gene	PGK1_gene	inhibits
DAZAP2_gene	GBP5_gene	activates
DAZAP2_gene	RPS25_gene	activates
DAZAP2_gene	RPL41_gene	activates
DAZAP2_gene	RPL3_gene	activates
FOS	ECE1_gene	inhibits
FOS	RPL11_gene	inhibits
FOS	SH3BGRL3_gene	inhibits
FOS	ZDHHC18_gene	inhibits
FOS	RPS8_gene	inhibits
FOS	GBP2_gene	inhibits
FOS	GBP5_gene	inhibits
FOS	RPL5_gene	inhibits
FOS	HIST2H2BE_gene	inhibits
FOS	MCL1_gene	inhibits
FOS	CDC42SE1_gene	inhibits
FOS	S100A12_gene	inhibits
FOS	RPS27_gene	inhibits
FOS	TPM3_gene	inhibits
FOS	GLUL_gene	inhibits
FOS	PTGS2_gene	inhibits
FOS	PPP1R15B_gene	inhibits
FOS	CR1_gene	inhibits
FOS	G0S2_gene	inhibits
FOS	LYST_gene	inhibits
FOS	VIM_gene	inhibits
FOS	SRGN_gene	inhibits
FOS	RPS24_gene	inhibits
FOS	IFIT2_gene	inhibits
FOS	IFIT3_gene	inhibits
FOS	IFIT1_gene	inhibits
FOS	IFITM3_gene	inhibits
FOS	RPLP2_gene	inhibits
FOS	RHOG_gene	inhibits
FOS	HBB_gene	inhibits
FOS	RPL27A_gene	inhibits
FOS	CAT_gene	inhibits
FOS	AHNAK_gene	inhibits
FOS	RPS3_gene	inhibits
FOS	TMEM123_gene	inhibits
FOS	APLP2_gene	inhibits
FOS	GAPDH_gene	inhibits
FOS	CLEC4E_gene	inhibits
FOS	PLBD1_gene	inhibits
FOS	TMBIM6_gene	inhibits
FOS	HNRNPA1_gene	inhibits
FOS	RPL41_gene	inhibits
FOS	MYL6_gene	inhibits
FOS	NACA_gene	inhibits
FOS	LYZ_gene	inhibits
FOS	DUSP6_gene	inhibits
FOS	RPL6_gene	inhibits
FOS	RPLP0_gene	inhibits
FOS	UBC_gene	inhibits
FOS	RPL21_gene	inhibits
FOS	TPT1_gene	inhibits
FOS	IRS2_gene	inhibits
FOS	RPS29_gene	inhibits
FOS	RPL4_gene	inhibits
FOS	BCL2A1_gene	inhibits
FOS	RPS2_gene	inhibits
FOS	SRRM2_gene	inhibits
FOS	ITGAX_gene	inhibits
FOS	COTL1_gene	inhibits
FOS	CCL5_gene	inhibits
FOS	RPL23_gene	inhibits
FOS	RPL19_gene	inhibits
FOS	MSL1_gene	inhibits
FOS	EIF1_gene	inhibits
FOS	RPL27_gene	inhibits
FOS	GRN_gene	inhibits
FOS	SOCS3_gene	inhibits
FOS	SMCHD1_gene	inhibits
FOS	MIDN_gene	inhibits
FOS	RPS15_gene	inhibits
FOS	EEF2_gene	inhibits
FOS	CDKN2D_gene	inhibits
FOS	DNAJB1_gene	inhibits
FOS	RPL18A_gene	inhibits
FOS	FKBP8_gene	inhibits
FOS	UBA52_gene	inhibits
FOS	TYROBP_gene	inhibits
FOS	RPS16_gene	inhibits
FOS	C5AR1_gene	inhibits
FOS	GLTSCR2_gene	inhibits
FOS	PPP1R15A_gene	inhibits
FOS	FTL_gene	inhibits
FOS	RPL13A_gene	inhibits
FOS	RPS11_gene	inhibits
FOS	FCGRT_gene	inhibits
FOS	NKG7_gene	inhibits
FOS	MYADM_gene	inhibits
FOS	RPS9_gene	inhibits
FOS	RPL28_gene	inhibits
FOS	RPS5_gene	inhibits
FOS	RPS7_gene	inhibits
FOS	YPEL5_gene	inhibits
FOS	CDC42EP3_gene	inhibits
FOS	RPS27A_gene	inhibits
FOS	PELI1_gene	inhibits
FOS	TMSB10_gene	inhibits
FOS	RNF149_gene	inhibits
FOS	IL1RN_gene	inhibits
FOS	CXCR4_gene	inhibits
FOS	CYTIP_gene	inhibits
FOS	STK17B_gene	inhibits
FOS	RPL37A_gene	inhibits
FOS	GNAS_gene	inhibits
FOS	OSM_gene	inhibits
FOS	RPL3_gene	inhibits
FOS	RPL32_gene	inhibits
FOS	RPL15_gene	inhibits
FOS	CSRNP1_gene	inhibits
FOS	RPSA_gene	inhibits
FOS	GNAI2_gene	inhibits
FOS	RPL29_gene	inhibits
FOS	MME_gene	inhibits
FOS	S100P_gene	inhibits
FOS	RPL9_gene	inhibits
FOS	CCNI_gene	inhibits
FOS	RPS3A_gene	inhibits
FOS	ACSL1_gene	inhibits
FOS	RPL37_gene	inhibits
FOS	VCAN_gene	inhibits
FOS	CD74_gene	inhibits
FOS	RPS14_gene	inhibits
FOS	DUSP1_gene	inhibits
FOS	GNB2L1_gene	inhibits
FOS	HLA-F_gene	inhibits
FOS	HLA-A_gene	inhibits
FOS	HLA-B_gene	inhibits
FOS	LST1_gene	inhibits
FOS	HLA-DRA_gene	inhibits
FOS	HLA-DRB1_gene	inhibits
FOS	HLA-DPB1_gene	inhibits
FOS	RPS18_gene	inhibits
FOS	RPS10_gene	inhibits
FOS	FKBP5_gene	inhibits
FOS	TREM1_gene	inhibits
FOS	CCND3_gene	inhibits
FOS	PNRC1_gene	inhibits
FOS	RPS12_gene	inhibits
FOS	TAGAP_gene	inhibits
FOS	NAMPT_gene	inhibits
FOS	TMEM66_gene	inhibits
FOS	RPS20_gene	inhibits
FOS	RPL30_gene	inhibits
FOS	PABPC1_gene	inhibits
FOS	TRIB1_gene	inhibits
FOS	RPL8_gene	inhibits
FOS	RPS6_gene	inhibits
FOS	ANXA1_gene	inhibits
FOS	NINJ1_gene	inhibits
FOS	HSPA5_gene	inhibits
FOS	RPL7A_gene	inhibits
FOS	FCN1_gene	inhibits
FOS	SLC25A6_gene	inhibits
FOS	SAT1_gene	inhibits
FOS	RPS4X_gene	inhibits
FOS	PGK1_gene	inhibits
FOS	RPL10_gene	inhibits
FOS	PIK3CD_gene	activates
FOS	TNFRSF1B_gene	activates
FOS	PADI2_gene	activates
FOS	ALPL_gene	activates
FOS	CDC42_gene	activates
FOS	PTAFR_gene	activates
FOS	LAPTM5_gene	activates
FOS	PTP4A2_gene	activates
FOS	PHC2_gene	activates
FOS	CSF3R_gene	activates
FOS	PPT1_gene	activates
FOS	SMAP2_gene	activates
FOS	CAPZA1_gene	activates
FOS	TXNIP_gene	activates
FOS	CTSS_gene	activates
FOS	S100A11_gene	activates
FOS	S100A9_gene	activates
FOS	S100A8_gene	activates
FOS	S100A6_gene	activates
FOS	IL6R_gene	activates
FOS	TAGLN2_gene	activates
FOS	FCGR2A_gene	activates
FOS	FCGR3A_gene	activates
FOS	FCGR3B_gene	activates
FOS	NCF2_gene	activates
FOS	ARPC5_gene	activates
FOS	FAM129A_gene	activates
FOS	RGS2_gene	activates
FOS	PTPRC_gene	activates
FOS	CHI3L1_gene	activates
FOS	CD46_gene	activates
FOS	ALOX5_gene	activates
FOS	C10orf54_gene	activates
FOS	PSAP_gene	activates
FOS	ADAM8_gene	activates
FOS	RPS13_gene	activates
FOS	RTN3_gene	activates
FOS	ARAP1_gene	activates
FOS	PICALM_gene	activates
FOS	AMICA1_gene	activates
FOS	SORL1_gene	activates
FOS	HSPA8_gene	activates
FOS	ARHGDIB_gene	activates
FOS	KIAA1551_gene	activates
FOS	LRRK2_gene	activates
FOS	TUBA1A_gene	activates
FOS	RPS26_gene	activates
FOS	ARHGAP9_gene	activates
FOS	RASSF3_gene	activates
FOS	PLXNC1_gene	activates
FOS	PXN_gene	activates
FOS	HCAR3_gene	activates
FOS	ITM2B_gene	activates
FOS	LRP10_gene	activates
FOS	SERPINA1_gene	activates
FOS	B2M_gene	activates
FOS	AQP9_gene	activates
FOS	RPLP1_gene	activates
FOS	C15orf39_gene	activates
FOS	IQGAP1_gene	activates
FOS	MSRB1_gene	activates
FOS	MMP25_gene	activates
FOS	LITAF_gene	activates
FOS	XPO6_gene	activates
FOS	RPL13_gene	activates
FOS	ARRB2_gene	activates
FOS	PFN1_gene	activates
FOS	RPL23A_gene	activates
FOS	FLOT2_gene	activates
FOS	EVI2B_gene	activates
FOS	VMP1_gene	activates
FOS	PRKAR1A_gene	activates
FOS	ACTG1_gene	activates
FOS	R3HDM4_gene	activates
FOS	CNN2_gene	activates
FOS	MYO1F_gene	activates
FOS	CD97_gene	activates
FOS	EMR2_gene	activates
FOS	FFAR2_gene	activates
FOS	RPS19_gene	activates
FOS	FPR1_gene	activates
FOS	MBOAT7_gene	activates
FOS	RHOB_gene	activates
FOS	ACTR2_gene	activates
FOS	DYSF_gene	activates
FOS	GNLY_gene	activates
FOS	RPL31_gene	activates
FOS	ACTR3_gene	activates
FOS	GCA_gene	activates
FOS	WIPF1_gene	activates
FOS	EEF1B2_gene	activates
FOS	CXCR1_gene	activates
FOS	HCK_gene	activates
FOS	ITGB2_gene	activates
FOS	IL17RA_gene	activates
FOS	MYH9_gene	activates
FOS	CSF2RB_gene	activates
FOS	CYTH4_gene	activates
FOS	NFAM1_gene	activates
FOS	CMTM6_gene	activates
FOS	MYD88_gene	activates
FOS	FBXL5_gene	activates
FOS	UBE2D3_gene	activates
FOS	TMEM154_gene	activates
FOS	BASP1_gene	activates
FOS	IL7R_gene	activates
FOS	CD14_gene	activates
FOS	HLA-E_gene	activates
FOS	PPP1R18_gene	activates
FOS	HLA-C_gene	activates
FOS	TAP1_gene	activates
FOS	HLA-DPA1_gene	activates
FOS	VNN2_gene	activates
FOS	SOD2_gene	activates
FOS	IGF2R_gene	activates
FOS	ACTB_gene	activates
FOS	MGAM_gene	activates
FOS	ATP6V1B2_gene	activates
FOS	TNFRSF10C_gene	activates
FOS	LYN_gene	activates
FOS	SDCBP_gene	activates
FOS	RPL7_gene	activates
FOS	YWHAZ_gene	activates
FOS	TLN1_gene	activates
FOS	TLR4_gene	activates
FOS	MEGF9_gene	activates
FOS	RPL12_gene	activates
FOS	TMSB4X_gene	activates
FOS	CYBB_gene	activates
FOS	DDX3X_gene	activates
FOS	RPL39_gene	activates
FOS	FLNA_gene	activates
JUN	ECE1_gene	inhibits
JUN	GBP5_gene	inhibits
JUN	RPL5_gene	inhibits
JUN	HIST2H2BE_gene	inhibits
JUN	MCL1_gene	inhibits
JUN	RPS27_gene	inhibits
JUN	TAGLN2_gene	inhibits
JUN	PTGS2_gene	inhibits
JUN	PPP1R15B_gene	inhibits
JUN	G0S2_gene	inhibits
JUN	RPS24_gene	inhibits
JUN	IFIT2_gene	inhibits
JUN	IFIT3_gene	inhibits
JUN	IFIT1_gene	inhibits
JUN	RPLP2_gene	inhibits
JUN	RHOG_gene	inhibits
JUN	HBB_gene	inhibits
JUN	RPL27A_gene	inhibits
JUN	FTH1_gene	inhibits
JUN	AHNAK_gene	inhibits
JUN	RPS25_gene	inhibits
JUN	CD69_gene	inhibits
JUN	HNRNPA1_gene	inhibits
JUN	RPL41_gene	inhibits
JUN	NACA_gene	inhibits
JUN	LYZ_gene	inhibits
JUN	RPL6_gene	inhibits
JUN	UBC_gene	inhibits
JUN	RPS29_gene	inhibits
JUN	HBA2_gene	inhibits
JUN	SRRM2_gene	inhibits
JUN	RPL23A_gene	inhibits
JUN	CCL5_gene	inhibits
JUN	RPL23_gene	inhibits
JUN	RPL19_gene	inhibits
JUN	EIF1_gene	inhibits
JUN	RPL27_gene	inhibits
JUN	H3F3B_gene	inhibits
JUN	SOCS3_gene	inhibits
JUN	MIDN_gene	inhibits
JUN	RPS15_gene	inhibits
JUN	CDKN2D_gene	inhibits
JUN	IER2_gene	inhibits
JUN	DNAJB1_gene	inhibits
JUN	RPL18A_gene	inhibits
JUN	UBA52_gene	inhibits
JUN	RPS16_gene	inhibits
JUN	GLTSCR2_gene	inhibits
JUN	PPP1R15A_gene	inhibits
JUN	RPL13A_gene	inhibits
JUN	RPS11_gene	inhibits
JUN	NKG7_gene	inhibits
JUN	RPL28_gene	inhibits
JUN	RPS5_gene	inhibits
JUN	RPS7_gene	inhibits
JUN	RPS27A_gene	inhibits
JUN	GNLY_gene	inhibits
JUN	RPL31_gene	inhibits
JUN	IL1RN_gene	inhibits
JUN	RPL37A_gene	inhibits
JUN	GNAS_gene	inhibits
JUN	OSM_gene	inhibits
JUN	RPL15_gene	inhibits
JUN	CSRNP1_gene	inhibits
JUN	RPL29_gene	inhibits
JUN	IL8_gene	inhibits
JUN	CCNI_gene	inhibits
JUN	RPS3A_gene	inhibits
JUN	RPL37_gene	inhibits
JUN	CD74_gene	inhibits
JUN	RPS14_gene	inhibits
JUN	DUSP1_gene	inhibits
JUN	HLA-F_gene	inhibits
JUN	HLA-A_gene	inhibits
JUN	HLA-DRA_gene	inhibits
JUN	HLA-DPB1_gene	inhibits
JUN	RPS10_gene	inhibits
JUN	PNRC1_gene	inhibits
JUN	RPS12_gene	inhibits
JUN	NAMPT_gene	inhibits
JUN	RPS20_gene	inhibits
JUN	RPL7_gene	inhibits
JUN	RPL30_gene	inhibits
JUN	TRIB1_gene	inhibits
JUN	RPL8_gene	inhibits
JUN	ANXA1_gene	inhibits
JUN	NINJ1_gene	inhibits
JUN	HSPA5_gene	inhibits
JUN	SLC25A6_gene	inhibits
JUN	PIK3CD_gene	activates
JUN	TNFRSF1B_gene	activates
JUN	ALPL_gene	activates
JUN	SH3BGRL3_gene	activates
JUN	THEMIS2_gene	activates
JUN	LAPTM5_gene	activates
JUN	PTP4A2_gene	activates
JUN	CAP1_gene	activates
JUN	CD53_gene	activates
JUN	CAPZA1_gene	activates
JUN	TXNIP_gene	activates
JUN	CTSS_gene	activates
JUN	CDC42SE1_gene	activates
JUN	S100A11_gene	activates
JUN	S100A8_gene	activates
JUN	IL6R_gene	activates
JUN	ADAR_gene	activates
JUN	NCF2_gene	activates
JUN	ARPC5_gene	activates
JUN	RGS2_gene	activates
JUN	VIM_gene	activates
JUN	ALOX5_gene	activates
JUN	SRGN_gene	activates
JUN	C10orf54_gene	activates
JUN	PSAP_gene	activates
JUN	CAT_gene	activates
JUN	MPEG1_gene	activates
JUN	RTN3_gene	activates
JUN	PICALM_gene	activates
JUN	AMICA1_gene	activates
JUN	SORL1_gene	activates
JUN	HSPA8_gene	activates
JUN	ARHGDIB_gene	activates
JUN	LRRK2_gene	activates
JUN	RPS26_gene	activates
JUN	ARHGAP9_gene	activates
JUN	RASSF3_gene	activates
JUN	OSBPL8_gene	activates
JUN	PLXNC1_gene	activates
JUN	PXN_gene	activates
JUN	HCAR3_gene	activates
JUN	ITM2B_gene	activates
JUN	LRP10_gene	activates
JUN	PYGL_gene	activates
JUN	ACTN1_gene	activates
JUN	SERPINA1_gene	activates
JUN	C15orf39_gene	activates
JUN	MSRB1_gene	activates
JUN	MMP25_gene	activates
JUN	LITAF_gene	activates
JUN	IL4R_gene	activates
JUN	CORO1A_gene	activates
JUN	ITGAM_gene	activates
JUN	GPR97_gene	activates
JUN	CYBA_gene	activates
JUN	RPL13_gene	activates
JUN	ARRB2_gene	activates
JUN	FLOT2_gene	activates
JUN	CPD_gene	activates
JUN	EVI2B_gene	activates
JUN	GRN_gene	activates
JUN	VMP1_gene	activates
JUN	PRKAR1A_gene	activates
JUN	SECTM1_gene	activates
JUN	CD97_gene	activates
JUN	EMR2_gene	activates
JUN	FKBP8_gene	activates
JUN	TYROBP_gene	activates
JUN	VASP_gene	activates
JUN	MBOAT7_gene	activates
JUN	RHOB_gene	activates
JUN	ACTR2_gene	activates
JUN	ACTR3_gene	activates
JUN	WIPF1_gene	activates
JUN	CXCR2_gene	activates
JUN	CXCR1_gene	activates
JUN	ARPC2_gene	activates
JUN	RASSF2_gene	activates
JUN	MMP9_gene	activates
JUN	ITGB2_gene	activates
JUN	IL17RA_gene	activates
JUN	MYH9_gene	activates
JUN	NCF4_gene	activates
JUN	CMTM6_gene	activates
JUN	MYD88_gene	activates
JUN	TKT_gene	activates
JUN	MME_gene	activates
JUN	UBE2D3_gene	activates
JUN	TMEM154_gene	activates
JUN	ACSL1_gene	activates
JUN	BASP1_gene	activates
JUN	FYB_gene	activates
JUN	CD14_gene	activates
JUN	FAM65B_gene	activates
JUN	HLA-E_gene	activates
JUN	PPP1R18_gene	activates
JUN	HLA-C_gene	activates
JUN	HLA-DRB1_gene	activates
JUN	HLA-DPA1_gene	activates
JUN	SOD2_gene	activates
JUN	IGF2R_gene	activates
JUN	ACTB_gene	activates
JUN	FGL2_gene	activates
JUN	GNB2_gene	activates
JUN	MGAM_gene	activates
JUN	ZYX_gene	activates
JUN	TNFRSF10C_gene	activates
JUN	SLC25A37_gene	activates
JUN	SDCBP_gene	activates
JUN	YWHAZ_gene	activates
JUN	DOCK8_gene	activates
JUN	TLN1_gene	activates
JUN	TLR4_gene	activates
JUN	MEGF9_gene	activates
JUN	TMSB4X_gene	activates
JUN	SAT1_gene	activates
JUN	CYBB_gene	activates
JUN	DDX3X_gene	activates
JUN	MSN_gene	activates
JUN	RPL39_gene	activates
JUN	LAMP2_gene	activates
JUN	FLNA_gene	activates
JUND	ECE1_gene	inhibits
JUND	RPL5_gene	inhibits
JUND	RPS27_gene	inhibits
JUND	RPS24_gene	inhibits
JUND	RPLP2_gene	inhibits
JUND	RHOG_gene	inhibits
JUND	RPL27A_gene	inhibits
JUND	RPL6_gene	inhibits
JUND	RPS29_gene	inhibits
JUND	RPL23_gene	inhibits
JUND	RPL27_gene	inhibits
JUND	MIDN_gene	inhibits
JUND	RPS15_gene	inhibits
JUND	CDKN2D_gene	inhibits
JUND	DNAJB1_gene	inhibits
JUND	RPL18A_gene	inhibits
JUND	UBA52_gene	inhibits
JUND	RPS16_gene	inhibits
JUND	GLTSCR2_gene	inhibits
JUND	RPS11_gene	inhibits
JUND	NKG7_gene	inhibits
JUND	RPL28_gene	inhibits
JUND	RPS5_gene	inhibits
JUND	RPS7_gene	inhibits
JUND	RPL37A_gene	inhibits
JUND	RPL15_gene	inhibits
JUND	RPL29_gene	inhibits
JUND	CCNI_gene	inhibits
JUND	RPL37_gene	inhibits
JUND	RPS14_gene	inhibits
JUND	HLA-F_gene	inhibits
JUND	HLA-DPB1_gene	inhibits
JUND	RPS10_gene	inhibits
JUND	RPS12_gene	inhibits
JUND	RPS20_gene	inhibits
JUND	RPL30_gene	inhibits
JUND	ANXA1_gene	inhibits
JUND	NINJ1_gene	inhibits
JUND	SLC25A6_gene	inhibits
JUND	PIK3CD_gene	activates
JUND	ALPL_gene	activates
JUND	CAPZA1_gene	activates
JUND	ARPC5_gene	activates
JUND	LRRK2_gene	activates
JUND	PRKAR1A_gene	activates
JUND	EMR2_gene	activates
JUND	IL17RA_gene	activates
JUND	MYD88_gene	activates
JUND	ACSL1_gene	activates
JUND	FYB_gene	activates
JUND	IGF2R_gene	activates
JUND	DOCK8_gene	activates
JUND	TLN1_gene	activates
JUND	DDX3X_gene	activates
EEF1A1_gene	RPL11_gene	inhibits
EEF1A1_gene	RPS8_gene	inhibits
EEF1A1_gene	RPL5_gene	inhibits
EEF1A1_gene	RPS27_gene	inhibits
EEF1A1_gene	RPS24_gene	inhibits
EEF1A1_gene	RPLP2_gene	inhibits
EEF1A1_gene	RPL27A_gene	inhibits
EEF1A1_gene	RPS13_gene	inhibits
EEF1A1_gene	RPS3_gene	inhibits
EEF1A1_gene	TMEM123_gene	inhibits
EEF1A1_gene	RPS25_gene	inhibits
EEF1A1_gene	HSPA8_gene	inhibits
EEF1A1_gene	HNRNPA1_gene	inhibits
EEF1A1_gene	RPL41_gene	inhibits
EEF1A1_gene	NACA_gene	inhibits
EEF1A1_gene	DUSP6_gene	inhibits
EEF1A1_gene	RPL6_gene	inhibits
EEF1A1_gene	RPLP0_gene	inhibits
EEF1A1_gene	RPL21_gene	inhibits
EEF1A1_gene	TPT1_gene	inhibits
EEF1A1_gene	RPS29_gene	inhibits
EEF1A1_gene	RPL4_gene	inhibits
EEF1A1_gene	RPLP1_gene	inhibits
EEF1A1_gene	RPS2_gene	inhibits
EEF1A1_gene	RPL13_gene	inhibits
EEF1A1_gene	RPL23A_gene	inhibits
EEF1A1_gene	RPL23_gene	inhibits
EEF1A1_gene	RPL19_gene	inhibits
EEF1A1_gene	RPL27_gene	inhibits
EEF1A1_gene	RPS15_gene	inhibits
EEF1A1_gene	EEF2_gene	inhibits
EEF1A1_gene	RPL18A_gene	inhibits
EEF1A1_gene	UBA52_gene	inhibits
EEF1A1_gene	RPS16_gene	inhibits
EEF1A1_gene	GLTSCR2_gene	inhibits
EEF1A1_gene	RPL13A_gene	inhibits
EEF1A1_gene	RPS11_gene	inhibits
EEF1A1_gene	NKG7_gene	inhibits
EEF1A1_gene	RPS9_gene	inhibits
EEF1A1_gene	RPL28_gene	inhibits
EEF1A1_gene	RPS5_gene	inhibits
EEF1A1_gene	RPS7_gene	inhibits
EEF1A1_gene	RPS27A_gene	inhibits
EEF1A1_gene	TMSB10_gene	inhibits
EEF1A1_gene	RPL31_gene	inhibits
EEF1A1_gene	EEF1B2_gene	inhibits
EEF1A1_gene	RPL37A_gene	inhibits
EEF1A1_gene	RPL3_gene	inhibits
EEF1A1_gene	RPL32_gene	inhibits
EEF1A1_gene	RPL15_gene	inhibits
EEF1A1_gene	RPSA_gene	inhibits
EEF1A1_gene	RPL29_gene	inhibits
EEF1A1_gene	RPL35A_gene	inhibits
EEF1A1_gene	RPL9_gene	inhibits
EEF1A1_gene	RPL34_gene	inhibits
EEF1A1_gene	RPS3A_gene	inhibits
EEF1A1_gene	RPL37_gene	inhibits
EEF1A1_gene	RPS23_gene	inhibits
EEF1A1_gene	RPS14_gene	inhibits
EEF1A1_gene	GNB2L1_gene	inhibits
EEF1A1_gene	HLA-DRB1_gene	inhibits
EEF1A1_gene	HLA-DPB1_gene	inhibits
EEF1A1_gene	RPS18_gene	inhibits
EEF1A1_gene	RPS10_gene	inhibits
EEF1A1_gene	RPL10A_gene	inhibits
EEF1A1_gene	RPS12_gene	inhibits
EEF1A1_gene	RPS20_gene	inhibits
EEF1A1_gene	RPL7_gene	inhibits
EEF1A1_gene	RPL30_gene	inhibits
EEF1A1_gene	PABPC1_gene	inhibits
EEF1A1_gene	RPL8_gene	inhibits
EEF1A1_gene	RPS6_gene	inhibits
EEF1A1_gene	ANXA1_gene	inhibits
EEF1A1_gene	RPL7A_gene	inhibits
EEF1A1_gene	FCN1_gene	inhibits
EEF1A1_gene	SLC25A6_gene	inhibits
EEF1A1_gene	RPS4X_gene	inhibits
EEF1A1_gene	RPL39_gene	inhibits
EEF1A1_gene	RPL10_gene	inhibits
EEF1A1_gene	PADI2_gene	activates
EEF1A1_gene	ECE1_gene	activates
EEF1A1_gene	ALPL_gene	activates
EEF1A1_gene	IFI6_gene	activates
EEF1A1_gene	THEMIS2_gene	activates
EEF1A1_gene	PTAFR_gene	activates
EEF1A1_gene	CSF3R_gene	activates
EEF1A1_gene	SMAP2_gene	activates
EEF1A1_gene	CD53_gene	activates
EEF1A1_gene	CDC42SE1_gene	activates
EEF1A1_gene	S100A9_gene	activates
EEF1A1_gene	S100A6_gene	activates
EEF1A1_gene	IL6R_gene	activates
EEF1A1_gene	FCGR3B_gene	activates
EEF1A1_gene	GLUL_gene	activates
EEF1A1_gene	PTPRC_gene	activates
EEF1A1_gene	CHI3L1_gene	activates
EEF1A1_gene	CD46_gene	activates
EEF1A1_gene	LYST_gene	activates
EEF1A1_gene	ADAM8_gene	activates
EEF1A1_gene	IFITM3_gene	activates
EEF1A1_gene	RHOG_gene	activates
EEF1A1_gene	CFL1_gene	activates
EEF1A1_gene	PICALM_gene	activates
EEF1A1_gene	APLP2_gene	activates
EEF1A1_gene	CLEC4E_gene	activates
EEF1A1_gene	PLBD1_gene	activates
EEF1A1_gene	TMBIM6_gene	activates
EEF1A1_gene	MYL6_gene	activates
EEF1A1_gene	LYZ_gene	activates
EEF1A1_gene	ALOX5AP_gene	activates
EEF1A1_gene	NUMB_gene	activates
EEF1A1_gene	AQP9_gene	activates
EEF1A1_gene	IQGAP1_gene	activates
EEF1A1_gene	XPO6_gene	activates
EEF1A1_gene	ALDOA_gene	activates
EEF1A1_gene	ITGAM_gene	activates
EEF1A1_gene	ITGAX_gene	activates
EEF1A1_gene	COTL1_gene	activates
EEF1A1_gene	SSH2_gene	activates
EEF1A1_gene	CPD_gene	activates
EEF1A1_gene	EVI2B_gene	activates
EEF1A1_gene	MSL1_gene	activates
EEF1A1_gene	PRKAR1A_gene	activates
EEF1A1_gene	SECTM1_gene	activates
EEF1A1_gene	CNN2_gene	activates
EEF1A1_gene	MIDN_gene	activates
EEF1A1_gene	ICAM3_gene	activates
EEF1A1_gene	CD97_gene	activates
EEF1A1_gene	FKBP8_gene	activates
EEF1A1_gene	TYROBP_gene	activates
EEF1A1_gene	GMFG_gene	activates
EEF1A1_gene	C5AR1_gene	activates
EEF1A1_gene	FCGRT_gene	activates
EEF1A1_gene	MYADM_gene	activates
EEF1A1_gene	DYSF_gene	activates
EEF1A1_gene	RNF149_gene	activates
EEF1A1_gene	IL1RN_gene	activates
EEF1A1_gene	SIRPA_gene	activates
EEF1A1_gene	GNAS_gene	activates
EEF1A1_gene	CSF2RB_gene	activates
EEF1A1_gene	CYTH4_gene	activates
EEF1A1_gene	NFAM1_gene	activates
EEF1A1_gene	GNAI2_gene	activates
EEF1A1_gene	PROK2_gene	activates
EEF1A1_gene	CCNI_gene	activates
EEF1A1_gene	CLIC1_gene	activates
EEF1A1_gene	GPSM3_gene	activates
EEF1A1_gene	ATP6V1B2_gene	activates
EEF1A1_gene	TNFRSF10C_gene	activates
EEF1A1_gene	LYN_gene	activates
EEF1A1_gene	TRIB1_gene	activates
EEF1A1_gene	DOCK8_gene	activates
EEF1A1_gene	NINJ1_gene	activates
EEF1A1_gene	HSPA5_gene	activates
EEF1A1_gene	DDX3X_gene	activates
TNFAIP3	SH3BGRL3_gene	inhibits
TNFAIP3	ZDHHC18_gene	inhibits
TNFAIP3	GBP2_gene	inhibits
TNFAIP3	MCL1_gene	inhibits
TNFAIP3	CDC42SE1_gene	inhibits
TNFAIP3	TAGLN2_gene	inhibits
TNFAIP3	GLUL_gene	inhibits
TNFAIP3	VIM_gene	inhibits
TNFAIP3	RPS24_gene	inhibits
TNFAIP3	IFIT2_gene	inhibits
TNFAIP3	RPLP2_gene	inhibits
TNFAIP3	RPL27A_gene	inhibits
TNFAIP3	FTH1_gene	inhibits
TNFAIP3	APLP2_gene	inhibits
TNFAIP3	GAPDH_gene	inhibits
TNFAIP3	CLEC4E_gene	inhibits
TNFAIP3	CD69_gene	inhibits
TNFAIP3	PLBD1_gene	inhibits
TNFAIP3	MYL6_gene	inhibits
TNFAIP3	RPL6_gene	inhibits
TNFAIP3	RPS29_gene	inhibits
TNFAIP3	HBA2_gene	inhibits
TNFAIP3	ITGAX_gene	inhibits
TNFAIP3	COTL1_gene	inhibits
TNFAIP3	CCL5_gene	inhibits
TNFAIP3	MSL1_gene	inhibits
TNFAIP3	H3F3B_gene	inhibits
TNFAIP3	IER2_gene	inhibits
TNFAIP3	DNAJB1_gene	inhibits
TNFAIP3	FKBP8_gene	inhibits
TNFAIP3	TYROBP_gene	inhibits
TNFAIP3	RPS16_gene	inhibits
TNFAIP3	GLTSCR2_gene	inhibits
TNFAIP3	PPP1R15A_gene	inhibits
TNFAIP3	FTL_gene	inhibits
TNFAIP3	FCGRT_gene	inhibits
TNFAIP3	NKG7_gene	inhibits
TNFAIP3	RPL28_gene	inhibits
TNFAIP3	RPS5_gene	inhibits
TNFAIP3	RPS7_gene	inhibits
TNFAIP3	YPEL5_gene	inhibits
TNFAIP3	CDC42EP3_gene	inhibits
TNFAIP3	PELI1_gene	inhibits
TNFAIP3	GNLY_gene	inhibits
TNFAIP3	IL1RN_gene	inhibits
TNFAIP3	CXCR4_gene	inhibits
TNFAIP3	CYTIP_gene	inhibits
TNFAIP3	STK17B_gene	inhibits
TNFAIP3	RPL37A_gene	inhibits
TNFAIP3	GNAS_gene	inhibits
TNFAIP3	OSM_gene	inhibits
TNFAIP3	RPL15_gene	inhibits
TNFAIP3	GNAI2_gene	inhibits
TNFAIP3	S100P_gene	inhibits
TNFAIP3	IL8_gene	inhibits
TNFAIP3	RPL37_gene	inhibits
TNFAIP3	VCAN_gene	inhibits
TNFAIP3	RPS14_gene	inhibits
TNFAIP3	HLA-A_gene	inhibits
TNFAIP3	HLA-B_gene	inhibits
TNFAIP3	LST1_gene	inhibits
TNFAIP3	HLA-DRA_gene	inhibits
TNFAIP3	HLA-DPB1_gene	inhibits
TNFAIP3	RPS10_gene	inhibits
TNFAIP3	TREM1_gene	inhibits
TNFAIP3	CCND3_gene	inhibits
TNFAIP3	TAGAP_gene	inhibits
TNFAIP3	TMEM66_gene	inhibits
TNFAIP3	RPS20_gene	inhibits
TNFAIP3	RPL30_gene	inhibits
TNFAIP3	ANXA1_gene	inhibits
TNFAIP3	HSPA5_gene	inhibits
TNFAIP3	SAT1_gene	inhibits
TNFAIP3	PGK1_gene	inhibits
TNFAIP3	PIK3CD_gene	activates
TNFAIP3	CAP1_gene	activates
TNFAIP3	PPT1_gene	activates
TNFAIP3	CAPZA1_gene	activates
TNFAIP3	S100A12_gene	activates
TNFAIP3	FCGR2A_gene	activates
TNFAIP3	ARPC5_gene	activates
TNFAIP3	FAM129A_gene	activates
TNFAIP3	IFIT1_gene	activates
TNFAIP3	RPS13_gene	activates
TNFAIP3	MPEG1_gene	activates
TNFAIP3	RTN3_gene	activates
TNFAIP3	ARAP1_gene	activates
TNFAIP3	AMICA1_gene	activates
TNFAIP3	SORL1_gene	activates
TNFAIP3	KIAA1551_gene	activates
TNFAIP3	TUBA1A_gene	activates
TNFAIP3	OSBPL8_gene	activates
TNFAIP3	PYGL_gene	activates
TNFAIP3	ACTN1_gene	activates
TNFAIP3	RPLP1_gene	activates
TNFAIP3	CORO1A_gene	activates
TNFAIP3	PRKAR1A_gene	activates
TNFAIP3	ACTG1_gene	activates
TNFAIP3	MYO1F_gene	activates
TNFAIP3	EMR2_gene	activates
TNFAIP3	FFAR2_gene	activates
TNFAIP3	VASP_gene	activates
TNFAIP3	RNF149_gene	activates
TNFAIP3	GCA_gene	activates
TNFAIP3	EEF1B2_gene	activates
TNFAIP3	CXCR2_gene	activates
TNFAIP3	CXCR1_gene	activates
TNFAIP3	RASSF2_gene	activates
TNFAIP3	HCK_gene	activates
TNFAIP3	IL17RA_gene	activates
TNFAIP3	CMTM6_gene	activates
TNFAIP3	PROK2_gene	activates
TNFAIP3	MME_gene	activates
TNFAIP3	FBXL5_gene	activates
TNFAIP3	CD14_gene	activates
TNFAIP3	FAM65B_gene	activates
TNFAIP3	FGL2_gene	activates
TNFAIP3	MGAM_gene	activates
TNFAIP3	ZYX_gene	activates
TNFAIP3	DOCK8_gene	activates
TNFAIP3	TLN1_gene	activates
TNFAIP3	TLR4_gene	activates
TNFAIP3	RPL12_gene	activates
TNFAIP3	TLR8_gene	activates
TNFAIP3	LAMP2_gene	activates
TRIM22_gene	IFI6_gene	inhibits
TRIM22_gene	ADAR_gene	inhibits
TRIM22_gene	KIAA1551_gene	inhibits
TRIM22_gene	OAS3_gene	inhibits
TRIM22_gene	ITGAM_gene	inhibits
TRIM22_gene	RNF213_gene	inhibits
TRIM22_gene	FPR2_gene	inhibits
TRIM22_gene	LILRA2_gene	inhibits
TRIM22_gene	SIRPA_gene	inhibits
TRIM22_gene	KCNJ15_gene	inhibits
TRIM22_gene	IL17RA_gene	inhibits
TRIM22_gene	MYD88_gene	inhibits
TRIM22_gene	SHISA5_gene	inhibits
TRIM22_gene	TLR2_gene	inhibits
TRIM22_gene	TAP1_gene	inhibits
TRIM22_gene	TLR8_gene	inhibits
IRF1_gene	THEMIS2_gene	inhibits
IRF1_gene	GBP5_gene	inhibits
IRF1_gene	CFL1_gene	inhibits
IRF1_gene	SECTM1_gene	inhibits
IRF1_gene	FKBP8_gene	inhibits
IRF1_gene	FFAR2_gene	inhibits
IRF1_gene	CYTIP_gene	inhibits
IRF1_gene	HLA-F_gene	inhibits
IRF1_gene	TAGAP_gene	inhibits
IRF1_gene	PGK1_gene	inhibits
IRF1_gene	RPS13_gene	activates
IRF1_gene	RPS12_gene	activates
PTMA_gene	PTP4A2_gene	inhibits
PTMA_gene	RPL5_gene	inhibits
PTMA_gene	RPS24_gene	inhibits
PTMA_gene	RPL27A_gene	inhibits
PTMA_gene	RPL6_gene	inhibits
PTMA_gene	RPS29_gene	inhibits
PTMA_gene	RPL23_gene	inhibits
PTMA_gene	RPL27_gene	inhibits
PTMA_gene	RPS15_gene	inhibits
PTMA_gene	RPL18A_gene	inhibits
PTMA_gene	UBA52_gene	inhibits
PTMA_gene	RPS16_gene	inhibits
PTMA_gene	RPS19_gene	inhibits
PTMA_gene	GLTSCR2_gene	inhibits
PTMA_gene	RPL18_gene	inhibits
PTMA_gene	RPL28_gene	inhibits
PTMA_gene	RPS5_gene	inhibits
PTMA_gene	RPS7_gene	inhibits
PTMA_gene	RPL31_gene	inhibits
PTMA_gene	EEF1B2_gene	inhibits
PTMA_gene	RPL37A_gene	inhibits
PTMA_gene	RPL15_gene	inhibits
PTMA_gene	RPL29_gene	inhibits
PTMA_gene	RPL35A_gene	inhibits
PTMA_gene	RPL37_gene	inhibits
PTMA_gene	HLA-DPA1_gene	inhibits
PTMA_gene	RPS10_gene	inhibits
PTMA_gene	RPS12_gene	inhibits
PTMA_gene	RPL30_gene	inhibits
PTMA_gene	ANXA1_gene	inhibits
PTMA_gene	RPL12_gene	inhibits
PTMA_gene	SLC25A6_gene	inhibits
PTMA_gene	FLNA_gene	inhibits
PTMA_gene	TALDO1_gene	activates
PTMA_gene	ALOX5AP_gene	activates
PTMA_gene	ITGAX_gene	activates
PTMA_gene	MSL1_gene	activates
PTMA_gene	PRKAR1A_gene	activates
PTMA_gene	GMFG_gene	activates
PTMA_gene	C5AR1_gene	activates
PTMA_gene	FCGRT_gene	activates
PTMA_gene	MYADM_gene	activates
PTMA_gene	TAGAP_gene	activates
FOSB_gene	GBP5_gene	inhibits
FOSB_gene	HIST2H2BE_gene	inhibits
FOSB_gene	SRRM2_gene	inhibits
FOSB_gene	IL1RN_gene	inhibits
FOSB_gene	HLA-F_gene	inhibits
FOSB_gene	TAGAP_gene	inhibits
FOSB_gene	TRIB1_gene	inhibits
FOSB_gene	PTP4A2_gene	activates
FOSB_gene	FCGR3A_gene	activates
FOSB_gene	C15orf39_gene	activates
FOSB_gene	IL7R_gene	activates
FOSB_gene	CYBB_gene	activates
DDX5_gene	CAPZA1_gene	inhibits
DDX5_gene	NFAM1_gene	inhibits
DDX5_gene	RPS5_gene	activates
DDX5_gene	RPL37_gene	activates
DDX5_gene	RPL8_gene	activates
MXD1_gene	CAPZA1_gene	inhibits
MXD1_gene	ARPC5_gene	inhibits
MXD1_gene	CD46_gene	inhibits
MXD1_gene	PICALM_gene	inhibits
MXD1_gene	LRRK2_gene	inhibits
MXD1_gene	NUMB_gene	inhibits
MXD1_gene	PRKAR1A_gene	inhibits
MXD1_gene	NFAM1_gene	inhibits
MXD1_gene	CMTM6_gene	inhibits
MXD1_gene	FYB_gene	inhibits
MXD1_gene	FAM65B_gene	inhibits
MXD1_gene	FKBP5_gene	inhibits
MXD1_gene	CCND3_gene	inhibits
MXD1_gene	RPL11_gene	activates
MXD1_gene	RPS27_gene	activates
MXD1_gene	RPL6_gene	activates
MXD1_gene	RPL19_gene	activates
MXD1_gene	RPS5_gene	activates
MXD1_gene	RPS27A_gene	activates
MXD1_gene	RPL37A_gene	activates
MXD1_gene	RPL9_gene	activates
MXD1_gene	HLA-DRA_gene	activates
MXD1_gene	RPS18_gene	activates
MXD1_gene	RPS6_gene	activates
NFKBIA	LYST_gene	inhibits
NFKBIA	IFIT1_gene	inhibits
NFKBIA	CLEC4E_gene	inhibits
NFKBIA	MYL6_gene	inhibits
NFKBIA	RPL21_gene	inhibits
NFKBIA	H3F3B_gene	inhibits
NFKBIA	IER2_gene	inhibits
NFKBIA	DNAJB1_gene	inhibits
NFKBIA	FCGRT_gene	inhibits
NFKBIA	MYADM_gene	inhibits
NFKBIA	RPS9_gene	inhibits
NFKBIA	PLEK_gene	inhibits
NFKBIA	IL1RN_gene	inhibits
NFKBIA	RPL29_gene	inhibits
NFKBIA	TMEM154_gene	inhibits
NFKBIA	TAGAP_gene	inhibits
NFKBIA	HSPA5_gene	inhibits
NFKBIA	PADI2_gene	activates
NFKBIA	ECE1_gene	activates
NFKBIA	PTAFR_gene	activates
NFKBIA	CAPZA1_gene	activates
NFKBIA	MCL1_gene	activates
NFKBIA	CTSS_gene	activates
NFKBIA	S100A4_gene	activates
NFKBIA	CR1_gene	activates
NFKBIA	CD46_gene	activates
NFKBIA	IFITM2_gene	activates
NFKBIA	LRRK2_gene	activates
NFKBIA	TMBIM6_gene	activates
NFKBIA	RASSF3_gene	activates
NFKBIA	OSBPL8_gene	activates
NFKBIA	HCAR3_gene	activates
NFKBIA	IRS2_gene	activates
NFKBIA	GPR97_gene	activates
NFKBIA	RPS15_gene	activates
NFKBIA	GLTSCR2_gene	activates
NFKBIA	ACTR2_gene	activates
NFKBIA	MMP9_gene	activates
NFKBIA	ITGB2_gene	activates
NFKBIA	TLR2_gene	activates
NFKBIA	CD74_gene	activates
NFKBIA	CCND3_gene	activates
NFKBIA	MGAM_gene	activates
NFKBIA	ATP6V1B2_gene	activates
NFKBIA	SLC25A37_gene	activates
NFKBIZ_gene	LYST_gene	inhibits
NFKBIZ_gene	MYL6_gene	inhibits
NFKBIZ_gene	DNAJB1_gene	inhibits
NFKBIZ_gene	PLEK_gene	inhibits
NFKBIZ_gene	TAGAP_gene	inhibits
NFKBIZ_gene	HSPA5_gene	inhibits
NFKBIZ_gene	SELPLG_gene	activates
NFKBIZ_gene	IRS2_gene	activates
NFKBIZ_gene	CPPED1_gene	activates
NFKBIZ_gene	RPL27_gene	activates
NFKBIZ_gene	RPS15_gene	activates
NFKBIZ_gene	GLTSCR2_gene	activates
ETS1	RPS13_gene	inhibits
ETS1	RPS25_gene	inhibits
ETS1	HSPA8_gene	inhibits
ETS1	HNRNPA1_gene	inhibits
ETS1	NACA_gene	inhibits
ETS1	RPL23A_gene	inhibits
ETS1	EEF1B2_gene	inhibits
ETS1	RPL35A_gene	inhibits
ETS1	RPL34_gene	inhibits
ETS1	IL7R_gene	inhibits
ETS1	RPS23_gene	inhibits
ETS1	RPL10A_gene	inhibits
ETS1	RPL7_gene	inhibits
ETS1	RPL39_gene	inhibits
ETS1	GLUL_gene	activates
ETS1	CFL1_gene	activates
ETS1	APLP2_gene	activates
ETS1	MYL6_gene	activates
ETS1	ARHGAP9_gene	activates
ETS1	UBC_gene	activates
ETS1	ITGAX_gene	activates
ETS1	EIF1_gene	activates
ETS1	MIDN_gene	activates
ETS1	FTL_gene	activates
ETS1	MYADM_gene	activates
ETS1	PLEK_gene	activates
ETS1	GNAS_gene	activates
ETS1	CSRNP1_gene	activates
ETS1	LST1_gene	activates
ETS1	CLIC1_gene	activates
ETS1	TREM1_gene	activates
ETS1	PNRC1_gene	activates
ETS1	NINJ1_gene	activates
HCLS1_gene	MNDA_gene	shared
JUN	JUND	shared
FOS	JUND	shared
EEF1A1_gene	PTMA_gene	shared
EEF1A1_gene	JUND	shared
JUND	TNFAIP3	shared
JUND	PTMA_gene	shared
EEF1A1_gene	ETS1	shared
MNDA_gene	TRIM22_gene	shared
NFKBIA	NFKBIZ_gene	shared
BCL6_gene	SPI1_gene	shared
DAZAP2_gene	IRF1_gene	shared
DDX5_gene	MXD1_gene	shared
FOSB_gene	IRF1_gene	shared
