[ {
  "format_version" : "1.0",
  "generated_by" : "cytoscape-3.8.2",
  "target_cytoscapejs_version" : "~2.1",
  "title" : "disgnet_network",
  "style" : [ {
    "selector" : "node",
    "css" : {
      "width" : 50.0,
      "background-opacity" : 1.0,
      "border-width" : 2.0,
      "font-size" : 40,
      "border-opacity" : 1.0,
      "shape" : "ellipse",
      "color" : "rgb(0,0,0)",
      "font-family" : "SansSerif.plain",
      "font-weight" : "normal",
      "height" : 50.0,
      "text-opacity" : 1.0,
      "border-color" : "rgb(0,0,0)",
      "text-valign" : "center",
      "text-halign" : "center",
      "background-color" : "rgb(229,219,217)",
      "content" : "data(name)"
    }
  }, {
    "selector" : "node[group = 'CoRegNet and RA map gene/protein']",
    "css" : {
      "width" : 120.0,
      "height" : 120.0
    }
  }, {
    "selector" : "node[group = 'CoRegNet and RA map genes']",
    "css" : {
      "width" : null,
      "height" : null
    }
  }, {
    "selector" : "node[group = 'CoRegNet TF']",
    "css" : {
      "width" : 200.0,
      "height" : 200.0
    }
  }, {
    "selector" : "node[group = 'CoRegNet and RA map TF']",
    "css" : {
      "width" : 200.0,
      "height" : 200.0
    }
  }, {
    "selector" : "node[group = 'Init']",
    "css" : {
      "border-color" : "rgb(234,91,77)"
    }
  }, {
    "selector" : "node[color = 'Disgenet variant']",
    "css" : {
      "background-color" : "rgb(234,91,77)"
    }
  }, {
    "selector" : "node[group = 'CoRegNet TF']",
    "css" : {
      "shape" : "diamond"
    }
  }, {
    "selector" : "node[group = 'CoRegNet and RA map TF']",
    "css" : {
      "shape" : "diamond"
    }
  }, {
    "selector" : "node[group = 'Init']",
    "css" : {
      "border-width" : 50.0
    }
  }, {
    "selector" : "node[group = 'CoRegNet and RA map gene/protein']",
    "css" : {
      "border-width" : 0.0
    }
  }, {
    "selector" : "node[group = 'CoRegNet and RA map genes']",
    "css" : {
      "font-size" : 50
    }
  }, {
    "selector" : "node[group = 'CoRegNet TF']",
    "css" : {
      "font-size" : 90
    }
  }, {
    "selector" : "node[group = 'CoRegNet and RA map TF']",
    "css" : {
      "font-size" : 90
    }
  }, {
    "selector" : "node[ id = '2995' ]",
    "css" : {
      "text-valign" : "center"
    }
  }, {
    "selector" : "node[ id = '7531' ]",
    "css" : {
      "text-valign" : "center"
    }
  }, {
    "selector" : "node[ id = '7470' ]",
    "css" : {
      "text-valign" : "center"
    }
  }, {
    "selector" : "node[ id = '7664' ]",
    "css" : {
      "text-valign" : "center"
    }
  }, {
    "selector" : "node[ id = '7647' ]",
    "css" : {
      "text-valign" : "center"
    }
  }, {
    "selector" : "node[ id = '2995' ]",
    "css" : {
      "text-valign" : "center"
    }
  }, {
    "selector" : "node[ id = '2995' ]",
    "css" : {
      "text-valign" : "center"
    }
  }, {
    "selector" : "node[ id = '2995' ]",
    "css" : {
      "text-valign" : "center"
    }
  }, {
    "selector" : "node[ id = '2978' ]",
    "css" : {
      "text-valign" : "center"
    }
  }, {
    "selector" : "node[ id = '2979' ]",
    "css" : {
      "text-valign" : "center"
    }
  }, {
    "selector" : "node[ id = '2600' ]",
    "css" : {
      "text-valign" : "center"
    }
  }, {
    "selector" : "node[ id = '2601' ]",
    "css" : {
      "text-valign" : "center"
    }
  }, {
    "selector" : "node[ id = '3213' ]",
    "css" : {
      "text-valign" : "center"
    }
  }, {
    "selector" : "node[ id = '2995' ]",
    "css" : {
      "text-valign" : "center"
    }
  }, {
    "selector" : "node[ id = '3062' ]",
    "css" : {
      "text-valign" : "center"
    }
  }, {
    "selector" : "node[ id = '2618' ]",
    "css" : {
      "text-valign" : "center"
    }
  }, {
    "selector" : "node[ id = '2995' ]",
    "css" : {
      "text-valign" : "center"
    }
  }, {
    "selector" : "node[ id = '8324' ]",
    "css" : {
      "text-valign" : "center"
    }
  }, {
    "selector" : "node[ id = '8325' ]",
    "css" : {
      "text-valign" : "center"
    }
  }, {
    "selector" : "node[ id = '8685' ]",
    "css" : {
      "text-valign" : "center"
    }
  }, {
    "selector" : "node[ id = '8241' ]",
    "css" : {
      "text-valign" : "center"
    }
  }, {
    "selector" : "node[ id = '8308' ]",
    "css" : {
      "text-valign" : "center"
    }
  }, {
    "selector" : "node[ id = '8090' ]",
    "css" : {
      "text-valign" : "center"
    }
  }, {
    "selector" : "node[ id = '8702' ]",
    "css" : {
      "text-valign" : "center"
    }
  }, {
    "selector" : "node[ id = '8703' ]",
    "css" : {
      "text-valign" : "center"
    }
  }, {
    "selector" : "node[ id = '8324' ]",
    "css" : {
      "text-valign" : "center"
    }
  }, {
    "selector" : "node[ id = '8325' ]",
    "css" : {
      "text-valign" : "center"
    }
  }, {
    "selector" : "node[ id = '8685' ]",
    "css" : {
      "text-valign" : "center"
    }
  }, {
    "selector" : "node[ id = '8241' ]",
    "css" : {
      "text-valign" : "center"
    }
  }, {
    "selector" : "node[ id = '8308' ]",
    "css" : {
      "text-valign" : "center"
    }
  }, {
    "selector" : "node[ id = '8090' ]",
    "css" : {
      "text-valign" : "center"
    }
  }, {
    "selector" : "node[ id = '8702' ]",
    "css" : {
      "text-valign" : "center"
    }
  }, {
    "selector" : "node[ id = '8703' ]",
    "css" : {
      "text-valign" : "center"
    }
  }, {
    "selector" : "node[ id = '2995' ]",
    "css" : {
      "text-valign" : "center"
    }
  }, {
    "selector" : "node[ id = '8324' ]",
    "css" : {
      "text-valign" : "center"
    }
  }, {
    "selector" : "node[ id = '8325' ]",
    "css" : {
      "text-valign" : "center"
    }
  }, {
    "selector" : "node[ id = '8685' ]",
    "css" : {
      "text-valign" : "center"
    }
  }, {
    "selector" : "node[ id = '8241' ]",
    "css" : {
      "text-valign" : "center"
    }
  }, {
    "selector" : "node[ id = '8308' ]",
    "css" : {
      "text-valign" : "center"
    }
  }, {
    "selector" : "node[ id = '8090' ]",
    "css" : {
      "text-valign" : "center"
    }
  }, {
    "selector" : "node[ id = '8702' ]",
    "css" : {
      "text-valign" : "center"
    }
  }, {
    "selector" : "node[ id = '8703' ]",
    "css" : {
      "text-valign" : "center"
    }
  }, {
    "selector" : "node[ id = '2995' ]",
    "css" : {
      "text-valign" : "center"
    }
  }, {
    "selector" : "node[ id = '8324' ]",
    "css" : {
      "text-valign" : "center"
    }
  }, {
    "selector" : "node[ id = '8325' ]",
    "css" : {
      "text-valign" : "center"
    }
  }, {
    "selector" : "node[ id = '8685' ]",
    "css" : {
      "text-valign" : "center"
    }
  }, {
    "selector" : "node[ id = '8241' ]",
    "css" : {
      "text-valign" : "center"
    }
  }, {
    "selector" : "node[ id = '8308' ]",
    "css" : {
      "text-valign" : "center"
    }
  }, {
    "selector" : "node[ id = '8090' ]",
    "css" : {
      "text-valign" : "center"
    }
  }, {
    "selector" : "node[ id = '8702' ]",
    "css" : {
      "text-valign" : "center"
    }
  }, {
    "selector" : "node[ id = '8703' ]",
    "css" : {
      "text-valign" : "center"
    }
  }, {
    "selector" : "node:selected",
    "css" : {
      "background-color" : "rgb(255,255,0)"
    }
  }, {
    "selector" : "edge",
    "css" : {
      "curve-style": "bezier"
    }
  }, {
    "selector" : "edge[interaction = 'shared']",
    "css" : {
      "target-arrow-shape" : "none"
    }
  }, {
    "selector" : "edge[interaction = 'interacts with']",
    "css" : {
      "target-arrow-shape" : "none"
    }
  }, {
    "selector" : "edge[interaction = 'inhibits']",
    "css" : {
      "target-arrow-shape" : "tee"
    }
  }, {
    "selector" : "edge[interaction = 'activates']",
    "css" : {
      "target-arrow-shape" : "triangle"
    }
  }, {
    "selector" : "edge[interaction = 'shared']",
    "css" : {
      "width" : 10.0
    }
  }, {
    "selector" : "edge[interaction = 'interacts with']",
    "css" : {
      "width" : 10.0
    }
  }, {
    "selector" : "edge[interaction = 'inhibits']",
    "css" : {
      "width" : 5.0
    }
  }, {
    "selector" : "edge[interaction = 'activates']",
    "css" : {
      "width" : 5.0
    }
  }, {
    "selector" : "edge[interaction = 'shared']",
    "css" : {
      "opacity" : 1.0
    }
  }, {
    "selector" : "edge[interaction = 'interacts with']",
    "css" : {
      "opacity" : 1.0
    }
  }, {
    "selector" : "edge[interaction = 'inhibits']",
    "css" : {
      "opacity" : 0.19607843137254902
    }
  }, {
    "selector" : "edge[interaction = 'activates']",
    "css" : {
      "opacity" : 0.19607843137254902
    }
  }, {
    "selector" : "edge[interaction = 'shared']",
    "css" : {
      "target-arrow-color" : "rgb(255,0,255)"
    }
  }, {
    "selector" : "edge[interaction = 'inhibits']",
    "css" : {
      "target-arrow-color" : "rgb(255,0,0)"
    }
  }, {
    "selector" : "edge[interaction = 'activates']",
    "css" : {
      "target-arrow-color" : "rgb(0,0,0)"
    }
  }, {
    "selector" : "edge[interaction = 'shared']",
    "css" : {
      "line-color" : "rgb(31,120,180)"
    }
  }, {
    "selector" : "edge[interaction = 'interacts with']",
    "css" : {
      "line-color" : "rgb(31,120,180)"
    }
  }, {
    "selector" : "edge[interaction = 'inhibits']",
    "css" : {
      "line-color" : "rgb(255,0,0)",
      "width" : 8,
      "arrow-scale": 1.3
    }
  }, {
    "selector" : "edge[interaction = 'activates']",
    "css" : {
      "line-color" : "rgb(0,0,0)",
      "width" : 8,
      "arrow-scale": 1.3
    }
  }, {
    "selector" : "edge:selected",
    "css" : {
      "line-color" : "rgb(255,0,0)"
    }
  } ]
} ]
