"group","id","name","selected","shared name"
"RA map protein","NECTIN1","NECTIN1","false","NECTIN1"
"RA map protein","NECTIN3","NECTIN3","false","NECTIN3"
"RA map protein","MAP4","MAP4","false","MAP4"
"RA map protein","MAP3","MAP3","false","MAP3"
"RA map protein","MAP3K2","MAP3K2","false","MAP3K2"
"RA map protein","PI5-P2","PI5-P2","false","PI5-P2"
"RA map protein","PI4","PI4","false","PI4"
"RA map protein","PI5-P3","PI5-P3","false","PI5-P3"
"RA map protein","PI3","PI3","false","PI3"
"RA map protein","RANK","RANK","false","RANK"
"RA map protein","ITGAL","ITGAL","false","ITGAL"
"RA map protein","ICAM","ICAM","false","ICAM"
"RA map protein","IFNA1","IFNA1","false","IFNA1"
"RA map protein","IFNAR2","IFNAR2","false","IFNAR2"
"RA map protein","IFNAR1","IFNAR1","false","IFNAR1"
"RA map protein","RELA","RELA","false","RELA"
"RA map protein","NFKB1","NFKB1","false","NFKB1"
"RA map protein","IKBA","IKBA","false","IKBA"
"RA map protein","IL6ST","IL6ST","false","IL6ST"
"RA map protein","NFKN","NFKN","false","NFKN"
"RA map protein","CXCR6","CXCR6","false","CXCR6"
"RA map protein","CD72","CD72","false","CD72"
"RA map protein","ITGAV","ITGAV","false","ITGAV"
"RA map protein","PDGFRA","PDGFRA","false","PDGFRA"
"RA map protein","IGF1R","IGF1R","false","IGF1R"
"RA map protein","IKBKE","IKBKE","false","IKBKE"
"RA map protein","TBK1","TBK1","false","TBK1"
"RA map protein","TGFBR1","TGFBR1","false","TGFBR1"
"RA map protein","LRP6","LRP6","false","LRP6"
"RA map protein","LRP5","LRP5","false","LRP5"
"RA map protein","LRP1","LRP1","false","LRP1"
"RA map protein","WNT","WNT","false","WNT"
"RA map protein","FRIZZLED","FRIZZLED","false","FRIZZLED"
"RA map protein","IL18R","IL18R","false","IL18R"
"RA map protein","MICB","MICB","false","MICB"
"RA map protein","KLRK1","KLRK1","false","KLRK1"
"RA map protein","TRAF5","TRAF5","false","TRAF5"
"RA map protein","TAK1","TAK1","false","TAK1"
"RA map protein","TAB2","TAB2","false","TAB2"
"RA map protein","TAB1","TAB1","false","TAB1"
"RA map protein","CD3E","CD3E","false","CD3E"
"RA map protein","TNFRSFB","TNFRSFB","false","TNFRSFB"
"RA map protein","TNFRSF1A","TNFRSF1A","false","TNFRSF1A"
"RA map protein","SHP2","SHP2","false","SHP2"
"RA map protein","IRAK4","IRAK4","false","IRAK4"
"RA map protein","IRAK1","IRAK1","false","IRAK1"
"RA map protein","EGFR","EGFR","false","EGFR"
"RA map protein","RAC2","RAC2","false","RAC2"
"RA map protein","RAC1","RAC1","false","RAC1"
"RA map protein","NCF","NCF","false","NCF"
"RA map protein","FGFR1","FGFR1","false","FGFR1"
"RA map protein","TIRAP","TIRAP","false","TIRAP"
"RA map protein","OSCAR","OSCAR","false","OSCAR"
"RA map protein","H2O2","H2O2","false","H2O2"
"RA map protein","PP2A","PP2A","false","PP2A"
"RA map protein","ILK","ILK","false","ILK"
"RA map protein","SARM1","SARM1","false","SARM1"
"RA map protein","DVL1","DVL1","false","DVL1"
"RA map protein","CTNND1","CTNND1","false","CTNND1"
"RA map protein","PLXNB1","PLXNB1","false","PLXNB1"
"RA map protein","TICAM1","TICAM1","false","TICAM1"
"RA map protein","LCK","LCK","false","LCK"
"RA map protein","GNAI3","GNAI3","false","GNAI3"
"RA map protein","GNB1","GNB1","false","GNB1"
"RA map protein","activedH2O2","activedH2O2","false","activedH2O2"
"RA map protein","GAB2","GAB2","false","GAB2"
"RA map protein","cAMP","cAMP","false","cAMP"
"RA map protein","CD19","CD19","false","CD19"
"RA map protein","LCP2","LCP2","false","LCP2"
"RA map protein","ITAM","ITAM","false","ITAM"
"RA map protein","IFNB1","IFNB1","false","IFNB1"
"RA map protein","RAP1B","RAP1B","false","RAP1B"
"RA map protein","YWHAQ","YWHAQ","false","YWHAQ"
"RA map protein","NFKB1/MAP3K8","NFKB1/MAP3K8","false","NFKB1/MAP3K8"
"RA map protein","STAT3","STAT3","false","STAT3"
"RA map protein","MAP2K7","MAP2K7","false","MAP2K7"
"RA map protein","NECTIN3/PTPRC/NECTIN1","NECTIN3/PTPRC/NECTIN1","false","NECTIN3/PTPRC/NECTIN1"
"RA map protein","JAK3","JAK3","false","JAK3"
"RA map protein","PRKCD","PRKCD","false","PRKCD"
"RA map protein","MAP3K8","MAP3K8","false","MAP3K8"
"RA map protein","RAF1","RAF1","false","RAF1"
"RA map protein","DAXX","DAXX","false","DAXX"
"RA map protein","IRF7","IRF7","false","IRF7"
"RA map protein","SYK","SYK","false","SYK"
"RA map protein","PLCG1","PLCG1","false","PLCG1"
"RA map protein","PDE3A","PDE3A","false","PDE3A"
"RA map protein","MAP3K2/MAP3/MAP4","MAP3K2/MAP3/MAP4","false","MAP3K2/MAP3/MAP4"
"RA map protein","MAP3K5","MAP3K5","false","MAP3K5"
"RA map protein","SRC","SRC","false","SRC"
"RA map protein","NRAS","NRAS","false","NRAS"
"RA map protein","BRAF","BRAF","false","BRAF"
"RA map protein","ZAP70","ZAP70","false","ZAP70"
"RA map protein","ZC3H12A","ZC3H12A","false","ZC3H12A"
"RA map protein","MAP3K1","MAP3K1","false","MAP3K1"
"RA map protein","MAP2K4","MAP2K4","false","MAP2K4"
"RA map protein","SOS1","SOS1","false","SOS1"
"RA map protein","RASGRP3","RASGRP3","false","RASGRP3"
"RA map protein","TAB1/TAB2/TRAF6","TAB1/TAB2/TRAF6","false","TAB1/TAB2/TRAF6"
"RA map protein","MAPK9","MAPK9","false","MAPK9"
"RA map protein","MAPK3","MAPK3","false","MAPK3"
"RA map protein","SRF","SRF","false","SRF"
"RA map protein","PTK2B","PTK2B","false","PTK2B"
"RA map protein","COMP","COMP","false","COMP"
"RA map protein","TICAM2","TICAM2","false","TICAM2"
"RA map protein","NRF1","NRF1","false","NRF1"
"RA map protein","PIK3R5","PIK3R5","false","PIK3R5"
"RA map protein","PI4/PI5-P2","PI4/PI5-P2","false","PI4/PI5-P2"
"RA map protein","PI3/PI4/PI5-P3","PI3/PI4/PI5-P3","false","PI3/PI4/PI5-P3"
"RA map protein","ARHGEF2","ARHGEF2","false","ARHGEF2"
"RA map protein","PRKCH","PRKCH","false","PRKCH"
"RA map protein","ARHGEF1","ARHGEF1","false","ARHGEF1"
"RA map protein","CD28","CD28","false","CD28"
"RA map protein","SHC2","SHC2","false","SHC2"
"RA map protein","TYK2","TYK2","false","TYK2"
"RA map protein","MAP2K3","MAP2K3","false","MAP2K3"
"RA map protein","MAP2K6","MAP2K6","false","MAP2K6"
"RA map protein","MAPK14","MAPK14","false","MAPK14"
"RA map protein","RAPGEF1","RAPGEF1","false","RAPGEF1"
"RA map protein","cGAS","cGAS","false","cGAS"
"RA map protein","MAP2K2","MAP2K2","false","MAP2K2"
"RA map protein","MAP2K1","MAP2K1","false","MAP2K1"
"RA map protein","DUSP4","DUSP4","false","DUSP4"
"RA map protein","MIR650","MIR650","false","MIR650"
"RA map protein","LEFTY2","LEFTY2","false","LEFTY2"
"RA map protein","LTBP1","LTBP1","false","LTBP1"
"RA map protein","ARHGAP35","ARHGAP35","false","ARHGAP35"
"RA map protein","activeAMP","activeAMP","false","activeAMP"
"RA map protein","PRKACG","PRKACG","false","PRKACG"
"RA map protein","TXK","TXK","false","TXK"
"RA map protein","VAV1/VAV2","VAV1/VAV2","false","VAV1/VAV2"
"RA map protein","MAPK8","MAPK8","false","MAPK8"
"RA map protein","MAPK1","MAPK1","false","MAPK1"
"RA map protein","GAB1","GAB1","false","GAB1"
"RA map protein","CAMK2A","CAMK2A","false","CAMK2A"
"RA map protein","JAK1","JAK1","false","JAK1"
"RA map protein","CSK","CSK","false","CSK"
"RA map protein","TRAF2","TRAF2","false","TRAF2"
"RA map protein","IL17A","IL17A","false","IL17A"
"RA map protein","IL17A/IL17RA","IL17A/IL17RA","false","IL17A/IL17RA"
"RA map protein","RANKL","RANKL","false","RANKL"
"RA map protein","RANK/RANKL","RANK/RANKL","false","RANK/RANKL"
"RA map protein","ICAM/ITGB2/ITGAL","ICAM/ITGB2/ITGAL","false","ICAM/ITGB2/ITGAL"
"RA map protein","IFNA1/IFNB1","IFNA1/IFNB1","false","IFNA1/IFNB1"
"RA map protein","IFNA1/IFNB1/IFNAR1/IFNAR2","IFNA1/IFNB1/IFNAR1/IFNAR2","false","IFNA1/IFNB1/IFNAR1/IFNAR2"
"RA map protein","WNT5A","WNT5A","false","WNT5A"
"RA map protein","WNT/FRIZZLED","WNT/FRIZZLED","false","WNT/FRIZZLED"
"RA map protein","LBP","LBP","false","LBP"
"RA map protein","COMMD1","COMMD1","false","COMMD1"
"RA map protein","IKBA/NFKB1/RELA","IKBA/NFKB1/RELA","false","IKBA/NFKB1/RELA"
"RA map protein","IL6/IL6ST","IL6/IL6ST","false","IL6/IL6ST"
"RA map protein","NFKB","NFKB","false","NFKB"
"RA map protein","NFKB/NFKN","NFKB/NFKN","false","NFKB/NFKN"
"RA map protein","TRADD","TRADD","false","TRADD"
"RA map protein","CXCL12","CXCL12","false","CXCL12"
"RA map protein","CXCL12/CXCR4","CXCL12/CXCR4","false","CXCL12/CXCR4"
"RA map protein","CXCL16","CXCL16","false","CXCL16"
"RA map protein","CXCL16/CXCR6","CXCL16/CXCR6","false","CXCL16/CXCR6"
"RA map protein","PTPN6","PTPN6","false","PTPN6"
"RA map protein","PTPN6/CD72","PTPN6/CD72","false","PTPN6/CD72"
"RA map protein","FN1","FN1","false","FN1"
"RA map protein","FN1/ITGAV","FN1/ITGAV","false","FN1/ITGAV"
"RA map protein","PDGFA","PDGFA","false","PDGFA"
"RA map protein","PDGFA/PDGFRA","PDGFA/PDGFRA","false","PDGFA/PDGFRA"
"RA map protein","IGF1","IGF1","false","IGF1"
"RA map protein","IGF1/IGF1R","IGF1/IGF1R","false","IGF1/IGF1R"
"RA map protein","TRAF3","TRAF3","false","TRAF3"
"RA map protein","TBK1/IKBKE","TBK1/IKBKE","false","TBK1/IKBKE"
"RA map protein","TGFB1","TGFB1","false","TGFB1"
"RA map protein","TGFB1/TGFBR1","TGFB1/TGFBR1","false","TGFB1/TGFBR1"
"RA map protein","SFRP5","SFRP5","false","SFRP5"
"RA map protein","FRIZZLED/WNT/LRP1/LRP5/LRP6","FRIZZLED/WNT/LRP1/LRP5/LRP6","false","FRIZZLED/WNT/LRP1/LRP5/LRP6"
"RA map protein","RIPK1","RIPK1","false","RIPK1"
"RA map protein","LBP/CD14","LBP/CD14","false","LBP/CD14"
"RA map protein","LY96","LY96","false","LY96"
"RA map protein","IL18","IL18","false","IL18"
"RA map protein","IL18/IL18R","IL18/IL18R","false","IL18/IL18R"
"RA map protein","HCST","HCST","false","HCST"
"RA map protein","KLRK1/HCST/MICB","KLRK1/HCST/MICB","false","KLRK1/HCST/MICB"
"RA map protein","TRAF6","TRAF6","false","TRAF6"
"RA map protein","TRAF2/TRAF5","TRAF2/TRAF5","false","TRAF2/TRAF5"
"RA map protein","MAP4K1","MAP4K1","false","MAP4K1"
"RA map protein","RIPK1/TRAF6","RIPK1/TRAF6","false","RIPK1/TRAF6"
"RA map protein","TRAF3IP2","TRAF3IP2","false","TRAF3IP2"
"RA map protein","MAP3K7","MAP3K7","false","MAP3K7"
"RA map protein","PRRT2","PRRT2","false","PRRT2"
"RA map protein","MAP4K4","MAP4K4","false","MAP4K4"
"RA map protein","AKT2","AKT2","false","AKT2"
"RA map protein","MAP3K14","MAP3K14","false","MAP3K14"
"RA map protein","TAB1/TAB2/TAK1","TAB1/TAB2/TAK1","false","TAB1/TAB2/TAK1"
"RA map protein","IKK","IKK","false","IKK"
"RA map protein","SH2D1A","SH2D1A","false","SH2D1A"
"RA map protein","FYN","FYN","false","FYN"
"RA map protein","FYN/CD3E","FYN/CD3E","false","FYN/CD3E"
"RA map protein","TNF","TNF","false","TNF"
"RA map protein","TNF/TNFRSF1A/TNFRSFB","TNF/TNFRSF1A/TNFRSFB","false","TNF/TNFRSF1A/TNFRSFB"
"RA map protein","GRB2","GRB2","false","GRB2"
"RA map protein","PTPN11","PTPN11","false","PTPN11"
"RA map protein","SHP2/GRB2","SHP2/GRB2","false","SHP2/GRB2"
"RA map protein","IRAK1/IRAK4","IRAK1/IRAK4","false","IRAK1/IRAK4"
"RA map protein","IL1B","IL1B","false","IL1B"
"RA map protein","EGF","EGF","false","EGF"
"RA map protein","EGF/EGFR","EGF/EGFR","false","EGF/EGFR"
"RA map protein","ca2+","ca2+","false","ca2+"
"RA map protein","RAC1/RAC2","RAC1/RAC2","false","RAC1/RAC2"
"RA map protein","NCF/CYBB/CYBA","NCF/CYBB/CYBA","false","NCF/CYBB/CYBA"
"RA map protein","IL1R1","IL1R1","false","IL1R1"
"RA map protein","IL1A","IL1A","false","IL1A"
"RA map protein","FGF1","FGF1","false","FGF1"
"RA map protein","FGF1/FGFR1","FGF1/FGFR1","false","FGF1/FGFR1"
"RA map protein","TICAM1/TICAM2","TICAM1/TICAM2","false","TICAM1/TICAM2"
"RA map protein","CRKL","CRKL","false","CRKL"
"RA map protein","DOCK2","DOCK2","false","DOCK2"
"RA map protein","DOCK2/CRKL","DOCK2/CRKL","false","DOCK2/CRKL"
"RA map protein","IL1B/IL1R1","IL1B/IL1R1","false","IL1B/IL1R1"
"RA map protein","IL1A/IL1R1","IL1A/IL1R1","false","IL1A/IL1R1"
"RA map protein","TLR5","TLR5","false","TLR5"
"RA map protein","LY96/TLR2/TLR4","LY96/TLR2/TLR4","false","LY96/TLR2/TLR4"
"RA map protein","TIRAP/MYD88","TIRAP/MYD88","false","TIRAP/MYD88"
"RA map protein","IL6","IL6","false","IL6"
"RA map protein","IL6/IL6R","IL6/IL6R","false","IL6/IL6R"
"CoRegNet and RA map gene/protein","CYBA","CYBA","false","CYBA"
"CoRegNet and RA map gene/protein","CYBB","CYBB","false","CYBB"
"CoRegNet and RA map gene/protein","TLR4","TLR4","false","TLR4"
"CoRegNet and RA map gene/protein","CXCR4","CXCR4","false","CXCR4"
"CoRegNet and RA map gene/protein","SOCS3","SOCS3","false","SOCS3"
"CoRegNet and RA map gene/protein","ITGB2","ITGB2","false","ITGB2"
"CoRegNet and RA map gene/protein","TYROBP","TYROBP","false","TYROBP"
"CoRegNet and RA map gene/protein","ARHGDIB","ARHGDIB","false","ARHGDIB"
"CoRegNet and RA map gene/protein","IL17RA","IL17RA","false","IL17RA"
"CoRegNet and RA map gene/protein","CD14","CD14","false","CD14"
"CoRegNet and RA map gene/protein","TLR2","TLR2","false","TLR2"
"CoRegNet and RA map gene/protein","MYD88","MYD88","false","MYD88"
"CoRegNet and RA map gene/protein","PTPRC","PTPRC","false","PTPRC"
"CoRegNet and RA map gene/protein","IL6R","IL6R","false","IL6R"
"CoRegNet and RA map gene/protein","RHOA","RHOA","false","RHOA"
"CoRegNet and RA map gene/protein","PTEN","PTEN","false","PTEN"
"CoRegNet gene","FGL2","FGL2","false","FGL2"
"CoRegNet gene","FAM65B","FAM65B","false","FAM65B"
"CoRegNet gene","GPR97","GPR97","false","GPR97"
"CoRegNet gene","IL4R","IL4R","false","IL4R"
"CoRegNet gene","PYGL","PYGL","false","PYGL"
"CoRegNet gene","MPEG1","MPEG1","false","MPEG1"
"CoRegNet gene","IL8","IL8","false","IL8"
"CoRegNet gene","IER2","IER2","false","IER2"
"CoRegNet gene","H3F3B","H3F3B","false","H3F3B"
"CoRegNet gene","HBA2","HBA2","false","HBA2"
"CoRegNet gene","CD69","CD69","false","CD69"
"CoRegNet gene","FTH1","FTH1","false","FTH1"
"CoRegNet gene","FLNA","FLNA","false","FLNA"
"CoRegNet gene","RPL39","RPL39","false","RPL39"
"CoRegNet gene","RPL12","RPL12","false","RPL12"
"CoRegNet gene","TLN1","TLN1","false","TLN1"
"CoRegNet gene","RPL7","RPL7","false","RPL7"
"CoRegNet gene","IGF2R","IGF2R","false","IGF2R"
"CoRegNet gene","HLA-DPA1","HLA-DPA1","false","HLA-DPA1"
"CoRegNet gene","PPP1R18","PPP1R18","false","PPP1R18"
"CoRegNet gene","IL7R","IL7R","false","IL7R"
"CoRegNet gene","NFAM1","NFAM1","false","NFAM1"
"CoRegNet gene","CYTH4","CYTH4","false","CYTH4"
"CoRegNet gene","CXCR1","CXCR1","false","CXCR1"
"CoRegNet gene","EEF1B2","EEF1B2","false","EEF1B2"
"CoRegNet gene","WIPF1","WIPF1","false","WIPF1"
"CoRegNet gene","RPL31","RPL31","false","RPL31"
"CoRegNet gene","GNLY","GNLY","false","GNLY"
"CoRegNet gene","RHOB","RHOB","false","RHOB"
"CoRegNet gene","FFAR2","FFAR2","false","FFAR2"
"CoRegNet gene","EMR2","EMR2","false","EMR2"
"CoRegNet gene","MYO1F","MYO1F","false","MYO1F"
"CoRegNet gene","ACTG1","ACTG1","false","ACTG1"
"CoRegNet gene","VMP1","VMP1","false","VMP1"
"CoRegNet gene","ARRB2","ARRB2","false","ARRB2"
"CoRegNet gene","RPL13","RPL13","false","RPL13"
"CoRegNet gene","XPO6","XPO6","false","XPO6"
"CoRegNet gene","MMP25","MMP25","false","MMP25"
"CoRegNet gene","RPLP1","RPLP1","false","RPLP1"
"CoRegNet gene","PLXNC1","PLXNC1","false","PLXNC1"
"CoRegNet gene","RPS26","RPS26","false","RPS26"
"CoRegNet gene","TUBA1A","TUBA1A","false","TUBA1A"
"CoRegNet gene","LRRK2","LRRK2","false","LRRK2"
"CoRegNet gene","HSPA8","HSPA8","false","HSPA8"
"CoRegNet gene","SORL1","SORL1","false","SORL1"
"CoRegNet gene","RPS13","RPS13","false","RPS13"
"CoRegNet gene","RGS2","RGS2","false","RGS2"
"CoRegNet gene","FAM129A","FAM129A","false","FAM129A"
"CoRegNet gene","FCGR3A","FCGR3A","false","FCGR3A"
"CoRegNet gene","FCGR2A","FCGR2A","false","FCGR2A"
"CoRegNet gene","TAGLN2","TAGLN2","false","TAGLN2"
"CoRegNet gene","S100A9","S100A9","false","S100A9"
"CoRegNet gene","TXNIP","TXNIP","false","TXNIP"
"CoRegNet gene","PTP4A2","PTP4A2","false","PTP4A2"
"CoRegNet gene","ALPL","ALPL","false","ALPL"
"CoRegNet gene","RPL10","RPL10","false","RPL10"
"CoRegNet gene","RPS4X","RPS4X","false","RPS4X"
"CoRegNet gene","SAT1","SAT1","false","SAT1"
"CoRegNet gene","FCN1","FCN1","false","FCN1"
"CoRegNet gene","HSPA5","HSPA5","false","HSPA5"
"CoRegNet gene","TRIB1","TRIB1","false","TRIB1"
"CoRegNet gene","RPL30","RPL30","false","RPL30"
"CoRegNet gene","NAMPT","NAMPT","false","NAMPT"
"CoRegNet gene","TAGAP","TAGAP","false","TAGAP"
"CoRegNet gene","RPS12","RPS12","false","RPS12"
"CoRegNet gene","PNRC1","PNRC1","false","PNRC1"
"CoRegNet gene","CCND3","CCND3","false","CCND3"
"CoRegNet gene","TREM1","TREM1","false","TREM1"
"CoRegNet gene","RPS10","RPS10","false","RPS10"
"CoRegNet gene","RPS18","RPS18","false","RPS18"
"CoRegNet gene","HLA-DPB1","HLA-DPB1","false","HLA-DPB1"
"CoRegNet gene","HLA-DRB1","HLA-DRB1","false","HLA-DRB1"
"CoRegNet gene","HLA-B","HLA-B","false","HLA-B"
"CoRegNet gene","HLA-A","HLA-A","false","HLA-A"
"CoRegNet gene","HLA-F","HLA-F","false","HLA-F"
"CoRegNet gene","RPS14","RPS14","false","RPS14"
"CoRegNet gene","CD74","CD74","false","CD74"
"CoRegNet gene","VCAN","VCAN","false","VCAN"
"CoRegNet gene","RPL37","RPL37","false","RPL37"
"CoRegNet gene","RPS3A","RPS3A","false","RPS3A"
"CoRegNet gene","RPL9","RPL9","false","RPL9"
"CoRegNet gene","S100P","S100P","false","S100P"
"CoRegNet gene","RPSA","RPSA","false","RPSA"
"CoRegNet gene","CSRNP1","CSRNP1","false","CSRNP1"
"CoRegNet gene","RPL15","RPL15","false","RPL15"
"CoRegNet gene","OSM","OSM","false","OSM"
"CoRegNet gene","GNAS","GNAS","false","GNAS"
"CoRegNet gene","IL1RN","IL1RN","false","IL1RN"
"CoRegNet gene","TMSB10","TMSB10","false","TMSB10"
"CoRegNet gene","RPS27A","RPS27A","false","RPS27A"
"CoRegNet gene","RPS7","RPS7","false","RPS7"
"CoRegNet gene","RPS5","RPS5","false","RPS5"
"CoRegNet gene","RPS9","RPS9","false","RPS9"
"CoRegNet gene","MYADM","MYADM","false","MYADM"
"CoRegNet gene","RPS11","RPS11","false","RPS11"
"CoRegNet gene","RPL13A","RPL13A","false","RPL13A"
"CoRegNet gene","FTL","FTL","false","FTL"
"CoRegNet gene","PPP1R15A","PPP1R15A","false","PPP1R15A"
"CoRegNet gene","GLTSCR2","GLTSCR2","false","GLTSCR2"
"CoRegNet gene","RPL18A","RPL18A","false","RPL18A"
"CoRegNet gene","RPS15","RPS15","false","RPS15"
"CoRegNet gene","MIDN","MIDN","false","MIDN"
"CoRegNet gene","RPL27","RPL27","false","RPL27"
"CoRegNet gene","EIF1","EIF1","false","EIF1"
"CoRegNet gene","RPL19","RPL19","false","RPL19"
"CoRegNet gene","CCL5","CCL5","false","CCL5"
"CoRegNet gene","COTL1","COTL1","false","COTL1"
"CoRegNet gene","RPS2","RPS2","false","RPS2"
"CoRegNet gene","TPT1","TPT1","false","TPT1"
"CoRegNet gene","UBC","UBC","false","UBC"
"CoRegNet gene","LYZ","LYZ","false","LYZ"
"CoRegNet gene","HNRNPA1","HNRNPA1","false","HNRNPA1"
"CoRegNet gene","GAPDH","GAPDH","false","GAPDH"
"CoRegNet gene","TMEM123","TMEM123","false","TMEM123"
"CoRegNet gene","AHNAK","AHNAK","false","AHNAK"
"CoRegNet gene","HBB","HBB","false","HBB"
"CoRegNet gene","IFIT1","IFIT1","false","IFIT1"
"CoRegNet gene","IFIT2","IFIT2","false","IFIT2"
"CoRegNet gene","VIM","VIM","false","VIM"
"CoRegNet gene","LYST","LYST","false","LYST"
"CoRegNet gene","G0S2","G0S2","false","G0S2"
"CoRegNet gene","PTGS2","PTGS2","false","PTGS2"
"CoRegNet gene","RPS27","RPS27","false","RPS27"
"CoRegNet gene","CDC42SE1","CDC42SE1","false","CDC42SE1"
"CoRegNet gene","MCL1","MCL1","false","MCL1"
"CoRegNet gene","HIST2H2BE","HIST2H2BE","false","HIST2H2BE"
"CoRegNet gene","ZDHHC18","ZDHHC18","false","ZDHHC18"
"CoRegNet gene","RPL11","RPL11","false","RPL11"
"CoRegNet gene","RPL3","RPL3","false","RPL3"
"CoRegNet gene","RPL41","RPL41","false","RPL41"
"CoRegNet gene","GBP5","GBP5","false","GBP5"
"CoRegNet gene","TMSB4X","TMSB4X","false","TMSB4X"
"CoRegNet gene","NINJ1","NINJ1","false","NINJ1"
"CoRegNet gene","YWHAZ","YWHAZ","false","YWHAZ"
"CoRegNet gene","TMEM66","TMEM66","false","TMEM66"
"CoRegNet gene","LST1","LST1","false","LST1"
"CoRegNet gene","HLA-E","HLA-E","false","HLA-E"
"CoRegNet gene","UBE2D3","UBE2D3","false","UBE2D3"
"CoRegNet gene","CCNI","CCNI","false","CCNI"
"CoRegNet gene","FBXL5","FBXL5","false","FBXL5"
"CoRegNet gene","GNAI2","GNAI2","false","GNAI2"
"CoRegNet gene","STK17B","STK17B","false","STK17B"
"CoRegNet gene","CYTIP","CYTIP","false","CYTIP"
"CoRegNet gene","PELI1","PELI1","false","PELI1"
"CoRegNet gene","CDC42EP3","CDC42EP3","false","CDC42EP3"
"CoRegNet gene","YPEL5","YPEL5","false","YPEL5"
"CoRegNet gene","FKBP8","FKBP8","false","FKBP8"
"CoRegNet gene","MSL1","MSL1","false","MSL1"
"CoRegNet gene","ITGAX","ITGAX","false","ITGAX"
"CoRegNet gene","C15orf39","C15orf39","false","C15orf39"
"CoRegNet gene","ITM2B","ITM2B","false","ITM2B"
"CoRegNet gene","MYL6","MYL6","false","MYL6"
"CoRegNet gene","PLBD1","PLBD1","false","PLBD1"
"CoRegNet gene","APLP2","APLP2","false","APLP2"
"CoRegNet gene","CFL1","CFL1","false","CFL1"
"CoRegNet gene","ADAM8","ADAM8","false","ADAM8"
"CoRegNet gene","PSAP","PSAP","false","PSAP"
"CoRegNet gene","CHI3L1","CHI3L1","false","CHI3L1"
"CoRegNet gene","GLUL","GLUL","false","GLUL"
"CoRegNet gene","S100A6","S100A6","false","S100A6"
"CoRegNet gene","S100A8","S100A8","false","S100A8"
"CoRegNet gene","CAP1","CAP1","false","CAP1"
"CoRegNet gene","SH3BGRL3","SH3BGRL3","false","SH3BGRL3"
"CoRegNet gene","TNFRSF1B","TNFRSF1B","false","TNFRSF1B"
"CoRegNet gene","ANXA1","ANXA1","false","ANXA1"
"CoRegNet gene","RPS6","RPS6","false","RPS6"
"CoRegNet gene","PABPC1","PABPC1","false","PABPC1"
"CoRegNet gene","RPL32","RPL32","false","RPL32"
"CoRegNet gene","UBA52","UBA52","false","UBA52"
"CoRegNet gene","RPLP0","RPLP0","false","RPLP0"
"CoRegNet gene","RPS3","RPS3","false","RPS3"
"CoRegNet gene","RPS8","RPS8","false","RPS8"
"CoRegNet gene","LYN","LYN","false","LYN"
"CoRegNet gene","ZYX","ZYX","false","ZYX"
"CoRegNet gene","SOD2","SOD2","false","SOD2"
"CoRegNet gene","VNN2","VNN2","false","VNN2"
"CoRegNet gene","HLA-C","HLA-C","false","HLA-C"
"CoRegNet gene","MYH9","MYH9","false","MYH9"
"CoRegNet gene","DYSF","DYSF","false","DYSF"
"CoRegNet gene","PLEK","PLEK","false","PLEK"
"CoRegNet gene","MBOAT7","MBOAT7","false","MBOAT7"
"CoRegNet gene","VASP","VASP","false","VASP"
"CoRegNet gene","CNN2","CNN2","false","CNN2"
"CoRegNet gene","SECTM1","SECTM1","false","SECTM1"
"CoRegNet gene","CORO1A","CORO1A","false","CORO1A"
"CoRegNet gene","AQP9","AQP9","false","AQP9"
"CoRegNet gene","SERPINA1","SERPINA1","false","SERPINA1"
"CoRegNet gene","LRP10","LRP10","false","LRP10"
"CoRegNet gene","OSBPL8","OSBPL8","false","OSBPL8"
"CoRegNet gene","PICALM","PICALM","false","PICALM"
"CoRegNet gene","ARAP1","ARAP1","false","ARAP1"
"CoRegNet gene","RHOG","RHOG","false","RHOG"
"CoRegNet gene","CD46","CD46","false","CD46"
"CoRegNet gene","SELL","SELL","false","SELL"
"CoRegNet gene","S100A11","S100A11","false","S100A11"
"CoRegNet gene","CTSS","CTSS","false","CTSS"
"CoRegNet gene","CSF3R","CSF3R","false","CSF3R"
"CoRegNet gene","THEMIS2","THEMIS2","false","THEMIS2"
"CoRegNet gene","ECE1","ECE1","false","ECE1"
"CoRegNet gene","RPL23","RPL23","false","RPL23"
"CoRegNet gene","RPL21","RPL21","false","RPL21"
"CoRegNet gene","DDX3X","DDX3X","false","DDX3X"
"CoRegNet gene","DOCK8","DOCK8","false","DOCK8"
"CoRegNet gene","SLC25A37","SLC25A37","false","SLC25A37"
"CoRegNet gene","HCK","HCK","false","HCK"
"CoRegNet gene","ACTR3","ACTR3","false","ACTR3"
"CoRegNet gene","FLOT2","FLOT2","false","FLOT2"
"CoRegNet gene","ACTN1","ACTN1","false","ACTN1"
"CoRegNet gene","PTAFR","PTAFR","false","PTAFR"
"CoRegNet gene","PIK3CD","PIK3CD","false","PIK3CD"
"CoRegNet gene","PGK1","PGK1","false","PGK1"
"CoRegNet gene","RPL7A","RPL7A","false","RPL7A"
"CoRegNet gene","RPL8","RPL8","false","RPL8"
"CoRegNet gene","RPS20","RPS20","false","RPS20"
"CoRegNet gene","HLA-DRA","HLA-DRA","false","HLA-DRA"
"CoRegNet gene","GNB2L1","GNB2L1","false","GNB2L1"
"CoRegNet gene","DUSP1","DUSP1","false","DUSP1"
"CoRegNet gene","RPL29","RPL29","false","RPL29"
"CoRegNet gene","RPL28","RPL28","false","RPL28"
"CoRegNet gene","NKG7","NKG7","false","NKG7"
"CoRegNet gene","RPS19","RPS19","false","RPS19"
"CoRegNet gene","RPS16","RPS16","false","RPS16"
"CoRegNet gene","DNAJB1","DNAJB1","false","DNAJB1"
"CoRegNet gene","CDKN2D","CDKN2D","false","CDKN2D"
"CoRegNet gene","RPL23A","RPL23A","false","RPL23A"
"CoRegNet gene","SRRM2","SRRM2","false","SRRM2"
"CoRegNet gene","RPS29","RPS29","false","RPS29"
"CoRegNet gene","DUSP6","DUSP6","false","DUSP6"
"CoRegNet gene","RPL27A","RPL27A","false","RPL27A"
"CoRegNet gene","IFIT3","IFIT3","false","IFIT3"
"CoRegNet gene","RPS24","RPS24","false","RPS24"
"CoRegNet gene","PPP1R15B","PPP1R15B","false","PPP1R15B"
"CoRegNet gene","RPL5","RPL5","false","RPL5"
"CoRegNet gene","GBP2","GBP2","false","GBP2"
"CoRegNet gene","TLR8","TLR8","false","TLR8"
"CoRegNet gene","TNFRSF10C","TNFRSF10C","false","TNFRSF10C"
"CoRegNet gene","ATP6V1B2","ATP6V1B2","false","ATP6V1B2"
"CoRegNet gene","MGAM","MGAM","false","MGAM"
"CoRegNet gene","ACTB","ACTB","false","ACTB"
"CoRegNet gene","FKBP5","FKBP5","false","FKBP5"
"CoRegNet gene","TAP1","TAP1","false","TAP1"
"CoRegNet gene","ACSL1","ACSL1","false","ACSL1"
"CoRegNet gene","TMEM154","TMEM154","false","TMEM154"
"CoRegNet gene","MME","MME","false","MME"
"CoRegNet gene","PROK2","PROK2","false","PROK2"
"CoRegNet gene","SHISA5","SHISA5","false","SHISA5"
"CoRegNet gene","CSF2RB","CSF2RB","false","CSF2RB"
"CoRegNet gene","KCNJ15","KCNJ15","false","KCNJ15"
"CoRegNet gene","SIRPA","SIRPA","false","SIRPA"
"CoRegNet gene","CXCR2","CXCR2","false","CXCR2"
"CoRegNet gene","GCA","GCA","false","GCA"
"CoRegNet gene","RNF149","RNF149","false","RNF149"
"CoRegNet gene","ACTR2","ACTR2","false","ACTR2"
"CoRegNet gene","LILRA2","LILRA2","false","LILRA2"
"CoRegNet gene","FPR2","FPR2","false","FPR2"
"CoRegNet gene","C5AR1","C5AR1","false","C5AR1"
"CoRegNet gene","SMCHD1","SMCHD1","false","SMCHD1"
"CoRegNet gene","RNF213","RNF213","false","RNF213"
"CoRegNet gene","PRKAR1A","PRKAR1A","false","PRKAR1A"
"CoRegNet gene","GRN","GRN","false","GRN"
"CoRegNet gene","ITGAM","ITGAM","false","ITGAM"
"CoRegNet gene","LITAF","LITAF","false","LITAF"
"CoRegNet gene","MSRB1","MSRB1","false","MSRB1"
"CoRegNet gene","IQGAP1","IQGAP1","false","IQGAP1"
"CoRegNet gene","BCL2A1","BCL2A1","false","BCL2A1"
"CoRegNet gene","IRS2","IRS2","false","IRS2"
"CoRegNet gene","HCAR3","HCAR3","false","HCAR3"
"CoRegNet gene","PXN","PXN","false","PXN"
"CoRegNet gene","OAS3","OAS3","false","OAS3"
"CoRegNet gene","TMBIM6","TMBIM6","false","TMBIM6"
"CoRegNet gene","KIAA1551","KIAA1551","false","KIAA1551"
"CoRegNet gene","CAT","CAT","false","CAT"
"CoRegNet gene","IFITM3","IFITM3","false","IFITM3"
"CoRegNet gene","SRGN","SRGN","false","SRGN"
"CoRegNet gene","ALOX5","ALOX5","false","ALOX5"
"CoRegNet gene","CR1","CR1","false","CR1"
"CoRegNet gene","ARPC5","ARPC5","false","ARPC5"
"CoRegNet gene","NCF2","NCF2","false","NCF2"
"CoRegNet gene","FCGR3B","FCGR3B","false","FCGR3B"
"CoRegNet gene","ADAR","ADAR","false","ADAR"
"CoRegNet gene","TPM3","TPM3","false","TPM3"
"CoRegNet gene","S100A12","S100A12","false","S100A12"
"CoRegNet gene","CAPZA1","CAPZA1","false","CAPZA1"
"CoRegNet gene","IFI6","IFI6","false","IFI6"
"CoRegNet gene","PADI2","PADI2","false","PADI2"
"CoRegNet gene","SLC25A6","SLC25A6","false","SLC25A6"
"CoRegNet gene","RPL10A","RPL10A","false","RPL10A"
"CoRegNet gene","RPS23","RPS23","false","RPS23"
"CoRegNet gene","RPL34","RPL34","false","RPL34"
"CoRegNet gene","RPL35A","RPL35A","false","RPL35A"
"CoRegNet gene","RPL37A","RPL37A","false","RPL37A"
"CoRegNet gene","RPL18","RPL18","false","RPL18"
"CoRegNet gene","EEF2","EEF2","false","EEF2"
"CoRegNet gene","RPL4","RPL4","false","RPL4"
"CoRegNet gene","RPL6","RPL6","false","RPL6"
"CoRegNet gene","NACA","NACA","false","NACA"
"CoRegNet gene","RPS25","RPS25","false","RPS25"
"CoRegNet gene","RPLP2","RPLP2","false","RPLP2"
"CoRegNet gene","LAMP2","LAMP2","false","LAMP2"
"CoRegNet gene","MSN","MSN","false","MSN"
"CoRegNet gene","MEGF9","MEGF9","false","MEGF9"
"CoRegNet gene","SDCBP","SDCBP","false","SDCBP"
"CoRegNet gene","GNB2","GNB2","false","GNB2"
"CoRegNet gene","GPSM3","GPSM3","false","GPSM3"
"CoRegNet gene","CLIC1","CLIC1","false","CLIC1"
"CoRegNet gene","FYB","FYB","false","FYB"
"CoRegNet gene","BASP1","BASP1","false","BASP1"
"CoRegNet gene","TKT","TKT","false","TKT"
"CoRegNet gene","CMTM6","CMTM6","false","CMTM6"
"CoRegNet gene","SLC6A6","SLC6A6","false","SLC6A6"
"CoRegNet gene","NCF4","NCF4","false","NCF4"
"CoRegNet gene","PREX1","PREX1","false","PREX1"
"CoRegNet gene","MMP9","MMP9","false","MMP9"
"CoRegNet gene","RASSF2","RASSF2","false","RASSF2"
"CoRegNet gene","ARPC2","ARPC2","false","ARPC2"
"CoRegNet gene","PCBP1","PCBP1","false","PCBP1"
"CoRegNet gene","FPR1","FPR1","false","FPR1"
"CoRegNet gene","FCGRT","FCGRT","false","FCGRT"
"CoRegNet gene","GMFG","GMFG","false","GMFG"
"CoRegNet gene","CD97","CD97","false","CD97"
"CoRegNet gene","ICAM3","ICAM3","false","ICAM3"
"CoRegNet gene","OAZ1","OAZ1","false","OAZ1"
"CoRegNet gene","R3HDM4","R3HDM4","false","R3HDM4"
"CoRegNet gene","FMNL1","FMNL1","false","FMNL1"
"CoRegNet gene","EVI2B","EVI2B","false","EVI2B"
"CoRegNet gene","CPD","CPD","false","CPD"
"CoRegNet gene","SSH2","SSH2","false","SSH2"
"CoRegNet gene","PFN1","PFN1","false","PFN1"
"CoRegNet gene","ALDOA","ALDOA","false","ALDOA"
"CoRegNet gene","CPPED1","CPPED1","false","CPPED1"
"CoRegNet gene","ANPEP","ANPEP","false","ANPEP"
"CoRegNet gene","B2M","B2M","false","B2M"
"CoRegNet gene","NUMB","NUMB","false","NUMB"
"CoRegNet gene","LCP1","LCP1","false","LCP1"
"CoRegNet gene","ALOX5AP","ALOX5AP","false","ALOX5AP"
"CoRegNet gene","SELPLG","SELPLG","false","SELPLG"
"CoRegNet gene","RASSF3","RASSF3","false","RASSF3"
"CoRegNet gene","ARHGAP9","ARHGAP9","false","ARHGAP9"
"CoRegNet gene","CLEC4E","CLEC4E","false","CLEC4E"
"CoRegNet gene","SLC2A3","SLC2A3","false","SLC2A3"
"CoRegNet gene","AMICA1","AMICA1","false","AMICA1"
"CoRegNet gene","RTN3","RTN3","false","RTN3"
"CoRegNet gene","LSP1","LSP1","false","LSP1"
"CoRegNet gene","TALDO1","TALDO1","false","TALDO1"
"CoRegNet gene","IFITM2","IFITM2","false","IFITM2"
"CoRegNet gene","C10orf54","C10orf54","false","C10orf54"
"CoRegNet gene","H3F3A","H3F3A","false","H3F3A"
"CoRegNet gene","S100A4","S100A4","false","S100A4"
"CoRegNet gene","CD53","CD53","false","CD53"
"CoRegNet gene","SMAP2","SMAP2","false","SMAP2"
"CoRegNet gene","PPT1","PPT1","false","PPT1"
"CoRegNet gene","PHC2","PHC2","false","PHC2"
"CoRegNet gene","LAPTM5","LAPTM5","false","LAPTM5"
"CoRegNet gene","FGR","FGR","false","FGR"
"CoRegNet gene","CDC42","CDC42","false","CDC42"
"CoRegNet gene","EFHD2","EFHD2","false","EFHD2"
"CoRegNet gene","NADK","NADK","false","NADK"
"CoRegNet and RA map TF","ETS1","ETS1","false","ETS1"
"CoRegNet and RA map TF","NFKBIA","NFKBIA","false","NFKBIA"
"CoRegNet and RA map TF","TNFAIP3","TNFAIP3","false","TNFAIP3"
"CoRegNet and RA map TF","JUND","JUND","false","JUND"
"CoRegNet and RA map TF","JUN","JUN","false","JUN"
"CoRegNet and RA map TF","FOS","FOS","false","FOS"
"CoRegNet TF","NFKBIZ","NFKBIZ","false","NFKBIZ"
"CoRegNet TF","MXD1","MXD1","false","MXD1"
"CoRegNet TF","DDX5","DDX5","false","DDX5"
"CoRegNet TF","FOSB","FOSB","false","FOSB"
"CoRegNet TF","PTMA","PTMA","false","PTMA"
"CoRegNet TF","IRF1","IRF1","false","IRF1"
"CoRegNet TF","TRIM22","TRIM22","false","TRIM22"
"CoRegNet TF","EEF1A1","EEF1A1","false","EEF1A1"
"CoRegNet TF","DAZAP2","DAZAP2","false","DAZAP2"
"CoRegNet TF","SPI1","SPI1","false","SPI1"
"CoRegNet TF","BCL6","BCL6","false","BCL6"
"CoRegNet TF","MNDA","MNDA","false","MNDA"
"CoRegNet TF","HCLS1","HCLS1","false","HCLS1"
"RA map protein","VAV2","VAV2","false","VAV2"
"RA map protein","VAV1","VAV1","false","VAV1"
